{"uuid":"056977d2-5ad2-4f38-a04f-b6b0f88fa16e","historyId":"a1430cd4396ea6d56fa0213f6fd58bff","status":"passed","statusDetails":{},"stage":"finished","steps":[{"status":"passed","statusDetails":{},"stage":"finished","steps":[],"attachments":[],"parameters":[],"start":1645363744442,"name":"\"before each\" hook","stop":1645363744443},{"status":"passed","statusDetails":{},"stage":"finished","steps":[{"status":"passed","statusDetails":{},"stage":"finished","steps":[],"attachments":[],"parameters":[],"start":1645363744460,"name":"log https://gorest.co.in/public/v1/users","stop":1645363744465},{"status":"passed","statusDetails":{},"stage":"finished","steps":[],"attachments":[],"parameters":[],"start":1645363744466,"name":"POST 201 https://gorest.co.in/public/v1/users","stop":1645363745730},{"status":"passed","statusDetails":{},"stage":"finished","steps":[],"attachments":[],"parameters":[],"start":1645363745738,"name":"log {\"body\":{\"meta\":null,\"data\":{\"id\":4057,\"name\":\"tXkDWeRsUv\",\"email\":\"9Mr28WYoxo@gmail.com\",\"gender\":\"male\",\"status\":\"active\"}},\"headers\":{\"server\":\"nginx\",\"date\":\"Sun, 20 Feb 2022 13:29:05 GMT\",\"content-type\":\"application/json; charset=utf-8\",\"transfer-encoding\":\"chunked\",\"connection\":\"keep-alive\",\"x-frame-options\":\"SAMEORIGIN\",\"x-xss-protection\":\"0\",\"x-content-type-options\":\"nosniff\",\"x-download-options\":\"noopen\",\"x-permitted-cross-domain-policies\":\"none\",\"referrer-policy\":\"strict-origin-when-cross-origin\",\"x-ratelimit-limit\":\"90\",\"x-ratelimit-remaining\":\"88\",\"x-ratelimit-reset\":\"1\",\"location\":\"https://gorest.co.in/public/v1/users/4057\",\"etag\":\"W/\\\"ed065863913eac5d15305223b7aa3611\\\"\",\"cache-control\":\"max-age=0, private, must-revalidate\",\"x-request-id\":\"b860789c-1489-4188-92da-463a55e6e68c\",\"x-runtime\":\"0.039876\",\"strict-transport-security\":\"max-age=63072000; includeSubDomains\",\"vary\":\"Origin\"},\"status\":201,\"statusText\":\"Created\",\"isOkStatusCode\":true,\"requestHeaders\":{\"Connection\":\"keep-alive\",\"authorization\":\"Bearer 4b4c8f088b43abd2c4328d13f40228324cda0ef0b05a86faaacb6fbd31a3124d\",\"user-agent\":\"Mozilla/5.0 (X11; Linux x86_64) AppleWebKit/537.36 (KHTML, like Gecko) HeadlessChrome/86.0.4240.193 Safari/537.36\",\"accept\":\"*/*\",\"accept-encoding\":\"gzip, deflate\",\"content-type\":\"application/json\",\"content-length\":86},\"requestBody\":\"{\\\"name\\\":\\\"tXkDWeRsUv\\\",\\\"email\\\":\\\"9Mr28WYoxo@gmail.com\\\",\\\"gender\\\":\\\"Male\\\",\\\"status\\\":\\\"Active\\\"}\",\"duration\":1213,\"allRequestResponses\":[{\"Request Body\":\"{\\\"name\\\":\\\"tXkDWeRsUv\\\",\\\"email\\\":\\\"9Mr28WYoxo@gmail.com\\\",\\\"gender\\\":\\\"Male\\\",\\\"status\\\":\\\"Active\\\"}\",\"Request Headers\":{\"Connection\":\"keep-alive\",\"authorization\":\"Bearer 4b4c8f088b43abd2c4328d13f40228324cda0ef0b05a86faaacb6fbd31a3124d\",\"user-agent\":\"Mozilla/5.0 (X11; Linux x86_64) AppleWebKit/537.36 (KHTML, like Gecko) HeadlessChrome/86.0.4240.193 Safari/537.36\",\"accept\":\"*/*\",\"accept-encoding\":\"gzip, deflate\",\"content-type\":\"application/json\",\"content-length\":86},\"Request URL\":\"https://gorest.co.in/public/v1/users\",\"Response Body\":{\"meta\":null,\"data\":{\"id\":4057,\"name\":\"tXkDWeRsUv\",\"email\":\"9Mr28WYoxo@gmail.com\",\"gender\":\"male\",\"status\":\"active\"}},\"Response Headers\":{\"server\":\"nginx\",\"date\":\"Sun, 20 Feb 2022 13:29:05 GMT\",\"content-type\":\"application/json; charset=utf-8\",\"transfer-encoding\":\"chunked\",\"connection\":\"keep-alive\",\"x-frame-options\":\"SAMEORIGIN\",\"x-xss-protection\":\"0\",\"x-content-type-options\":\"nosniff\",\"x-download-options\":\"noopen\",\"x-permitted-cross-domain-policies\":\"none\",\"referrer-policy\":\"strict-origin-when-cross-origin\",\"x-ratelimit-limit\":\"90\",\"x-ratelimit-remaining\":\"88\",\"x-ratelimit-reset\":\"1\",\"location\":\"https://gorest.co.in/public/v1/users/4057\",\"etag\":\"W/\\\"ed065863913eac5d15305223b7aa3611\\\"\",\"cache-control\":\"max-age=0, private, must-revalidate\",\"x-request-id\":\"b860789c-1489-4188-92da-463a55e6e68c\",\"x-runtime\":\"0.039876\",\"strict-transport-security\":\"max-age=63072000; includeSubDomains\",\"vary\":\"Origin\"},\"Response Status\":201}]}","stop":1645363745744}],"attachments":[],"parameters":[],"start":1645363744459,"name":"Then User Validates Post Call","stop":1645363745748},{"status":"passed","statusDetails":{},"stage":"finished","steps":[{"status":"passed","statusDetails":{},"stage":"finished","steps":[],"attachments":[],"parameters":[],"start":1645363745749,"name":"GET 200 https://gorest.co.in/public/v1/users","stop":1645363746023},{"status":"passed","statusDetails":{},"stage":"finished","steps":[],"attachments":[],"parameters":[],"start":1645363746028,"name":"log {\"body\":{\"meta\":{\"pagination\":{\"total\":3468,\"pages\":174,\"page\":1,\"limit\":20,\"links\":{\"previous\":null,\"current\":\"https://gorest.co.in/public/v1/users?page=1\",\"next\":\"https://gorest.co.in/public/v1/users?page=2\"}}},\"data\":[{\"id\":4057,\"name\":\"tXkDWeRsUv\",\"email\":\"9Mr28WYoxo@gmail.com\",\"gender\":\"male\",\"status\":\"active\"},{\"id\":4053,\"name\":\"jPKaQUOEQR\",\"email\":\"DPCidWwlJZ@gmail.com\",\"gender\":\"male\",\"status\":\"active\"},{\"id\":4052,\"name\":\"DnTmGJTjHQ\",\"email\":\"EjmEWG8g6T@gmail.com\",\"gender\":\"male\",\"status\":\"active\"},{\"id\":4051,\"name\":\"mGUzkIfwLa\",\"email\":\"W0Nc5X2seH@gmail.com\",\"gender\":\"male\",\"status\":\"active\"},{\"id\":4050,\"name\":\"gxFaQHbbNl\",\"email\":\"5Ob3U67N64@gmail.com\",\"gender\":\"male\",\"status\":\"active\"},{\"id\":4049,\"name\":\"gLMjaAVTdl\",\"email\":\"X1gXmtLDdQ@gmail.com\",\"gender\":\"male\",\"status\":\"active\"},{\"id\":4048,\"name\":\"oCuLbTZfmG\",\"email\":\"qcVupjiz8s@gmail.com\",\"gender\":\"male\",\"status\":\"active\"},{\"id\":4047,\"name\":\"gcXlvzGIeG\",\"email\":\"IKZZ1JDNqo@gmail.com\",\"gender\":\"male\",\"status\":\"active\"},{\"id\":4046,\"name\":\"BlABVhPLfq\",\"email\":\"tgyyn6RK4l@gmail.com\",\"gender\":\"male\",\"status\":\"active\"},{\"id\":4045,\"name\":\"sBQNitWHDY\",\"email\":\"0ZQD6vKTtV@gmail.com\",\"gender\":\"male\",\"status\":\"active\"},{\"id\":4044,\"name\":\"dUbJTgIfDm\",\"email\":\"umI2OjGVh2@gmail.com\",\"gender\":\"male\",\"status\":\"active\"},{\"id\":4043,\"name\":\"BXWtjjuuXN\",\"email\":\"9dbVA0JTcU@gmail.com\",\"gender\":\"male\",\"status\":\"active\"},{\"id\":4042,\"name\":\"RYXookdNWu\",\"email\":\"wOsCbtKOJ4@gmail.com\",\"gender\":\"male\",\"status\":\"active\"},{\"id\":4035,\"name\":\"KLFRlRpauM\",\"email\":\"UcCOCmdqs7@gmail.com\",\"gender\":\"male\",\"status\":\"active\"},{\"id\":4034,\"name\":\"bQhRmvJmMZ\",\"email\":\"GrdgFBcdQG@gmail.com\",\"gender\":\"male\",\"status\":\"active\"},{\"id\":4033,\"name\":\"kVPsbiSPzn\",\"email\":\"C08iyoGpgC@gmail.com\",\"gender\":\"male\",\"status\":\"active\"},{\"id\":4032,\"name\":\"KLgotYLrWC\",\"email\":\"Wp9lIB6UUD@gmail.com\",\"gender\":\"male\",\"status\":\"active\"},{\"id\":4024,\"name\":\"aiMZxNuxvI\",\"email\":\"aV64BoKbfj@gmail.com\",\"gender\":\"male\",\"status\":\"active\"},{\"id\":4023,\"name\":\"hYwyOZRpYL\",\"email\":\"bzKKQPVbPa@gmail.com\",\"gender\":\"male\",\"status\":\"active\"},{\"id\":4022,\"name\":\"wOEgRtYTSF\",\"email\":\"t6tBZm1k2j@gmail.com\",\"gender\":\"male\",\"status\":\"active\"}]},\"headers\":{\"server\":\"nginx\",\"date\":\"Sun, 20 Feb 2022 13:29:05 GMT\",\"content-type\":\"application/json; charset=utf-8\",\"transfer-encoding\":\"chunked\",\"connection\":\"keep-alive\",\"vary\":\"Accept-Encoding, Origin\",\"x-frame-options\":\"SAMEORIGIN\",\"x-xss-protection\":\"0\",\"x-content-type-options\":\"nosniff\",\"x-download-options\":\"noopen\",\"x-permitted-cross-domain-policies\":\"none\",\"referrer-policy\":\"strict-origin-when-cross-origin\",\"x-ratelimit-limit\":\"90\",\"x-ratelimit-remaining\":\"89\",\"x-ratelimit-reset\":\"2\",\"etag\":\"W/\\\"e542a54b3bbdd6e22ad3c38409b954be\\\"\",\"cache-control\":\"max-age=0, private, must-revalidate\",\"x-request-id\":\"acf7a83d-1f82-4a15-8893-48c97e66f476\",\"x-runtime\":\"0.027834\",\"strict-transport-security\":\"max-age=63072000; includeSubDomains\",\"content-encoding\":\"gzip\"},\"status\":200,\"statusText\":\"OK\",\"isOkStatusCode\":true,\"requestHeaders\":{\"Connection\":\"keep-alive\",\"authorization\":\"Bearer 4b4c8f088b43abd2c4328d13f40228324cda0ef0b05a86faaacb6fbd31a3124d\",\"user-agent\":\"Mozilla/5.0 (X11; Linux x86_64) AppleWebKit/537.36 (KHTML, like Gecko) HeadlessChrome/86.0.4240.193 Safari/537.36\",\"accept\":\"*/*\",\"accept-encoding\":\"gzip, deflate\"},\"duration\":256,\"allRequestResponses\":[{\"Request Body\":null,\"Request Headers\":{\"Connection\":\"keep-alive\",\"authorization\":\"Bearer 4b4c8f088b43abd2c4328d13f40228324cda0ef0b05a86faaacb6fbd31a3124d\",\"user-agent\":\"Mozilla/5.0 (X11; Linux x86_64) AppleWebKit/537.36 (KHTML, like Gecko) HeadlessChrome/86.0.4240.193 Safari/537.36\",\"accept\":\"*/*\",\"accept-encoding\":\"gzip, deflate\"},\"Request URL\":\"https://gorest.co.in/public/v1/users\",\"Response Body\":\"{\\\"meta\\\":{\\\"pagination\\\":{\\\"total\\\":3468,\\\"pages\\\":174,\\\"page\\\":1,\\\"limit\\\":20,\\\"links\\\":{\\\"previous\\\":null,\\\"current\\\":\\\"https://gorest.co.in/public/v1/users?page=1\\\",\\\"next\\\":\\\"https://gorest.co.in/public/v1/users?page=2\\\"}}},\\\"data\\\":[{\\\"id\\\":4057,\\\"name\\\":\\\"tXkDWeRsUv\\\",\\\"email\\\":\\\"9Mr28WYoxo@gmail.com\\\",\\\"gender\\\":\\\"male\\\",\\\"status\\\":\\\"active\\\"},{\\\"id\\\":4053,\\\"name\\\":\\\"jPKaQUOEQR\\\",\\\"email\\\":\\\"DPCidWwlJZ@gmail.com\\\",\\\"gender\\\":\\\"male\\\",\\\"status\\\":\\\"active\\\"},{\\\"id\\\":4052,\\\"name\\\":\\\"DnTmGJTjHQ\\\",\\\"email\\\":\\\"EjmEWG8g6T@gmail.com\\\",\\\"gender\\\":\\\"male\\\",\\\"status\\\":\\\"active\\\"},{\\\"id\\\":4051,\\\"name\\\":\\\"mGUzkIfwLa\\\",\\\"email\\\":\\\"W0Nc5X2seH@gmail.com\\\",\\\"gender\\\":\\\"male\\\",\\\"status\\\":\\\"active\\\"},{\\\"id\\\":4050,\\\"name\\\":\\\"gxFaQHbbNl\\\",\\\"email\\\":\\\"5Ob3U67N64@gmail.com\\\",\\\"gender\\\":\\\"male\\\",\\\"status\\\":\\\"active\\\"},{\\\"id\\\":4049,\\\"name\\\":\\\"gLMjaAVTdl\\\",\\\"email\\\":\\\"X1gXmtLDdQ@gmail.com\\\",\\\"gender\\\":\\\"male\\\",\\\"status\\\":\\\"active\\\"},{\\\"id\\\":4048,\\\"name\\\":\\\"oCuLbTZfmG\\\",\\\"email\\\":\\\"qcVupjiz8s@gmail.com\\\",\\\"gender\\\":\\\"male\\\",\\\"status\\\":\\\"active\\\"},{\\\"id\\\":4047,\\\"name\\\":\\\"gcXlvzGIeG\\\",\\\"email\\\":\\\"IKZZ1JDNqo@gmail.com\\\",\\\"gender\\\":\\\"male\\\",\\\"status\\\":\\\"active\\\"},{\\\"id\\\":4046,\\\"name\\\":\\\"BlABVhPLfq\\\",\\\"email\\\":\\\"tgyyn6RK4l@gmail.com\\\",\\\"gender\\\":\\\"male\\\",\\\"status\\\":\\\"active\\\"},{\\\"id\\\":4045,\\\"name\\\":\\\"sBQNitWHDY\\\",\\\"email\\\":\\\"0ZQD6vKTtV@gmail.com\\\",\\\"gender\\\":\\\"male\\\",\\\"status\\\":\\\"active\\\"},{\\\"id\\\":4044,\\\"name\\\":\\\"dUbJTgIfDm\\\",\\\"email\\\":\\\"umI2OjGVh2@gmail.com\\\",\\\"gender\\\":\\\"male\\\",\\\"status\\\":\\\"active\\\"},{\\\"id\\\":4043,\\\"name\\\":\\\"BXWtjjuuXN\\\",\\\"email\\\":\\\"9dbVA0JTcU@gmail.com\\\",\\\"gender\\\":\\\"male\\\",\\\"status\\\":\\\"active\\\"},{\\\"id\\\":4042,\\\"name\\\":\\\"RYXookdNWu\\\",\\\"email\\\":\\\"wOsCbtKOJ4@gmail.com\\\",\\\"gender\\\":\\\"male\\\",\\\"status\\\":\\\"active\\\"},{\\\"id\\\":4035,\\\"name\\\":\\\"KLFRlRpauM\\\",\\\"email\\\":\\\"UcCOCmdqs7@gmail.com\\\",\\\"gender\\\":\\\"male\\\",\\\"status\\\":\\\"active\\\"},{\\\"id\\\":4034,\\\"name\\\":\\\"bQhRmvJmMZ\\\",\\\"email\\\":\\\"GrdgFBcdQG@gmail.com\\\",\\\"gender\\\":\\\"male\\\",\\\"status\\\":\\\"active\\\"},{\\\"id\\\":4033,\\\"name\\\":\\\"kVPsbiSPzn\\\",\\\"email\\\":\\\"C08iyoGpgC@gmail.com\\\",\\\"gender\\\":\\\"male\\\",\\\"status\\\":\\\"active\\\"},{\\\"id\\\":4032,\\\"name\\\":\\\"KLgotYLrWC\\\",\\\"email\\\":\\\"Wp9lIB6UUD@gmail.com\\\",\\\"gender\\\":\\\"male\\\",\\\"status\\\":\\\"active\\\"},{\\\"id\\\":4024,\\\"name\\\":\\\"aiMZxNuxvI\\\",\\\"email\\\":\\\"aV64BoKbfj@gmail.com\\\",\\\"gender\\\":\\\"male\\\",\\\"status\\\":\\\"active\\\"},{\\\"id\\\":4023,\\\"name\\\":\\\"hYwyOZRpYL\\\",\\\"email\\\":\\\"bzKKQPVbPa@gmail.com\\\",\\\"gender\\\":\\\"male\\\",\\\"status\\\":\\\"active\\\"},{\\\"id\\\":4022,\\\"name\\\":\\\"wOEgRtYTSF\\\",\\\"email\\\":\\\"t6tBZm1k2j@gmail.com\\\",\\\"gender\\\":\\\"male\\\",\\\"status\\\":\\\"active\\\"}]}\",\"Response Headers\":{\"server\":\"nginx\",\"date\":\"Sun, 20 Feb 2022 13:29:05 GMT\",\"content-type\":\"application/json; charset=utf-8\",\"transfer-encoding\":\"chunked\",\"connection\":\"keep-alive\",\"vary\":\"Accept-Encoding, Origin\",\"x-frame-options\":\"SAMEORIGIN\",\"x-xss-protection\":\"0\",\"x-content-type-options\":\"nosniff\",\"x-download-options\":\"noopen\",\"x-permitted-cross-domain-policies\":\"none\",\"referrer-policy\":\"strict-origin-when-cross-origin\",\"x-ratelimit-limit\":\"90\",\"x-ratelimit-remaining\":\"89\",\"x-ratelimit-reset\":\"2\",\"etag\":\"W/\\\"e542a54b3bbdd6e22ad3c38409b954be\\\"\",\"cache-control\":\"max-age=0, private, must-revalidate\",\"x-request-id\":\"acf7a83d-1f82-4a15-8893-48c97e66f476\",\"x-runtime\":\"0.027834\",\"strict-transport-security\":\"max-age=63072000; includeSubDomains\",\"content-encoding\":\"gzip\"},\"Response Status\":200}]}","stop":1645363746039}],"attachments":[],"parameters":[],"start":1645363745748,"name":"Then User Validates Get Call","stop":1645363746044},{"status":"passed","statusDetails":{},"stage":"finished","steps":[{"status":"passed","statusDetails":{},"stage":"finished","steps":[],"attachments":[],"parameters":[],"start":1645363746044,"name":"log Put Method","stop":1645363746048}],"attachments":[],"parameters":[],"start":1645363746044,"name":"Then User Validates Put Call","stop":1645363746052},{"status":"passed","statusDetails":{},"stage":"finished","steps":[{"status":"passed","statusDetails":{},"stage":"finished","steps":[],"attachments":[],"parameters":[],"start":1645363746052,"name":"log Delete Method","stop":1645363746055}],"attachments":[],"parameters":[],"start":1645363746052,"name":"Then User Validates Delete Call","stop":1645363746057},{"status":"passed","statusDetails":{},"stage":"finished","steps":[],"attachments":[],"parameters":[],"start":1645363746080,"name":"\"after each\" hook","stop":1645363746082}],"attachments":[{"name":"video recording","type":"video/mp4","source":"237c5d93-8a2c-4772-82e2-ac71e64bf631-attachment.mp4"}],"parameters":[],"labels":[{"name":"suite","value":"API"},{"name":"feature","value":"Test E2E"},{"name":"tag","value":"Regression"}],"links":[],"start":1645363744439,"name":"TC001:Validate API Test","fullName":"TC001:Validate API Test","stop":1645363746058}