{"uuid":"141800a1-de49-436c-bb71-e445b7c50b77","historyId":"a1430cd4396ea6d56fa0213f6fd58bff","status":"passed","statusDetails":{},"stage":"finished","steps":[{"status":"passed","statusDetails":{},"stage":"finished","steps":[],"attachments":[],"parameters":[],"start":1645337507157,"name":"\"before each\" hook","stop":1645337507157},{"status":"passed","statusDetails":{},"stage":"finished","steps":[{"status":"passed","statusDetails":{},"stage":"finished","steps":[],"attachments":[],"parameters":[],"start":1645337507176,"name":"log https://gorest.co.in/public/v1/users","stop":1645337507180},{"status":"passed","statusDetails":{},"stage":"finished","steps":[],"attachments":[],"parameters":[],"start":1645337507181,"name":"POST 201 https://gorest.co.in/public/v1/users","stop":1645337507592},{"status":"passed","statusDetails":{},"stage":"finished","steps":[],"attachments":[],"parameters":[],"start":1645337507618,"name":"log {\"body\":{\"meta\":null,\"data\":{\"id\":3680,\"name\":\"jpDXTNmGap\",\"email\":\"rsIXzUzeaP@gmail.com\",\"gender\":\"male\",\"status\":\"active\"}},\"headers\":{\"server\":\"nginx\",\"date\":\"Sun, 20 Feb 2022 06:14:21 GMT\",\"content-type\":\"application/json; charset=utf-8\",\"transfer-encoding\":\"chunked\",\"connection\":\"keep-alive\",\"x-frame-options\":\"SAMEORIGIN\",\"x-xss-protection\":\"0\",\"x-content-type-options\":\"nosniff\",\"x-download-options\":\"noopen\",\"x-permitted-cross-domain-policies\":\"none\",\"referrer-policy\":\"strict-origin-when-cross-origin\",\"x-ratelimit-limit\":\"90\",\"x-ratelimit-remaining\":\"88\",\"x-ratelimit-reset\":\"1\",\"location\":\"https://gorest.co.in/public/v1/users/3680\",\"etag\":\"W/\\\"06422e47e3c7a12f4cc096897f89a145\\\"\",\"cache-control\":\"max-age=0, private, must-revalidate\",\"x-request-id\":\"faf39a5f-0e28-440f-b6c4-5fa7986ff9f8\",\"x-runtime\":\"0.028140\",\"strict-transport-security\":\"max-age=63072000; includeSubDomains\",\"vary\":\"Origin\"},\"status\":201,\"statusText\":\"Created\",\"isOkStatusCode\":true,\"requestHeaders\":{\"Connection\":\"keep-alive\",\"authorization\":\"Bearer 4b4c8f088b43abd2c4328d13f40228324cda0ef0b05a86faaacb6fbd31a3124d\",\"user-agent\":\"Mozilla/5.0 (Windows NT 10.0; Win64; x64) AppleWebKit/537.36 (KHTML, like Gecko) Cypress/9.5.0 Chrome/94.0.4606.81 Electron/15.3.4 Safari/537.36\",\"accept\":\"*/*\",\"accept-encoding\":\"gzip, deflate\",\"content-type\":\"application/json\",\"content-length\":86},\"requestBody\":\"{\\\"name\\\":\\\"jpDXTNmGap\\\",\\\"email\\\":\\\"rsIXzUzeaP@gmail.com\\\",\\\"gender\\\":\\\"Male\\\",\\\"status\\\":\\\"Active\\\"}\",\"duration\":399,\"allRequestResponses\":[{\"Request Body\":\"{\\\"name\\\":\\\"jpDXTNmGap\\\",\\\"email\\\":\\\"rsIXzUzeaP@gmail.com\\\",\\\"gender\\\":\\\"Male\\\",\\\"status\\\":\\\"Active\\\"}\",\"Request Headers\":{\"Connection\":\"keep-alive\",\"authorization\":\"Bearer 4b4c8f088b43abd2c4328d13f40228324cda0ef0b05a86faaacb6fbd31a3124d\",\"user-agent\":\"Mozilla/5.0 (Windows NT 10.0; Win64; x64) AppleWebKit/537.36 (KHTML, like Gecko) Cypress/9.5.0 Chrome/94.0.4606.81 Electron/15.3.4 Safari/537.36\",\"accept\":\"*/*\",\"accept-encoding\":\"gzip, deflate\",\"content-type\":\"application/json\",\"content-length\":86},\"Request URL\":\"https://gorest.co.in/public/v1/users\",\"Response Body\":{\"meta\":null,\"data\":{\"id\":3680,\"name\":\"jpDXTNmGap\",\"email\":\"rsIXzUzeaP@gmail.com\",\"gender\":\"male\",\"status\":\"active\"}},\"Response Headers\":{\"server\":\"nginx\",\"date\":\"Sun, 20 Feb 2022 06:14:21 GMT\",\"content-type\":\"application/json; charset=utf-8\",\"transfer-encoding\":\"chunked\",\"connection\":\"keep-alive\",\"x-frame-options\":\"SAMEORIGIN\",\"x-xss-protection\":\"0\",\"x-content-type-options\":\"nosniff\",\"x-download-options\":\"noopen\",\"x-permitted-cross-domain-policies\":\"none\",\"referrer-policy\":\"strict-origin-when-cross-origin\",\"x-ratelimit-limit\":\"90\",\"x-ratelimit-remaining\":\"88\",\"x-ratelimit-reset\":\"1\",\"location\":\"https://gorest.co.in/public/v1/users/3680\",\"etag\":\"W/\\\"06422e47e3c7a12f4cc096897f89a145\\\"\",\"cache-control\":\"max-age=0, private, must-revalidate\",\"x-request-id\":\"faf39a5f-0e28-440f-b6c4-5fa7986ff9f8\",\"x-runtime\":\"0.028140\",\"strict-transport-security\":\"max-age=63072000; includeSubDomains\",\"vary\":\"Origin\"},\"Response Status\":201}]}","stop":1645337507632}],"attachments":[],"parameters":[],"start":1645337507175,"name":"Then User Validates Post Call","stop":1645337507637},{"status":"passed","statusDetails":{},"stage":"finished","steps":[{"status":"passed","statusDetails":{},"stage":"finished","steps":[],"attachments":[],"parameters":[],"start":1645337507638,"name":"GET 200 https://gorest.co.in/public/v1/users","stop":1645337507754},{"status":"passed","statusDetails":{},"stage":"finished","steps":[],"attachments":[],"parameters":[],"start":1645337507763,"name":"log {\"body\":{\"meta\":{\"pagination\":{\"total\":3436,\"pages\":172,\"page\":1,\"limit\":20,\"links\":{\"previous\":null,\"current\":\"https://gorest.co.in/public/v1/users?page=1\",\"next\":\"https://gorest.co.in/public/v1/users?page=2\"}}},\"data\":[{\"id\":3680,\"name\":\"jpDXTNmGap\",\"email\":\"rsIXzUzeaP@gmail.com\",\"gender\":\"male\",\"status\":\"active\"},{\"id\":3679,\"name\":\"jCHGiSnzBO\",\"email\":\"vuhA3rZ8I5@gmail.com\",\"gender\":\"male\",\"status\":\"active\"},{\"id\":3678,\"name\":\"OeeaVdQaXs\",\"email\":\"ZLxkjgEmVr@gmail.com\",\"gender\":\"male\",\"status\":\"active\"},{\"id\":3675,\"name\":\"AKdntzYEzM\",\"email\":\"8w7FJetBf1@gmail.com\",\"gender\":\"male\",\"status\":\"active\"},{\"id\":3474,\"name\":\"Ajit Deshpande\",\"email\":\"deshpande_ajit@dietrich.info\",\"gender\":\"female\",\"status\":\"inactive\"},{\"id\":3473,\"name\":\"Vasudev Ganaka IV\",\"email\":\"iv_vasudev_ganaka@vonrueden-friesen.com\",\"gender\":\"male\",\"status\":\"active\"},{\"id\":3472,\"name\":\"Devi Kapoor\",\"email\":\"kapoor_devi@daugherty.io\",\"gender\":\"female\",\"status\":\"active\"},{\"id\":3471,\"name\":\"Achintya Trivedi\",\"email\":\"achintya_trivedi@mcglynn.net\",\"gender\":\"male\",\"status\":\"inactive\"},{\"id\":3470,\"name\":\"Mahendra Prajapat\",\"email\":\"mahendra_prajapat@fay-bechtelar.co\",\"gender\":\"female\",\"status\":\"active\"},{\"id\":3469,\"name\":\"Chidaatma Embranthiri\",\"email\":\"embranthiri_chidaatma@renner.com\",\"gender\":\"female\",\"status\":\"active\"},{\"id\":3468,\"name\":\"Bhaanumati Chaturvedi\",\"email\":\"bhaanumati_chaturvedi@mann.net\",\"gender\":\"male\",\"status\":\"active\"},{\"id\":3467,\"name\":\"Chandranath Nambeesan\",\"email\":\"chandranath_nambeesan@wintheiser.co\",\"gender\":\"male\",\"status\":\"inactive\"},{\"id\":3465,\"name\":\"The Hon. Vidur Marar\",\"email\":\"vidur_marar_hon_the@rutherford-watsica.biz\",\"gender\":\"female\",\"status\":\"active\"},{\"id\":3464,\"name\":\"Esha Khan III\",\"email\":\"iii_esha_khan@collier-mueller.org\",\"gender\":\"male\",\"status\":\"inactive\"},{\"id\":3463,\"name\":\"Miss Asha Pilla\",\"email\":\"miss_pilla_asha@hegmann.biz\",\"gender\":\"female\",\"status\":\"inactive\"},{\"id\":3462,\"name\":\"Shashi Adiga IV\",\"email\":\"adiga_shashi_iv@ullrich.biz\",\"gender\":\"male\",\"status\":\"inactive\"},{\"id\":3461,\"name\":\"Rep. Brahma Joshi\",\"email\":\"joshi_brahma_rep@howe.co\",\"gender\":\"female\",\"status\":\"active\"},{\"id\":3460,\"name\":\"Abhaidev Bandopadhyay\",\"email\":\"bandopadhyay_abhaidev@rice.com\",\"gender\":\"male\",\"status\":\"active\"},{\"id\":3459,\"name\":\"Aagney Devar\",\"email\":\"aagney_devar@lueilwitz.co\",\"gender\":\"female\",\"status\":\"active\"},{\"id\":3458,\"name\":\"Subhash Banerjee\",\"email\":\"subhash_banerjee@christiansen-jast.com\",\"gender\":\"female\",\"status\":\"inactive\"}]},\"headers\":{\"server\":\"nginx\",\"date\":\"Sun, 20 Feb 2022 06:14:21 GMT\",\"content-type\":\"application/json; charset=utf-8\",\"transfer-encoding\":\"chunked\",\"connection\":\"keep-alive\",\"vary\":\"Accept-Encoding, Origin\",\"x-frame-options\":\"SAMEORIGIN\",\"x-xss-protection\":\"0\",\"x-content-type-options\":\"nosniff\",\"x-download-options\":\"noopen\",\"x-permitted-cross-domain-policies\":\"none\",\"referrer-policy\":\"strict-origin-when-cross-origin\",\"x-ratelimit-limit\":\"90\",\"x-ratelimit-remaining\":\"89\",\"x-ratelimit-reset\":\"2\",\"etag\":\"W/\\\"b9eb0a442102c74e906bf3faaf1a4d9d\\\"\",\"cache-control\":\"max-age=0, private, must-revalidate\",\"x-request-id\":\"7e392715-b1e1-46b8-a8fc-9fbb455e3577\",\"x-runtime\":\"0.027321\",\"strict-transport-security\":\"max-age=63072000; includeSubDomains\",\"content-encoding\":\"gzip\"},\"status\":200,\"statusText\":\"OK\",\"isOkStatusCode\":true,\"requestHeaders\":{\"Connection\":\"keep-alive\",\"authorization\":\"Bearer 4b4c8f088b43abd2c4328d13f40228324cda0ef0b05a86faaacb6fbd31a3124d\",\"user-agent\":\"Mozilla/5.0 (Windows NT 10.0; Win64; x64) AppleWebKit/537.36 (KHTML, like Gecko) Cypress/9.5.0 Chrome/94.0.4606.81 Electron/15.3.4 Safari/537.36\",\"accept\":\"*/*\",\"accept-encoding\":\"gzip, deflate\"},\"duration\":101,\"allRequestResponses\":[{\"Request Body\":null,\"Request Headers\":{\"Connection\":\"keep-alive\",\"authorization\":\"Bearer 4b4c8f088b43abd2c4328d13f40228324cda0ef0b05a86faaacb6fbd31a3124d\",\"user-agent\":\"Mozilla/5.0 (Windows NT 10.0; Win64; x64) AppleWebKit/537.36 (KHTML, like Gecko) Cypress/9.5.0 Chrome/94.0.4606.81 Electron/15.3.4 Safari/537.36\",\"accept\":\"*/*\",\"accept-encoding\":\"gzip, deflate\"},\"Request URL\":\"https://gorest.co.in/public/v1/users\",\"Response Body\":\"{\\\"meta\\\":{\\\"pagination\\\":{\\\"total\\\":3436,\\\"pages\\\":172,\\\"page\\\":1,\\\"limit\\\":20,\\\"links\\\":{\\\"previous\\\":null,\\\"current\\\":\\\"https://gorest.co.in/public/v1/users?page=1\\\",\\\"next\\\":\\\"https://gorest.co.in/public/v1/users?page=2\\\"}}},\\\"data\\\":[{\\\"id\\\":3680,\\\"name\\\":\\\"jpDXTNmGap\\\",\\\"email\\\":\\\"rsIXzUzeaP@gmail.com\\\",\\\"gender\\\":\\\"male\\\",\\\"status\\\":\\\"active\\\"},{\\\"id\\\":3679,\\\"name\\\":\\\"jCHGiSnzBO\\\",\\\"email\\\":\\\"vuhA3rZ8I5@gmail.com\\\",\\\"gender\\\":\\\"male\\\",\\\"status\\\":\\\"active\\\"},{\\\"id\\\":3678,\\\"name\\\":\\\"OeeaVdQaXs\\\",\\\"email\\\":\\\"ZLxkjgEmVr@gmail.com\\\",\\\"gender\\\":\\\"male\\\",\\\"status\\\":\\\"active\\\"},{\\\"id\\\":3675,\\\"name\\\":\\\"AKdntzYEzM\\\",\\\"email\\\":\\\"8w7FJetBf1@gmail.com\\\",\\\"gender\\\":\\\"male\\\",\\\"status\\\":\\\"active\\\"},{\\\"id\\\":3474,\\\"name\\\":\\\"Ajit Deshpande\\\",\\\"email\\\":\\\"deshpande_ajit@dietrich.info\\\",\\\"gender\\\":\\\"female\\\",\\\"status\\\":\\\"inactive\\\"},{\\\"id\\\":3473,\\\"name\\\":\\\"Vasudev Ganaka IV\\\",\\\"email\\\":\\\"iv_vasudev_ganaka@vonrueden-friesen.com\\\",\\\"gender\\\":\\\"male\\\",\\\"status\\\":\\\"active\\\"},{\\\"id\\\":3472,\\\"name\\\":\\\"Devi Kapoor\\\",\\\"email\\\":\\\"kapoor_devi@daugherty.io\\\",\\\"gender\\\":\\\"female\\\",\\\"status\\\":\\\"active\\\"},{\\\"id\\\":3471,\\\"name\\\":\\\"Achintya Trivedi\\\",\\\"email\\\":\\\"achintya_trivedi@mcglynn.net\\\",\\\"gender\\\":\\\"male\\\",\\\"status\\\":\\\"inactive\\\"},{\\\"id\\\":3470,\\\"name\\\":\\\"Mahendra Prajapat\\\",\\\"email\\\":\\\"mahendra_prajapat@fay-bechtelar.co\\\",\\\"gender\\\":\\\"female\\\",\\\"status\\\":\\\"active\\\"},{\\\"id\\\":3469,\\\"name\\\":\\\"Chidaatma Embranthiri\\\",\\\"email\\\":\\\"embranthiri_chidaatma@renner.com\\\",\\\"gender\\\":\\\"female\\\",\\\"status\\\":\\\"active\\\"},{\\\"id\\\":3468,\\\"name\\\":\\\"Bhaanumati Chaturvedi\\\",\\\"email\\\":\\\"bhaanumati_chaturvedi@mann.net\\\",\\\"gender\\\":\\\"male\\\",\\\"status\\\":\\\"active\\\"},{\\\"id\\\":3467,\\\"name\\\":\\\"Chandranath Nambeesan\\\",\\\"email\\\":\\\"chandranath_nambeesan@wintheiser.co\\\",\\\"gender\\\":\\\"male\\\",\\\"status\\\":\\\"inactive\\\"},{\\\"id\\\":3465,\\\"name\\\":\\\"The Hon. Vidur Marar\\\",\\\"email\\\":\\\"vidur_marar_hon_the@rutherford-watsica.biz\\\",\\\"gender\\\":\\\"female\\\",\\\"status\\\":\\\"active\\\"},{\\\"id\\\":3464,\\\"name\\\":\\\"Esha Khan III\\\",\\\"email\\\":\\\"iii_esha_khan@collier-mueller.org\\\",\\\"gender\\\":\\\"male\\\",\\\"status\\\":\\\"inactive\\\"},{\\\"id\\\":3463,\\\"name\\\":\\\"Miss Asha Pilla\\\",\\\"email\\\":\\\"miss_pilla_asha@hegmann.biz\\\",\\\"gender\\\":\\\"female\\\",\\\"status\\\":\\\"inactive\\\"},{\\\"id\\\":3462,\\\"name\\\":\\\"Shashi Adiga IV\\\",\\\"email\\\":\\\"adiga_shashi_iv@ullrich.biz\\\",\\\"gender\\\":\\\"male\\\",\\\"status\\\":\\\"inactive\\\"},{\\\"id\\\":3461,\\\"name\\\":\\\"Rep. Brahma Joshi\\\",\\\"email\\\":\\\"joshi_brahma_rep@howe.co\\\",\\\"gender\\\":\\\"female\\\",\\\"status\\\":\\\"active\\\"},{\\\"id\\\":3460,\\\"name\\\":\\\"Abhaidev Bandopadhyay\\\",\\\"email\\\":\\\"bandopadhyay_abhaidev@rice.com\\\",\\\"gender\\\":\\\"male\\\",\\\"status\\\":\\\"active\\\"},{\\\"id\\\":3459,\\\"name\\\":\\\"Aagney Devar\\\",\\\"email\\\":\\\"aagney_devar@lueilwitz.co\\\",\\\"gender\\\":\\\"female\\\",\\\"status\\\":\\\"active\\\"},{\\\"id\\\":3458,\\\"name\\\":\\\"Subhash Banerjee\\\",\\\"email\\\":\\\"subhash_banerjee@christiansen-jast.com\\\",\\\"gender\\\":\\\"female\\\",\\\"status\\\":\\\"inactive\\\"}]}\",\"Response Headers\":{\"server\":\"nginx\",\"date\":\"Sun, 20 Feb 2022 06:14:21 GMT\",\"content-type\":\"application/json; charset=utf-8\",\"transfer-encoding\":\"chunked\",\"connection\":\"keep-alive\",\"vary\":\"Accept-Encoding, Origin\",\"x-frame-options\":\"SAMEORIGIN\",\"x-xss-protection\":\"0\",\"x-content-type-options\":\"nosniff\",\"x-download-options\":\"noopen\",\"x-permitted-cross-domain-policies\":\"none\",\"referrer-policy\":\"strict-origin-when-cross-origin\",\"x-ratelimit-limit\":\"90\",\"x-ratelimit-remaining\":\"89\",\"x-ratelimit-reset\":\"2\",\"etag\":\"W/\\\"b9eb0a442102c74e906bf3faaf1a4d9d\\\"\",\"cache-control\":\"max-age=0, private, must-revalidate\",\"x-request-id\":\"7e392715-b1e1-46b8-a8fc-9fbb455e3577\",\"x-runtime\":\"0.027321\",\"strict-transport-security\":\"max-age=63072000; includeSubDomains\",\"content-encoding\":\"gzip\"},\"Response Status\":200}]}","stop":1645337507804}],"attachments":[],"parameters":[],"start":1645337507637,"name":"Then User Validates Get Call","stop":1645337507816},{"status":"passed","statusDetails":{},"stage":"finished","steps":[{"status":"passed","statusDetails":{},"stage":"finished","steps":[],"attachments":[],"parameters":[],"start":1645337507817,"name":"log Put Method","stop":1645337507821}],"attachments":[],"parameters":[],"start":1645337507816,"name":"Then User Validates Put Call","stop":1645337507825},{"status":"passed","statusDetails":{},"stage":"finished","steps":[{"status":"passed","statusDetails":{},"stage":"finished","steps":[],"attachments":[],"parameters":[],"start":1645337507828,"name":"log Delete Method","stop":1645337507835}],"attachments":[],"parameters":[],"start":1645337507825,"name":"Then User Validates Delete Call","stop":1645337507837},{"status":"passed","statusDetails":{},"stage":"finished","steps":[],"attachments":[],"parameters":[],"start":1645337507882,"name":"\"after each\" hook","stop":1645337507884}],"attachments":[{"name":"video recording","type":"video/mp4","source":"c4496c90-f28f-4bf2-a6cc-c6aca189a72d-attachment.mp4"}],"parameters":[],"labels":[{"name":"suite","value":"API"},{"name":"feature","value":"Test E2E"},{"name":"tag","value":"Regression"}],"links":[],"start":1645337507145,"name":"TC001:Validate API Test","fullName":"TC001:Validate API Test","stop":1645337507838}