{"uuid":"1d347801-5651-4ad2-ad2a-01dce6449249","historyId":"f33da67a3de8eeca43913d49b621a687","status":"passed","statusDetails":{},"stage":"finished","steps":[{"status":"passed","statusDetails":{},"stage":"finished","steps":[],"attachments":[],"parameters":[],"start":1645440413936,"name":"\"before each\" hook","stop":1645440413937},{"status":"passed","statusDetails":{},"stage":"finished","steps":[{"status":"passed","statusDetails":{},"stage":"finished","steps":[],"attachments":[],"parameters":[],"start":1645440413956,"name":"log https://gorest.co.in/public/v1/users","stop":1645440413960},{"status":"passed","statusDetails":{},"stage":"finished","steps":[],"attachments":[],"parameters":[],"start":1645440413962,"name":"POST 201 https://gorest.co.in/public/v1/users","stop":1645440415153},{"status":"passed","statusDetails":{},"stage":"finished","steps":[],"attachments":[],"parameters":[],"start":1645440415166,"name":"log {\"body\":{\"meta\":null,\"data\":{\"id\":4944,\"name\":\"HEuNhFDbLa\",\"email\":\"eGGyoykv8O@gmail.com\",\"gender\":\"male\",\"status\":\"active\"}},\"headers\":{\"server\":\"nginx\",\"date\":\"Mon, 21 Feb 2022 10:46:55 GMT\",\"content-type\":\"application/json; charset=utf-8\",\"transfer-encoding\":\"chunked\",\"connection\":\"keep-alive\",\"x-frame-options\":\"SAMEORIGIN\",\"x-xss-protection\":\"0\",\"x-content-type-options\":\"nosniff\",\"x-download-options\":\"noopen\",\"x-permitted-cross-domain-policies\":\"none\",\"referrer-policy\":\"strict-origin-when-cross-origin\",\"x-ratelimit-limit\":\"90\",\"x-ratelimit-remaining\":\"88\",\"x-ratelimit-reset\":\"1\",\"location\":\"https://gorest.co.in/public/v1/users/4944\",\"etag\":\"W/\\\"61901c0415bfe569ed9553218779eb64\\\"\",\"cache-control\":\"max-age=0, private, must-revalidate\",\"x-request-id\":\"a41b663e-6ed2-4d77-8615-7191c45a4317\",\"x-runtime\":\"0.030397\",\"strict-transport-security\":\"max-age=63072000; includeSubDomains\",\"vary\":\"Origin\"},\"status\":201,\"statusText\":\"Created\",\"isOkStatusCode\":true,\"requestHeaders\":{\"Connection\":\"keep-alive\",\"authorization\":\"Bearer 4b4c8f088b43abd2c4328d13f40228324cda0ef0b05a86faaacb6fbd31a3124d\",\"user-agent\":\"Mozilla/5.0 (X11; Linux x86_64) AppleWebKit/537.36 (KHTML, like Gecko) HeadlessChrome/98.0.4758.80 Safari/537.36\",\"accept\":\"*/*\",\"accept-encoding\":\"gzip, deflate\",\"content-type\":\"application/json\",\"content-length\":86},\"requestBody\":\"{\\\"name\\\":\\\"HEuNhFDbLa\\\",\\\"email\\\":\\\"eGGyoykv8O@gmail.com\\\",\\\"gender\\\":\\\"Male\\\",\\\"status\\\":\\\"Active\\\"}\",\"duration\":1163,\"allRequestResponses\":[{\"Request Body\":\"{\\\"name\\\":\\\"HEuNhFDbLa\\\",\\\"email\\\":\\\"eGGyoykv8O@gmail.com\\\",\\\"gender\\\":\\\"Male\\\",\\\"status\\\":\\\"Active\\\"}\",\"Request Headers\":{\"Connection\":\"keep-alive\",\"authorization\":\"Bearer 4b4c8f088b43abd2c4328d13f40228324cda0ef0b05a86faaacb6fbd31a3124d\",\"user-agent\":\"Mozilla/5.0 (X11; Linux x86_64) AppleWebKit/537.36 (KHTML, like Gecko) HeadlessChrome/98.0.4758.80 Safari/537.36\",\"accept\":\"*/*\",\"accept-encoding\":\"gzip, deflate\",\"content-type\":\"application/json\",\"content-length\":86},\"Request URL\":\"https://gorest.co.in/public/v1/users\",\"Response Body\":{\"meta\":null,\"data\":{\"id\":4944,\"name\":\"HEuNhFDbLa\",\"email\":\"eGGyoykv8O@gmail.com\",\"gender\":\"male\",\"status\":\"active\"}},\"Response Headers\":{\"server\":\"nginx\",\"date\":\"Mon, 21 Feb 2022 10:46:55 GMT\",\"content-type\":\"application/json; charset=utf-8\",\"transfer-encoding\":\"chunked\",\"connection\":\"keep-alive\",\"x-frame-options\":\"SAMEORIGIN\",\"x-xss-protection\":\"0\",\"x-content-type-options\":\"nosniff\",\"x-download-options\":\"noopen\",\"x-permitted-cross-domain-policies\":\"none\",\"referrer-policy\":\"strict-origin-when-cross-origin\",\"x-ratelimit-limit\":\"90\",\"x-ratelimit-remaining\":\"88\",\"x-ratelimit-reset\":\"1\",\"location\":\"https://gorest.co.in/public/v1/users/4944\",\"etag\":\"W/\\\"61901c0415bfe569ed9553218779eb64\\\"\",\"cache-control\":\"max-age=0, private, must-revalidate\",\"x-request-id\":\"a41b663e-6ed2-4d77-8615-7191c45a4317\",\"x-runtime\":\"0.030397\",\"strict-transport-security\":\"max-age=63072000; includeSubDomains\",\"vary\":\"Origin\"},\"Response Status\":201}]}","stop":1645440415182}],"attachments":[],"parameters":[],"start":1645440413954,"name":"Then User Validates Post Call","stop":1645440415199},{"status":"passed","statusDetails":{},"stage":"finished","steps":[{"status":"passed","statusDetails":{},"stage":"finished","steps":[],"attachments":[],"parameters":[],"start":1645440415199,"name":"GET 200 https://gorest.co.in/public/v1/users","stop":1645440415489},{"status":"passed","statusDetails":{},"stage":"finished","steps":[],"attachments":[],"parameters":[],"start":1645440415494,"name":"log {\"body\":{\"meta\":{\"pagination\":{\"total\":4080,\"pages\":204,\"page\":1,\"limit\":20,\"links\":{\"previous\":null,\"current\":\"https://gorest.co.in/public/v1/users?page=1\",\"next\":\"https://gorest.co.in/public/v1/users?page=2\"}}},\"data\":[{\"id\":4944,\"name\":\"HEuNhFDbLa\",\"email\":\"eGGyoykv8O@gmail.com\",\"gender\":\"male\",\"status\":\"active\"},{\"id\":4940,\"name\":\"GCeitcLZhV\",\"email\":\"QHZDK7O2n2@gmail.com\",\"gender\":\"male\",\"status\":\"active\"},{\"id\":4938,\"name\":\"WxJBSHnMqW\",\"email\":\"PXxcFZWCIp@gmail.com\",\"gender\":\"male\",\"status\":\"active\"},{\"id\":4937,\"name\":\"cdRkLtzSGZ\",\"email\":\"cIAKUOI53E@gmail.com\",\"gender\":\"male\",\"status\":\"active\"},{\"id\":4892,\"name\":\"PqcXMllXcK\",\"email\":\"J1udyKpSMD@gmail.com\",\"gender\":\"male\",\"status\":\"active\"},{\"id\":4891,\"name\":\"NvZiIHcZTg\",\"email\":\"oF5sL8vXUy@gmail.com\",\"gender\":\"male\",\"status\":\"active\"},{\"id\":4890,\"name\":\"VpCrNTMjsW\",\"email\":\"ecseVs5JQE@gmail.com\",\"gender\":\"male\",\"status\":\"active\"},{\"id\":4889,\"name\":\"QGpZwUhEEo\",\"email\":\"XdFiz9w6EZ@gmail.com\",\"gender\":\"male\",\"status\":\"active\"},{\"id\":4867,\"name\":\"ywWVFtqLNj\",\"email\":\"ZlHsVoxpSr@gmail.com\",\"gender\":\"male\",\"status\":\"active\"},{\"id\":4866,\"name\":\"TAbYRtkOxP\",\"email\":\"5fp5ZddwHh@gmail.com\",\"gender\":\"male\",\"status\":\"active\"},{\"id\":4865,\"name\":\"FmNGgyePco\",\"email\":\"Dts8ha95Fg@gmail.com\",\"gender\":\"male\",\"status\":\"active\"},{\"id\":4864,\"name\":\"CMnmpkcprk\",\"email\":\"5zlPAMp63r@gmail.com\",\"gender\":\"male\",\"status\":\"active\"},{\"id\":4801,\"name\":\"ycsOLAWfve\",\"email\":\"ugS1Cr4V8o@gmail.com\",\"gender\":\"male\",\"status\":\"active\"},{\"id\":4800,\"name\":\"donCQUSNxn\",\"email\":\"Tk1sH4n5e2@gmail.com\",\"gender\":\"male\",\"status\":\"active\"},{\"id\":4799,\"name\":\"RThjBFkMVL\",\"email\":\"Uayrml2aZr@gmail.com\",\"gender\":\"male\",\"status\":\"active\"},{\"id\":4797,\"name\":\"dXoRGmJtCs\",\"email\":\"AnS0iB95k0@gmail.com\",\"gender\":\"male\",\"status\":\"active\"},{\"id\":4779,\"name\":\"kAOTGOjvmr\",\"email\":\"vidkzQmp6O@gmail.com\",\"gender\":\"male\",\"status\":\"active\"},{\"id\":4778,\"name\":\"yVYYLWmIcP\",\"email\":\"pe1misfmVB@gmail.com\",\"gender\":\"male\",\"status\":\"active\"},{\"id\":4776,\"name\":\"bcQIDqxZeX\",\"email\":\"oQpQ8hiVJ1@gmail.com\",\"gender\":\"male\",\"status\":\"active\"},{\"id\":4775,\"name\":\"EDyojClXeY\",\"email\":\"fAuUR2UwwJ@gmail.com\",\"gender\":\"male\",\"status\":\"active\"}]},\"headers\":{\"server\":\"nginx\",\"date\":\"Mon, 21 Feb 2022 10:46:55 GMT\",\"content-type\":\"application/json; charset=utf-8\",\"transfer-encoding\":\"chunked\",\"connection\":\"keep-alive\",\"vary\":\"Accept-Encoding, Origin\",\"x-frame-options\":\"SAMEORIGIN\",\"x-xss-protection\":\"0\",\"x-content-type-options\":\"nosniff\",\"x-download-options\":\"noopen\",\"x-permitted-cross-domain-policies\":\"none\",\"referrer-policy\":\"strict-origin-when-cross-origin\",\"x-ratelimit-limit\":\"90\",\"x-ratelimit-remaining\":\"89\",\"x-ratelimit-reset\":\"2\",\"etag\":\"W/\\\"828d82c7e0ea92273918021ed966d782\\\"\",\"cache-control\":\"max-age=0, private, must-revalidate\",\"x-request-id\":\"02c6a665-5a3e-4eea-8b03-79d516ea2a38\",\"x-runtime\":\"0.045503\",\"strict-transport-security\":\"max-age=63072000; includeSubDomains\",\"content-encoding\":\"gzip\"},\"status\":200,\"statusText\":\"OK\",\"isOkStatusCode\":true,\"requestHeaders\":{\"Connection\":\"keep-alive\",\"authorization\":\"Bearer 4b4c8f088b43abd2c4328d13f40228324cda0ef0b05a86faaacb6fbd31a3124d\",\"user-agent\":\"Mozilla/5.0 (X11; Linux x86_64) AppleWebKit/537.36 (KHTML, like Gecko) HeadlessChrome/98.0.4758.80 Safari/537.36\",\"accept\":\"*/*\",\"accept-encoding\":\"gzip, deflate\"},\"duration\":273,\"allRequestResponses\":[{\"Request Body\":null,\"Request Headers\":{\"Connection\":\"keep-alive\",\"authorization\":\"Bearer 4b4c8f088b43abd2c4328d13f40228324cda0ef0b05a86faaacb6fbd31a3124d\",\"user-agent\":\"Mozilla/5.0 (X11; Linux x86_64) AppleWebKit/537.36 (KHTML, like Gecko) HeadlessChrome/98.0.4758.80 Safari/537.36\",\"accept\":\"*/*\",\"accept-encoding\":\"gzip, deflate\"},\"Request URL\":\"https://gorest.co.in/public/v1/users\",\"Response Body\":\"{\\\"meta\\\":{\\\"pagination\\\":{\\\"total\\\":4080,\\\"pages\\\":204,\\\"page\\\":1,\\\"limit\\\":20,\\\"links\\\":{\\\"previous\\\":null,\\\"current\\\":\\\"https://gorest.co.in/public/v1/users?page=1\\\",\\\"next\\\":\\\"https://gorest.co.in/public/v1/users?page=2\\\"}}},\\\"data\\\":[{\\\"id\\\":4944,\\\"name\\\":\\\"HEuNhFDbLa\\\",\\\"email\\\":\\\"eGGyoykv8O@gmail.com\\\",\\\"gender\\\":\\\"male\\\",\\\"status\\\":\\\"active\\\"},{\\\"id\\\":4940,\\\"name\\\":\\\"GCeitcLZhV\\\",\\\"email\\\":\\\"QHZDK7O2n2@gmail.com\\\",\\\"gender\\\":\\\"male\\\",\\\"status\\\":\\\"active\\\"},{\\\"id\\\":4938,\\\"name\\\":\\\"WxJBSHnMqW\\\",\\\"email\\\":\\\"PXxcFZWCIp@gmail.com\\\",\\\"gender\\\":\\\"male\\\",\\\"status\\\":\\\"active\\\"},{\\\"id\\\":4937,\\\"name\\\":\\\"cdRkLtzSGZ\\\",\\\"email\\\":\\\"cIAKUOI53E@gmail.com\\\",\\\"gender\\\":\\\"male\\\",\\\"status\\\":\\\"active\\\"},{\\\"id\\\":4892,\\\"name\\\":\\\"PqcXMllXcK\\\",\\\"email\\\":\\\"J1udyKpSMD@gmail.com\\\",\\\"gender\\\":\\\"male\\\",\\\"status\\\":\\\"active\\\"},{\\\"id\\\":4891,\\\"name\\\":\\\"NvZiIHcZTg\\\",\\\"email\\\":\\\"oF5sL8vXUy@gmail.com\\\",\\\"gender\\\":\\\"male\\\",\\\"status\\\":\\\"active\\\"},{\\\"id\\\":4890,\\\"name\\\":\\\"VpCrNTMjsW\\\",\\\"email\\\":\\\"ecseVs5JQE@gmail.com\\\",\\\"gender\\\":\\\"male\\\",\\\"status\\\":\\\"active\\\"},{\\\"id\\\":4889,\\\"name\\\":\\\"QGpZwUhEEo\\\",\\\"email\\\":\\\"XdFiz9w6EZ@gmail.com\\\",\\\"gender\\\":\\\"male\\\",\\\"status\\\":\\\"active\\\"},{\\\"id\\\":4867,\\\"name\\\":\\\"ywWVFtqLNj\\\",\\\"email\\\":\\\"ZlHsVoxpSr@gmail.com\\\",\\\"gender\\\":\\\"male\\\",\\\"status\\\":\\\"active\\\"},{\\\"id\\\":4866,\\\"name\\\":\\\"TAbYRtkOxP\\\",\\\"email\\\":\\\"5fp5ZddwHh@gmail.com\\\",\\\"gender\\\":\\\"male\\\",\\\"status\\\":\\\"active\\\"},{\\\"id\\\":4865,\\\"name\\\":\\\"FmNGgyePco\\\",\\\"email\\\":\\\"Dts8ha95Fg@gmail.com\\\",\\\"gender\\\":\\\"male\\\",\\\"status\\\":\\\"active\\\"},{\\\"id\\\":4864,\\\"name\\\":\\\"CMnmpkcprk\\\",\\\"email\\\":\\\"5zlPAMp63r@gmail.com\\\",\\\"gender\\\":\\\"male\\\",\\\"status\\\":\\\"active\\\"},{\\\"id\\\":4801,\\\"name\\\":\\\"ycsOLAWfve\\\",\\\"email\\\":\\\"ugS1Cr4V8o@gmail.com\\\",\\\"gender\\\":\\\"male\\\",\\\"status\\\":\\\"active\\\"},{\\\"id\\\":4800,\\\"name\\\":\\\"donCQUSNxn\\\",\\\"email\\\":\\\"Tk1sH4n5e2@gmail.com\\\",\\\"gender\\\":\\\"male\\\",\\\"status\\\":\\\"active\\\"},{\\\"id\\\":4799,\\\"name\\\":\\\"RThjBFkMVL\\\",\\\"email\\\":\\\"Uayrml2aZr@gmail.com\\\",\\\"gender\\\":\\\"male\\\",\\\"status\\\":\\\"active\\\"},{\\\"id\\\":4797,\\\"name\\\":\\\"dXoRGmJtCs\\\",\\\"email\\\":\\\"AnS0iB95k0@gmail.com\\\",\\\"gender\\\":\\\"male\\\",\\\"status\\\":\\\"active\\\"},{\\\"id\\\":4779,\\\"name\\\":\\\"kAOTGOjvmr\\\",\\\"email\\\":\\\"vidkzQmp6O@gmail.com\\\",\\\"gender\\\":\\\"male\\\",\\\"status\\\":\\\"active\\\"},{\\\"id\\\":4778,\\\"name\\\":\\\"yVYYLWmIcP\\\",\\\"email\\\":\\\"pe1misfmVB@gmail.com\\\",\\\"gender\\\":\\\"male\\\",\\\"status\\\":\\\"active\\\"},{\\\"id\\\":4776,\\\"name\\\":\\\"bcQIDqxZeX\\\",\\\"email\\\":\\\"oQpQ8hiVJ1@gmail.com\\\",\\\"gender\\\":\\\"male\\\",\\\"status\\\":\\\"active\\\"},{\\\"id\\\":4775,\\\"name\\\":\\\"EDyojClXeY\\\",\\\"email\\\":\\\"fAuUR2UwwJ@gmail.com\\\",\\\"gender\\\":\\\"male\\\",\\\"status\\\":\\\"active\\\"}]}\",\"Response Headers\":{\"server\":\"nginx\",\"date\":\"Mon, 21 Feb 2022 10:46:55 GMT\",\"content-type\":\"application/json; charset=utf-8\",\"transfer-encoding\":\"chunked\",\"connection\":\"keep-alive\",\"vary\":\"Accept-Encoding, Origin\",\"x-frame-options\":\"SAMEORIGIN\",\"x-xss-protection\":\"0\",\"x-content-type-options\":\"nosniff\",\"x-download-options\":\"noopen\",\"x-permitted-cross-domain-policies\":\"none\",\"referrer-policy\":\"strict-origin-when-cross-origin\",\"x-ratelimit-limit\":\"90\",\"x-ratelimit-remaining\":\"89\",\"x-ratelimit-reset\":\"2\",\"etag\":\"W/\\\"828d82c7e0ea92273918021ed966d782\\\"\",\"cache-control\":\"max-age=0, private, must-revalidate\",\"x-request-id\":\"02c6a665-5a3e-4eea-8b03-79d516ea2a38\",\"x-runtime\":\"0.045503\",\"strict-transport-security\":\"max-age=63072000; includeSubDomains\",\"content-encoding\":\"gzip\"},\"Response Status\":200}]}","stop":1645440415521}],"attachments":[],"parameters":[],"start":1645440415198,"name":"Then User Validates Get Call","stop":1645440415529},{"status":"passed","statusDetails":{},"stage":"finished","steps":[{"status":"passed","statusDetails":{},"stage":"finished","steps":[],"attachments":[],"parameters":[],"start":1645440415529,"name":"log Put Method","stop":1645440415533}],"attachments":[],"parameters":[],"start":1645440415529,"name":"Then User Validates Put Call","stop":1645440415536},{"status":"passed","statusDetails":{},"stage":"finished","steps":[{"status":"passed","statusDetails":{},"stage":"finished","steps":[],"attachments":[],"parameters":[],"start":1645440415536,"name":"log Delete Method","stop":1645440415539}],"attachments":[],"parameters":[],"start":1645440415536,"name":"Then User Validates Delete Call","stop":1645440415540},{"status":"passed","statusDetails":{},"stage":"finished","steps":[],"attachments":[],"parameters":[],"start":1645440415572,"name":"\"after each\" hook","stop":1645440415576}],"attachments":[{"name":"video recording","type":"video/mp4","source":"32397a77-5486-4c66-9a7e-c721edf2c567-attachment.mp4"}],"parameters":[],"labels":[{"name":"suite","value":"API"},{"name":"feature","value":"Test E2E"},{"name":"tag","value":"Smoke"}],"links":[],"start":1645440413930,"name":"TC002:Validate API Test","fullName":"TC002:Validate API Test","stop":1645440415541}