{"uuid":"246f82c2-33af-49e1-916e-bd0f705962eb","historyId":"a1430cd4396ea6d56fa0213f6fd58bff","status":"passed","statusDetails":{},"stage":"finished","steps":[{"status":"passed","statusDetails":{},"stage":"finished","steps":[],"attachments":[],"parameters":[],"start":1645439586481,"name":"\"before each\" hook","stop":1645439586482},{"status":"passed","statusDetails":{},"stage":"finished","steps":[{"status":"passed","statusDetails":{},"stage":"finished","steps":[],"attachments":[],"parameters":[],"start":1645439586497,"name":"log https://gorest.co.in/public/v1/users","stop":1645439586501},{"status":"passed","statusDetails":{},"stage":"finished","steps":[],"attachments":[],"parameters":[],"start":1645439586502,"name":"POST 201 https://gorest.co.in/public/v1/users","stop":1645439587761},{"status":"passed","statusDetails":{},"stage":"finished","steps":[],"attachments":[],"parameters":[],"start":1645439587773,"name":"log {\"body\":{\"meta\":null,\"data\":{\"id\":4891,\"name\":\"NvZiIHcZTg\",\"email\":\"oF5sL8vXUy@gmail.com\",\"gender\":\"male\",\"status\":\"active\"}},\"headers\":{\"server\":\"nginx\",\"date\":\"Mon, 21 Feb 2022 10:33:07 GMT\",\"content-type\":\"application/json; charset=utf-8\",\"transfer-encoding\":\"chunked\",\"connection\":\"keep-alive\",\"x-frame-options\":\"SAMEORIGIN\",\"x-xss-protection\":\"0\",\"x-content-type-options\":\"nosniff\",\"x-download-options\":\"noopen\",\"x-permitted-cross-domain-policies\":\"none\",\"referrer-policy\":\"strict-origin-when-cross-origin\",\"x-ratelimit-limit\":\"90\",\"x-ratelimit-remaining\":\"86\",\"x-ratelimit-reset\":\"1\",\"location\":\"https://gorest.co.in/public/v1/users/4891\",\"etag\":\"W/\\\"a0850610291463ae77940b766b7a42a8\\\"\",\"cache-control\":\"max-age=0, private, must-revalidate\",\"x-request-id\":\"daedd305-5b61-4ded-b793-d75d3fb0c46b\",\"x-runtime\":\"0.019404\",\"strict-transport-security\":\"max-age=63072000; includeSubDomains\",\"vary\":\"Origin\"},\"status\":201,\"statusText\":\"Created\",\"isOkStatusCode\":true,\"requestHeaders\":{\"Connection\":\"keep-alive\",\"authorization\":\"Bearer 4b4c8f088b43abd2c4328d13f40228324cda0ef0b05a86faaacb6fbd31a3124d\",\"user-agent\":\"Mozilla/5.0 (X11; Linux x86_64) AppleWebKit/537.36 (KHTML, like Gecko) HeadlessChrome/98.0.4758.80 Safari/537.36\",\"accept\":\"*/*\",\"accept-encoding\":\"gzip, deflate\",\"content-type\":\"application/json\",\"content-length\":86},\"requestBody\":\"{\\\"name\\\":\\\"NvZiIHcZTg\\\",\\\"email\\\":\\\"oF5sL8vXUy@gmail.com\\\",\\\"gender\\\":\\\"Male\\\",\\\"status\\\":\\\"Active\\\"}\",\"duration\":1237,\"allRequestResponses\":[{\"Request Body\":\"{\\\"name\\\":\\\"NvZiIHcZTg\\\",\\\"email\\\":\\\"oF5sL8vXUy@gmail.com\\\",\\\"gender\\\":\\\"Male\\\",\\\"status\\\":\\\"Active\\\"}\",\"Request Headers\":{\"Connection\":\"keep-alive\",\"authorization\":\"Bearer 4b4c8f088b43abd2c4328d13f40228324cda0ef0b05a86faaacb6fbd31a3124d\",\"user-agent\":\"Mozilla/5.0 (X11; Linux x86_64) AppleWebKit/537.36 (KHTML, like Gecko) HeadlessChrome/98.0.4758.80 Safari/537.36\",\"accept\":\"*/*\",\"accept-encoding\":\"gzip, deflate\",\"content-type\":\"application/json\",\"content-length\":86},\"Request URL\":\"https://gorest.co.in/public/v1/users\",\"Response Body\":{\"meta\":null,\"data\":{\"id\":4891,\"name\":\"NvZiIHcZTg\",\"email\":\"oF5sL8vXUy@gmail.com\",\"gender\":\"male\",\"status\":\"active\"}},\"Response Headers\":{\"server\":\"nginx\",\"date\":\"Mon, 21 Feb 2022 10:33:07 GMT\",\"content-type\":\"application/json; charset=utf-8\",\"transfer-encoding\":\"chunked\",\"connection\":\"keep-alive\",\"x-frame-options\":\"SAMEORIGIN\",\"x-xss-protection\":\"0\",\"x-content-type-options\":\"nosniff\",\"x-download-options\":\"noopen\",\"x-permitted-cross-domain-policies\":\"none\",\"referrer-policy\":\"strict-origin-when-cross-origin\",\"x-ratelimit-limit\":\"90\",\"x-ratelimit-remaining\":\"86\",\"x-ratelimit-reset\":\"1\",\"location\":\"https://gorest.co.in/public/v1/users/4891\",\"etag\":\"W/\\\"a0850610291463ae77940b766b7a42a8\\\"\",\"cache-control\":\"max-age=0, private, must-revalidate\",\"x-request-id\":\"daedd305-5b61-4ded-b793-d75d3fb0c46b\",\"x-runtime\":\"0.019404\",\"strict-transport-security\":\"max-age=63072000; includeSubDomains\",\"vary\":\"Origin\"},\"Response Status\":201}]}","stop":1645439587780}],"attachments":[],"parameters":[],"start":1645439586495,"name":"Then User Validates Post Call","stop":1645439587784},{"status":"passed","statusDetails":{},"stage":"finished","steps":[{"status":"passed","statusDetails":{},"stage":"finished","steps":[],"attachments":[],"parameters":[],"start":1645439587784,"name":"GET 200 https://gorest.co.in/public/v1/users","stop":1645439588068},{"status":"passed","statusDetails":{},"stage":"finished","steps":[],"attachments":[],"parameters":[],"start":1645439588072,"name":"log {\"body\":{\"meta\":{\"pagination\":{\"total\":4075,\"pages\":204,\"page\":1,\"limit\":20,\"links\":{\"previous\":null,\"current\":\"https://gorest.co.in/public/v1/users?page=1\",\"next\":\"https://gorest.co.in/public/v1/users?page=2\"}}},\"data\":[{\"id\":4891,\"name\":\"NvZiIHcZTg\",\"email\":\"oF5sL8vXUy@gmail.com\",\"gender\":\"male\",\"status\":\"active\"},{\"id\":4890,\"name\":\"VpCrNTMjsW\",\"email\":\"ecseVs5JQE@gmail.com\",\"gender\":\"male\",\"status\":\"active\"},{\"id\":4889,\"name\":\"QGpZwUhEEo\",\"email\":\"XdFiz9w6EZ@gmail.com\",\"gender\":\"male\",\"status\":\"active\"},{\"id\":4867,\"name\":\"ywWVFtqLNj\",\"email\":\"ZlHsVoxpSr@gmail.com\",\"gender\":\"male\",\"status\":\"active\"},{\"id\":4866,\"name\":\"TAbYRtkOxP\",\"email\":\"5fp5ZddwHh@gmail.com\",\"gender\":\"male\",\"status\":\"active\"},{\"id\":4865,\"name\":\"FmNGgyePco\",\"email\":\"Dts8ha95Fg@gmail.com\",\"gender\":\"male\",\"status\":\"active\"},{\"id\":4864,\"name\":\"CMnmpkcprk\",\"email\":\"5zlPAMp63r@gmail.com\",\"gender\":\"male\",\"status\":\"active\"},{\"id\":4801,\"name\":\"ycsOLAWfve\",\"email\":\"ugS1Cr4V8o@gmail.com\",\"gender\":\"male\",\"status\":\"active\"},{\"id\":4800,\"name\":\"donCQUSNxn\",\"email\":\"Tk1sH4n5e2@gmail.com\",\"gender\":\"male\",\"status\":\"active\"},{\"id\":4799,\"name\":\"RThjBFkMVL\",\"email\":\"Uayrml2aZr@gmail.com\",\"gender\":\"male\",\"status\":\"active\"},{\"id\":4797,\"name\":\"dXoRGmJtCs\",\"email\":\"AnS0iB95k0@gmail.com\",\"gender\":\"male\",\"status\":\"active\"},{\"id\":4779,\"name\":\"kAOTGOjvmr\",\"email\":\"vidkzQmp6O@gmail.com\",\"gender\":\"male\",\"status\":\"active\"},{\"id\":4778,\"name\":\"yVYYLWmIcP\",\"email\":\"pe1misfmVB@gmail.com\",\"gender\":\"male\",\"status\":\"active\"},{\"id\":4776,\"name\":\"bcQIDqxZeX\",\"email\":\"oQpQ8hiVJ1@gmail.com\",\"gender\":\"male\",\"status\":\"active\"},{\"id\":4775,\"name\":\"EDyojClXeY\",\"email\":\"fAuUR2UwwJ@gmail.com\",\"gender\":\"male\",\"status\":\"active\"},{\"id\":4242,\"name\":\"dhyvOVUnqu\",\"email\":\"tqxWjMcSNW@gmail.com\",\"gender\":\"male\",\"status\":\"active\"},{\"id\":4241,\"name\":\"PTAYdskuGM\",\"email\":\"xO27KLqB9B@gmail.com\",\"gender\":\"male\",\"status\":\"active\"},{\"id\":4240,\"name\":\"pCQVJXdjLf\",\"email\":\"XW7Hfy7df3@gmail.com\",\"gender\":\"male\",\"status\":\"active\"},{\"id\":4239,\"name\":\"fnyMJPjusH\",\"email\":\"SuMATV1KFT@gmail.com\",\"gender\":\"male\",\"status\":\"active\"},{\"id\":4232,\"name\":\"tQQDjCFucq\",\"email\":\"HaUPgR7f7D@gmail.com\",\"gender\":\"male\",\"status\":\"active\"}]},\"headers\":{\"server\":\"nginx\",\"date\":\"Mon, 21 Feb 2022 10:33:07 GMT\",\"content-type\":\"application/json; charset=utf-8\",\"transfer-encoding\":\"chunked\",\"connection\":\"keep-alive\",\"vary\":\"Accept-Encoding, Origin\",\"x-frame-options\":\"SAMEORIGIN\",\"x-xss-protection\":\"0\",\"x-content-type-options\":\"nosniff\",\"x-download-options\":\"noopen\",\"x-permitted-cross-domain-policies\":\"none\",\"referrer-policy\":\"strict-origin-when-cross-origin\",\"x-ratelimit-limit\":\"90\",\"x-ratelimit-remaining\":\"89\",\"x-ratelimit-reset\":\"2\",\"etag\":\"W/\\\"1a52047d0ca62eaf88a5a463990ebd0c\\\"\",\"cache-control\":\"max-age=0, private, must-revalidate\",\"x-request-id\":\"287295ab-f961-44a3-b403-187e9d741464\",\"x-runtime\":\"0.038370\",\"strict-transport-security\":\"max-age=63072000; includeSubDomains\",\"content-encoding\":\"gzip\"},\"status\":200,\"statusText\":\"OK\",\"isOkStatusCode\":true,\"requestHeaders\":{\"Connection\":\"keep-alive\",\"authorization\":\"Bearer 4b4c8f088b43abd2c4328d13f40228324cda0ef0b05a86faaacb6fbd31a3124d\",\"user-agent\":\"Mozilla/5.0 (X11; Linux x86_64) AppleWebKit/537.36 (KHTML, like Gecko) HeadlessChrome/98.0.4758.80 Safari/537.36\",\"accept\":\"*/*\",\"accept-encoding\":\"gzip, deflate\"},\"duration\":275,\"allRequestResponses\":[{\"Request Body\":null,\"Request Headers\":{\"Connection\":\"keep-alive\",\"authorization\":\"Bearer 4b4c8f088b43abd2c4328d13f40228324cda0ef0b05a86faaacb6fbd31a3124d\",\"user-agent\":\"Mozilla/5.0 (X11; Linux x86_64) AppleWebKit/537.36 (KHTML, like Gecko) HeadlessChrome/98.0.4758.80 Safari/537.36\",\"accept\":\"*/*\",\"accept-encoding\":\"gzip, deflate\"},\"Request URL\":\"https://gorest.co.in/public/v1/users\",\"Response Body\":\"{\\\"meta\\\":{\\\"pagination\\\":{\\\"total\\\":4075,\\\"pages\\\":204,\\\"page\\\":1,\\\"limit\\\":20,\\\"links\\\":{\\\"previous\\\":null,\\\"current\\\":\\\"https://gorest.co.in/public/v1/users?page=1\\\",\\\"next\\\":\\\"https://gorest.co.in/public/v1/users?page=2\\\"}}},\\\"data\\\":[{\\\"id\\\":4891,\\\"name\\\":\\\"NvZiIHcZTg\\\",\\\"email\\\":\\\"oF5sL8vXUy@gmail.com\\\",\\\"gender\\\":\\\"male\\\",\\\"status\\\":\\\"active\\\"},{\\\"id\\\":4890,\\\"name\\\":\\\"VpCrNTMjsW\\\",\\\"email\\\":\\\"ecseVs5JQE@gmail.com\\\",\\\"gender\\\":\\\"male\\\",\\\"status\\\":\\\"active\\\"},{\\\"id\\\":4889,\\\"name\\\":\\\"QGpZwUhEEo\\\",\\\"email\\\":\\\"XdFiz9w6EZ@gmail.com\\\",\\\"gender\\\":\\\"male\\\",\\\"status\\\":\\\"active\\\"},{\\\"id\\\":4867,\\\"name\\\":\\\"ywWVFtqLNj\\\",\\\"email\\\":\\\"ZlHsVoxpSr@gmail.com\\\",\\\"gender\\\":\\\"male\\\",\\\"status\\\":\\\"active\\\"},{\\\"id\\\":4866,\\\"name\\\":\\\"TAbYRtkOxP\\\",\\\"email\\\":\\\"5fp5ZddwHh@gmail.com\\\",\\\"gender\\\":\\\"male\\\",\\\"status\\\":\\\"active\\\"},{\\\"id\\\":4865,\\\"name\\\":\\\"FmNGgyePco\\\",\\\"email\\\":\\\"Dts8ha95Fg@gmail.com\\\",\\\"gender\\\":\\\"male\\\",\\\"status\\\":\\\"active\\\"},{\\\"id\\\":4864,\\\"name\\\":\\\"CMnmpkcprk\\\",\\\"email\\\":\\\"5zlPAMp63r@gmail.com\\\",\\\"gender\\\":\\\"male\\\",\\\"status\\\":\\\"active\\\"},{\\\"id\\\":4801,\\\"name\\\":\\\"ycsOLAWfve\\\",\\\"email\\\":\\\"ugS1Cr4V8o@gmail.com\\\",\\\"gender\\\":\\\"male\\\",\\\"status\\\":\\\"active\\\"},{\\\"id\\\":4800,\\\"name\\\":\\\"donCQUSNxn\\\",\\\"email\\\":\\\"Tk1sH4n5e2@gmail.com\\\",\\\"gender\\\":\\\"male\\\",\\\"status\\\":\\\"active\\\"},{\\\"id\\\":4799,\\\"name\\\":\\\"RThjBFkMVL\\\",\\\"email\\\":\\\"Uayrml2aZr@gmail.com\\\",\\\"gender\\\":\\\"male\\\",\\\"status\\\":\\\"active\\\"},{\\\"id\\\":4797,\\\"name\\\":\\\"dXoRGmJtCs\\\",\\\"email\\\":\\\"AnS0iB95k0@gmail.com\\\",\\\"gender\\\":\\\"male\\\",\\\"status\\\":\\\"active\\\"},{\\\"id\\\":4779,\\\"name\\\":\\\"kAOTGOjvmr\\\",\\\"email\\\":\\\"vidkzQmp6O@gmail.com\\\",\\\"gender\\\":\\\"male\\\",\\\"status\\\":\\\"active\\\"},{\\\"id\\\":4778,\\\"name\\\":\\\"yVYYLWmIcP\\\",\\\"email\\\":\\\"pe1misfmVB@gmail.com\\\",\\\"gender\\\":\\\"male\\\",\\\"status\\\":\\\"active\\\"},{\\\"id\\\":4776,\\\"name\\\":\\\"bcQIDqxZeX\\\",\\\"email\\\":\\\"oQpQ8hiVJ1@gmail.com\\\",\\\"gender\\\":\\\"male\\\",\\\"status\\\":\\\"active\\\"},{\\\"id\\\":4775,\\\"name\\\":\\\"EDyojClXeY\\\",\\\"email\\\":\\\"fAuUR2UwwJ@gmail.com\\\",\\\"gender\\\":\\\"male\\\",\\\"status\\\":\\\"active\\\"},{\\\"id\\\":4242,\\\"name\\\":\\\"dhyvOVUnqu\\\",\\\"email\\\":\\\"tqxWjMcSNW@gmail.com\\\",\\\"gender\\\":\\\"male\\\",\\\"status\\\":\\\"active\\\"},{\\\"id\\\":4241,\\\"name\\\":\\\"PTAYdskuGM\\\",\\\"email\\\":\\\"xO27KLqB9B@gmail.com\\\",\\\"gender\\\":\\\"male\\\",\\\"status\\\":\\\"active\\\"},{\\\"id\\\":4240,\\\"name\\\":\\\"pCQVJXdjLf\\\",\\\"email\\\":\\\"XW7Hfy7df3@gmail.com\\\",\\\"gender\\\":\\\"male\\\",\\\"status\\\":\\\"active\\\"},{\\\"id\\\":4239,\\\"name\\\":\\\"fnyMJPjusH\\\",\\\"email\\\":\\\"SuMATV1KFT@gmail.com\\\",\\\"gender\\\":\\\"male\\\",\\\"status\\\":\\\"active\\\"},{\\\"id\\\":4232,\\\"name\\\":\\\"tQQDjCFucq\\\",\\\"email\\\":\\\"HaUPgR7f7D@gmail.com\\\",\\\"gender\\\":\\\"male\\\",\\\"status\\\":\\\"active\\\"}]}\",\"Response Headers\":{\"server\":\"nginx\",\"date\":\"Mon, 21 Feb 2022 10:33:07 GMT\",\"content-type\":\"application/json; charset=utf-8\",\"transfer-encoding\":\"chunked\",\"connection\":\"keep-alive\",\"vary\":\"Accept-Encoding, Origin\",\"x-frame-options\":\"SAMEORIGIN\",\"x-xss-protection\":\"0\",\"x-content-type-options\":\"nosniff\",\"x-download-options\":\"noopen\",\"x-permitted-cross-domain-policies\":\"none\",\"referrer-policy\":\"strict-origin-when-cross-origin\",\"x-ratelimit-limit\":\"90\",\"x-ratelimit-remaining\":\"89\",\"x-ratelimit-reset\":\"2\",\"etag\":\"W/\\\"1a52047d0ca62eaf88a5a463990ebd0c\\\"\",\"cache-control\":\"max-age=0, private, must-revalidate\",\"x-request-id\":\"287295ab-f961-44a3-b403-187e9d741464\",\"x-runtime\":\"0.038370\",\"strict-transport-security\":\"max-age=63072000; includeSubDomains\",\"content-encoding\":\"gzip\"},\"Response Status\":200}]}","stop":1645439588078}],"attachments":[],"parameters":[],"start":1645439587784,"name":"Then User Validates Get Call","stop":1645439588080},{"status":"passed","statusDetails":{},"stage":"finished","steps":[{"status":"passed","statusDetails":{},"stage":"finished","steps":[],"attachments":[],"parameters":[],"start":1645439588081,"name":"log Put Method","stop":1645439588083}],"attachments":[],"parameters":[],"start":1645439588080,"name":"Then User Validates Put Call","stop":1645439588085},{"status":"passed","statusDetails":{},"stage":"finished","steps":[{"status":"passed","statusDetails":{},"stage":"finished","steps":[],"attachments":[],"parameters":[],"start":1645439588086,"name":"log Delete Method","stop":1645439588088}],"attachments":[],"parameters":[],"start":1645439588085,"name":"Then User Validates Delete Call","stop":1645439588089},{"status":"passed","statusDetails":{},"stage":"finished","steps":[],"attachments":[],"parameters":[],"start":1645439588108,"name":"\"after each\" hook","stop":1645439588110}],"attachments":[{"name":"video recording","type":"video/mp4","source":"4b076bd2-24dd-42bf-9dc8-af63db9bcba5-attachment.mp4"}],"parameters":[],"labels":[{"name":"suite","value":"API"},{"name":"feature","value":"Test E2E"},{"name":"tag","value":"Regression"}],"links":[],"start":1645439586474,"name":"TC001:Validate API Test","fullName":"TC001:Validate API Test","stop":1645439588090}