{"uuid":"37fe746f-f9ef-4d8d-a96c-57fdfc90a758","historyId":"c794df0de679a908cebc0733ea684a45","status":"passed","statusDetails":{},"stage":"finished","steps":[{"status":"passed","statusDetails":{},"stage":"finished","steps":[],"attachments":[],"parameters":[],"start":1645363330791,"name":"\"before each\" hook","stop":1645363330792},{"status":"passed","statusDetails":{},"stage":"finished","steps":[{"status":"passed","statusDetails":{},"stage":"finished","steps":[],"attachments":[],"parameters":[],"start":1645363330812,"name":"log https://gorest.co.in/public/v1/users","stop":1645363330818},{"status":"passed","statusDetails":{},"stage":"finished","steps":[],"attachments":[],"parameters":[],"start":1645363330819,"name":"POST 201 https://gorest.co.in/public/v1/users","stop":1645363331127},{"status":"passed","statusDetails":{},"stage":"finished","steps":[],"attachments":[],"parameters":[],"start":1645363331141,"name":"log {\"body\":{\"meta\":null,\"data\":{\"id\":4053,\"name\":\"jPKaQUOEQR\",\"email\":\"DPCidWwlJZ@gmail.com\",\"gender\":\"male\",\"status\":\"active\"}},\"headers\":{\"server\":\"nginx\",\"date\":\"Sun, 20 Feb 2022 13:22:11 GMT\",\"content-type\":\"application/json; charset=utf-8\",\"transfer-encoding\":\"chunked\",\"connection\":\"keep-alive\",\"x-frame-options\":\"SAMEORIGIN\",\"x-xss-protection\":\"0\",\"x-content-type-options\":\"nosniff\",\"x-download-options\":\"noopen\",\"x-permitted-cross-domain-policies\":\"none\",\"referrer-policy\":\"strict-origin-when-cross-origin\",\"x-ratelimit-limit\":\"90\",\"x-ratelimit-remaining\":\"86\",\"x-ratelimit-reset\":\"1\",\"location\":\"https://gorest.co.in/public/v1/users/4053\",\"etag\":\"W/\\\"3b8fba44b5e769bf45446a7e90fc10ec\\\"\",\"cache-control\":\"max-age=0, private, must-revalidate\",\"x-request-id\":\"86e5e911-a1da-4901-967b-86f873a008cd\",\"x-runtime\":\"0.037887\",\"strict-transport-security\":\"max-age=63072000; includeSubDomains\",\"vary\":\"Origin\"},\"status\":201,\"statusText\":\"Created\",\"isOkStatusCode\":true,\"requestHeaders\":{\"Connection\":\"keep-alive\",\"authorization\":\"Bearer 4b4c8f088b43abd2c4328d13f40228324cda0ef0b05a86faaacb6fbd31a3124d\",\"user-agent\":\"Mozilla/5.0 (X11; Linux x86_64) AppleWebKit/537.36 (KHTML, like Gecko) Chrome/86.0.4240.193 Safari/537.36\",\"accept\":\"*/*\",\"accept-encoding\":\"gzip, deflate\",\"content-type\":\"application/json\",\"content-length\":86},\"requestBody\":\"{\\\"name\\\":\\\"jPKaQUOEQR\\\",\\\"email\\\":\\\"DPCidWwlJZ@gmail.com\\\",\\\"gender\\\":\\\"Male\\\",\\\"status\\\":\\\"Active\\\"}\",\"duration\":268,\"allRequestResponses\":[{\"Request Body\":\"{\\\"name\\\":\\\"jPKaQUOEQR\\\",\\\"email\\\":\\\"DPCidWwlJZ@gmail.com\\\",\\\"gender\\\":\\\"Male\\\",\\\"status\\\":\\\"Active\\\"}\",\"Request Headers\":{\"Connection\":\"keep-alive\",\"authorization\":\"Bearer 4b4c8f088b43abd2c4328d13f40228324cda0ef0b05a86faaacb6fbd31a3124d\",\"user-agent\":\"Mozilla/5.0 (X11; Linux x86_64) AppleWebKit/537.36 (KHTML, like Gecko) Chrome/86.0.4240.193 Safari/537.36\",\"accept\":\"*/*\",\"accept-encoding\":\"gzip, deflate\",\"content-type\":\"application/json\",\"content-length\":86},\"Request URL\":\"https://gorest.co.in/public/v1/users\",\"Response Body\":{\"meta\":null,\"data\":{\"id\":4053,\"name\":\"jPKaQUOEQR\",\"email\":\"DPCidWwlJZ@gmail.com\",\"gender\":\"male\",\"status\":\"active\"}},\"Response Headers\":{\"server\":\"nginx\",\"date\":\"Sun, 20 Feb 2022 13:22:11 GMT\",\"content-type\":\"application/json; charset=utf-8\",\"transfer-encoding\":\"chunked\",\"connection\":\"keep-alive\",\"x-frame-options\":\"SAMEORIGIN\",\"x-xss-protection\":\"0\",\"x-content-type-options\":\"nosniff\",\"x-download-options\":\"noopen\",\"x-permitted-cross-domain-policies\":\"none\",\"referrer-policy\":\"strict-origin-when-cross-origin\",\"x-ratelimit-limit\":\"90\",\"x-ratelimit-remaining\":\"86\",\"x-ratelimit-reset\":\"1\",\"location\":\"https://gorest.co.in/public/v1/users/4053\",\"etag\":\"W/\\\"3b8fba44b5e769bf45446a7e90fc10ec\\\"\",\"cache-control\":\"max-age=0, private, must-revalidate\",\"x-request-id\":\"86e5e911-a1da-4901-967b-86f873a008cd\",\"x-runtime\":\"0.037887\",\"strict-transport-security\":\"max-age=63072000; includeSubDomains\",\"vary\":\"Origin\"},\"Response Status\":201}]}","stop":1645363331148}],"attachments":[],"parameters":[],"start":1645363330811,"name":"Then User Validates Post Call","stop":1645363331153},{"status":"passed","statusDetails":{},"stage":"finished","steps":[{"status":"passed","statusDetails":{},"stage":"finished","steps":[],"attachments":[],"parameters":[],"start":1645363331154,"name":"GET 200 https://gorest.co.in/public/v1/users","stop":1645363331421},{"status":"passed","statusDetails":{},"stage":"finished","steps":[],"attachments":[],"parameters":[],"start":1645363331438,"name":"log {\"body\":{\"meta\":{\"pagination\":{\"total\":3467,\"pages\":174,\"page\":1,\"limit\":20,\"links\":{\"previous\":null,\"current\":\"https://gorest.co.in/public/v1/users?page=1\",\"next\":\"https://gorest.co.in/public/v1/users?page=2\"}}},\"data\":[{\"id\":4053,\"name\":\"jPKaQUOEQR\",\"email\":\"DPCidWwlJZ@gmail.com\",\"gender\":\"male\",\"status\":\"active\"},{\"id\":4052,\"name\":\"DnTmGJTjHQ\",\"email\":\"EjmEWG8g6T@gmail.com\",\"gender\":\"male\",\"status\":\"active\"},{\"id\":4051,\"name\":\"mGUzkIfwLa\",\"email\":\"W0Nc5X2seH@gmail.com\",\"gender\":\"male\",\"status\":\"active\"},{\"id\":4050,\"name\":\"gxFaQHbbNl\",\"email\":\"5Ob3U67N64@gmail.com\",\"gender\":\"male\",\"status\":\"active\"},{\"id\":4049,\"name\":\"gLMjaAVTdl\",\"email\":\"X1gXmtLDdQ@gmail.com\",\"gender\":\"male\",\"status\":\"active\"},{\"id\":4048,\"name\":\"oCuLbTZfmG\",\"email\":\"qcVupjiz8s@gmail.com\",\"gender\":\"male\",\"status\":\"active\"},{\"id\":4047,\"name\":\"gcXlvzGIeG\",\"email\":\"IKZZ1JDNqo@gmail.com\",\"gender\":\"male\",\"status\":\"active\"},{\"id\":4046,\"name\":\"BlABVhPLfq\",\"email\":\"tgyyn6RK4l@gmail.com\",\"gender\":\"male\",\"status\":\"active\"},{\"id\":4045,\"name\":\"sBQNitWHDY\",\"email\":\"0ZQD6vKTtV@gmail.com\",\"gender\":\"male\",\"status\":\"active\"},{\"id\":4044,\"name\":\"dUbJTgIfDm\",\"email\":\"umI2OjGVh2@gmail.com\",\"gender\":\"male\",\"status\":\"active\"},{\"id\":4043,\"name\":\"BXWtjjuuXN\",\"email\":\"9dbVA0JTcU@gmail.com\",\"gender\":\"male\",\"status\":\"active\"},{\"id\":4042,\"name\":\"RYXookdNWu\",\"email\":\"wOsCbtKOJ4@gmail.com\",\"gender\":\"male\",\"status\":\"active\"},{\"id\":4035,\"name\":\"KLFRlRpauM\",\"email\":\"UcCOCmdqs7@gmail.com\",\"gender\":\"male\",\"status\":\"active\"},{\"id\":4034,\"name\":\"bQhRmvJmMZ\",\"email\":\"GrdgFBcdQG@gmail.com\",\"gender\":\"male\",\"status\":\"active\"},{\"id\":4033,\"name\":\"kVPsbiSPzn\",\"email\":\"C08iyoGpgC@gmail.com\",\"gender\":\"male\",\"status\":\"active\"},{\"id\":4032,\"name\":\"KLgotYLrWC\",\"email\":\"Wp9lIB6UUD@gmail.com\",\"gender\":\"male\",\"status\":\"active\"},{\"id\":4024,\"name\":\"aiMZxNuxvI\",\"email\":\"aV64BoKbfj@gmail.com\",\"gender\":\"male\",\"status\":\"active\"},{\"id\":4023,\"name\":\"hYwyOZRpYL\",\"email\":\"bzKKQPVbPa@gmail.com\",\"gender\":\"male\",\"status\":\"active\"},{\"id\":4022,\"name\":\"wOEgRtYTSF\",\"email\":\"t6tBZm1k2j@gmail.com\",\"gender\":\"male\",\"status\":\"active\"},{\"id\":4021,\"name\":\"ihXbsHMSUX\",\"email\":\"WMX8QWI1lE@gmail.com\",\"gender\":\"male\",\"status\":\"active\"}]},\"headers\":{\"server\":\"nginx\",\"date\":\"Sun, 20 Feb 2022 13:22:11 GMT\",\"content-type\":\"application/json; charset=utf-8\",\"transfer-encoding\":\"chunked\",\"connection\":\"keep-alive\",\"vary\":\"Accept-Encoding, Origin\",\"x-frame-options\":\"SAMEORIGIN\",\"x-xss-protection\":\"0\",\"x-content-type-options\":\"nosniff\",\"x-download-options\":\"noopen\",\"x-permitted-cross-domain-policies\":\"none\",\"referrer-policy\":\"strict-origin-when-cross-origin\",\"x-ratelimit-limit\":\"90\",\"x-ratelimit-remaining\":\"89\",\"x-ratelimit-reset\":\"2\",\"etag\":\"W/\\\"ffc09a99a7bd14daee41011453b21538\\\"\",\"cache-control\":\"max-age=0, private, must-revalidate\",\"x-request-id\":\"afc4ca1e-73de-4a87-9be1-279e7eaa39a7\",\"x-runtime\":\"0.027835\",\"strict-transport-security\":\"max-age=63072000; includeSubDomains\",\"content-encoding\":\"gzip\"},\"status\":200,\"statusText\":\"OK\",\"isOkStatusCode\":true,\"requestHeaders\":{\"Connection\":\"keep-alive\",\"authorization\":\"Bearer 4b4c8f088b43abd2c4328d13f40228324cda0ef0b05a86faaacb6fbd31a3124d\",\"user-agent\":\"Mozilla/5.0 (X11; Linux x86_64) AppleWebKit/537.36 (KHTML, like Gecko) Chrome/86.0.4240.193 Safari/537.36\",\"accept\":\"*/*\",\"accept-encoding\":\"gzip, deflate\"},\"duration\":258,\"allRequestResponses\":[{\"Request Body\":null,\"Request Headers\":{\"Connection\":\"keep-alive\",\"authorization\":\"Bearer 4b4c8f088b43abd2c4328d13f40228324cda0ef0b05a86faaacb6fbd31a3124d\",\"user-agent\":\"Mozilla/5.0 (X11; Linux x86_64) AppleWebKit/537.36 (KHTML, like Gecko) Chrome/86.0.4240.193 Safari/537.36\",\"accept\":\"*/*\",\"accept-encoding\":\"gzip, deflate\"},\"Request URL\":\"https://gorest.co.in/public/v1/users\",\"Response Body\":\"{\\\"meta\\\":{\\\"pagination\\\":{\\\"total\\\":3467,\\\"pages\\\":174,\\\"page\\\":1,\\\"limit\\\":20,\\\"links\\\":{\\\"previous\\\":null,\\\"current\\\":\\\"https://gorest.co.in/public/v1/users?page=1\\\",\\\"next\\\":\\\"https://gorest.co.in/public/v1/users?page=2\\\"}}},\\\"data\\\":[{\\\"id\\\":4053,\\\"name\\\":\\\"jPKaQUOEQR\\\",\\\"email\\\":\\\"DPCidWwlJZ@gmail.com\\\",\\\"gender\\\":\\\"male\\\",\\\"status\\\":\\\"active\\\"},{\\\"id\\\":4052,\\\"name\\\":\\\"DnTmGJTjHQ\\\",\\\"email\\\":\\\"EjmEWG8g6T@gmail.com\\\",\\\"gender\\\":\\\"male\\\",\\\"status\\\":\\\"active\\\"},{\\\"id\\\":4051,\\\"name\\\":\\\"mGUzkIfwLa\\\",\\\"email\\\":\\\"W0Nc5X2seH@gmail.com\\\",\\\"gender\\\":\\\"male\\\",\\\"status\\\":\\\"active\\\"},{\\\"id\\\":4050,\\\"name\\\":\\\"gxFaQHbbNl\\\",\\\"email\\\":\\\"5Ob3U67N64@gmail.com\\\",\\\"gender\\\":\\\"male\\\",\\\"status\\\":\\\"active\\\"},{\\\"id\\\":4049,\\\"name\\\":\\\"gLMjaAVTdl\\\",\\\"email\\\":\\\"X1gXmtLDdQ@gmail.com\\\",\\\"gender\\\":\\\"male\\\",\\\"status\\\":\\\"active\\\"},{\\\"id\\\":4048,\\\"name\\\":\\\"oCuLbTZfmG\\\",\\\"email\\\":\\\"qcVupjiz8s@gmail.com\\\",\\\"gender\\\":\\\"male\\\",\\\"status\\\":\\\"active\\\"},{\\\"id\\\":4047,\\\"name\\\":\\\"gcXlvzGIeG\\\",\\\"email\\\":\\\"IKZZ1JDNqo@gmail.com\\\",\\\"gender\\\":\\\"male\\\",\\\"status\\\":\\\"active\\\"},{\\\"id\\\":4046,\\\"name\\\":\\\"BlABVhPLfq\\\",\\\"email\\\":\\\"tgyyn6RK4l@gmail.com\\\",\\\"gender\\\":\\\"male\\\",\\\"status\\\":\\\"active\\\"},{\\\"id\\\":4045,\\\"name\\\":\\\"sBQNitWHDY\\\",\\\"email\\\":\\\"0ZQD6vKTtV@gmail.com\\\",\\\"gender\\\":\\\"male\\\",\\\"status\\\":\\\"active\\\"},{\\\"id\\\":4044,\\\"name\\\":\\\"dUbJTgIfDm\\\",\\\"email\\\":\\\"umI2OjGVh2@gmail.com\\\",\\\"gender\\\":\\\"male\\\",\\\"status\\\":\\\"active\\\"},{\\\"id\\\":4043,\\\"name\\\":\\\"BXWtjjuuXN\\\",\\\"email\\\":\\\"9dbVA0JTcU@gmail.com\\\",\\\"gender\\\":\\\"male\\\",\\\"status\\\":\\\"active\\\"},{\\\"id\\\":4042,\\\"name\\\":\\\"RYXookdNWu\\\",\\\"email\\\":\\\"wOsCbtKOJ4@gmail.com\\\",\\\"gender\\\":\\\"male\\\",\\\"status\\\":\\\"active\\\"},{\\\"id\\\":4035,\\\"name\\\":\\\"KLFRlRpauM\\\",\\\"email\\\":\\\"UcCOCmdqs7@gmail.com\\\",\\\"gender\\\":\\\"male\\\",\\\"status\\\":\\\"active\\\"},{\\\"id\\\":4034,\\\"name\\\":\\\"bQhRmvJmMZ\\\",\\\"email\\\":\\\"GrdgFBcdQG@gmail.com\\\",\\\"gender\\\":\\\"male\\\",\\\"status\\\":\\\"active\\\"},{\\\"id\\\":4033,\\\"name\\\":\\\"kVPsbiSPzn\\\",\\\"email\\\":\\\"C08iyoGpgC@gmail.com\\\",\\\"gender\\\":\\\"male\\\",\\\"status\\\":\\\"active\\\"},{\\\"id\\\":4032,\\\"name\\\":\\\"KLgotYLrWC\\\",\\\"email\\\":\\\"Wp9lIB6UUD@gmail.com\\\",\\\"gender\\\":\\\"male\\\",\\\"status\\\":\\\"active\\\"},{\\\"id\\\":4024,\\\"name\\\":\\\"aiMZxNuxvI\\\",\\\"email\\\":\\\"aV64BoKbfj@gmail.com\\\",\\\"gender\\\":\\\"male\\\",\\\"status\\\":\\\"active\\\"},{\\\"id\\\":4023,\\\"name\\\":\\\"hYwyOZRpYL\\\",\\\"email\\\":\\\"bzKKQPVbPa@gmail.com\\\",\\\"gender\\\":\\\"male\\\",\\\"status\\\":\\\"active\\\"},{\\\"id\\\":4022,\\\"name\\\":\\\"wOEgRtYTSF\\\",\\\"email\\\":\\\"t6tBZm1k2j@gmail.com\\\",\\\"gender\\\":\\\"male\\\",\\\"status\\\":\\\"active\\\"},{\\\"id\\\":4021,\\\"name\\\":\\\"ihXbsHMSUX\\\",\\\"email\\\":\\\"WMX8QWI1lE@gmail.com\\\",\\\"gender\\\":\\\"male\\\",\\\"status\\\":\\\"active\\\"}]}\",\"Response Headers\":{\"server\":\"nginx\",\"date\":\"Sun, 20 Feb 2022 13:22:11 GMT\",\"content-type\":\"application/json; charset=utf-8\",\"transfer-encoding\":\"chunked\",\"connection\":\"keep-alive\",\"vary\":\"Accept-Encoding, Origin\",\"x-frame-options\":\"SAMEORIGIN\",\"x-xss-protection\":\"0\",\"x-content-type-options\":\"nosniff\",\"x-download-options\":\"noopen\",\"x-permitted-cross-domain-policies\":\"none\",\"referrer-policy\":\"strict-origin-when-cross-origin\",\"x-ratelimit-limit\":\"90\",\"x-ratelimit-remaining\":\"89\",\"x-ratelimit-reset\":\"2\",\"etag\":\"W/\\\"ffc09a99a7bd14daee41011453b21538\\\"\",\"cache-control\":\"max-age=0, private, must-revalidate\",\"x-request-id\":\"afc4ca1e-73de-4a87-9be1-279e7eaa39a7\",\"x-runtime\":\"0.027835\",\"strict-transport-security\":\"max-age=63072000; includeSubDomains\",\"content-encoding\":\"gzip\"},\"Response Status\":200}]}","stop":1645363331452}],"attachments":[],"parameters":[],"start":1645363331153,"name":"Then User Validates Get Call","stop":1645363331458},{"status":"passed","statusDetails":{},"stage":"finished","steps":[{"status":"passed","statusDetails":{},"stage":"finished","steps":[],"attachments":[],"parameters":[],"start":1645363331460,"name":"log Put Method","stop":1645363331464}],"attachments":[],"parameters":[],"start":1645363331458,"name":"Then User Validates Put Call","stop":1645363331468},{"status":"passed","statusDetails":{},"stage":"finished","steps":[{"status":"passed","statusDetails":{},"stage":"finished","steps":[],"attachments":[],"parameters":[],"start":1645363331469,"name":"log Delete Method","stop":1645363331473}],"attachments":[],"parameters":[],"start":1645363331468,"name":"Then User Validates Delete Call","stop":1645363331475},{"status":"passed","statusDetails":{},"stage":"finished","steps":[],"attachments":[],"parameters":[],"start":1645363331501,"name":"\"after each\" hook","stop":1645363331503}],"attachments":[{"name":"video recording","type":"video/mp4","source":"972be04f-c37d-4ce4-8ff4-74106c2cce2d-attachment.mp4"}],"parameters":[],"labels":[{"name":"suite","value":"API"},{"name":"feature","value":"Test E2E"},{"name":"tag","value":"Regression"}],"links":[],"start":1645363330788,"name":"TC004:Validate API Test","fullName":"TC004:Validate API Test","stop":1645363331476}