{"uuid":"3d85a82d-6c3d-46d4-b794-399cfa147e22","historyId":"a1430cd4396ea6d56fa0213f6fd58bff","status":"passed","statusDetails":{},"stage":"finished","steps":[{"status":"passed","statusDetails":{},"stage":"finished","steps":[],"attachments":[],"parameters":[],"start":1645339083436,"name":"\"before each\" hook","stop":1645339083438},{"status":"passed","statusDetails":{},"stage":"finished","steps":[{"status":"passed","statusDetails":{},"stage":"finished","steps":[],"attachments":[],"parameters":[],"start":1645339083464,"name":"log https://gorest.co.in/public/v1/users","stop":1645339083468},{"status":"passed","statusDetails":{},"stage":"finished","steps":[],"attachments":[],"parameters":[],"start":1645339083469,"name":"POST 201 https://gorest.co.in/public/v1/users","stop":1645339084095},{"status":"passed","statusDetails":{},"stage":"finished","steps":[],"attachments":[],"parameters":[],"start":1645339084115,"name":"log {\"body\":{\"meta\":null,\"data\":{\"id\":3693,\"name\":\"CrgupIZotj\",\"email\":\"ELqXzNfikT@gmail.com\",\"gender\":\"male\",\"status\":\"active\"}},\"headers\":{\"server\":\"nginx\",\"date\":\"Sun, 20 Feb 2022 06:40:37 GMT\",\"content-type\":\"application/json; charset=utf-8\",\"transfer-encoding\":\"chunked\",\"connection\":\"keep-alive\",\"x-frame-options\":\"SAMEORIGIN\",\"x-xss-protection\":\"0\",\"x-content-type-options\":\"nosniff\",\"x-download-options\":\"noopen\",\"x-permitted-cross-domain-policies\":\"none\",\"referrer-policy\":\"strict-origin-when-cross-origin\",\"x-ratelimit-limit\":\"90\",\"x-ratelimit-remaining\":\"88\",\"x-ratelimit-reset\":\"1\",\"location\":\"https://gorest.co.in/public/v1/users/3693\",\"etag\":\"W/\\\"f912e46fc39392f9bb0cf74d23a9dd23\\\"\",\"cache-control\":\"max-age=0, private, must-revalidate\",\"x-request-id\":\"5050a0d6-8e09-4ea5-a01d-bbe23943ab43\",\"x-runtime\":\"0.038699\",\"strict-transport-security\":\"max-age=63072000; includeSubDomains\",\"vary\":\"Origin\"},\"status\":201,\"statusText\":\"Created\",\"isOkStatusCode\":true,\"requestHeaders\":{\"Connection\":\"keep-alive\",\"authorization\":\"Bearer 4b4c8f088b43abd2c4328d13f40228324cda0ef0b05a86faaacb6fbd31a3124d\",\"user-agent\":\"Mozilla/5.0 (Windows NT 10.0; Win64; x64) AppleWebKit/537.36 (KHTML, like Gecko) Cypress/9.5.0 Chrome/94.0.4606.81 Electron/15.3.4 Safari/537.36\",\"accept\":\"*/*\",\"accept-encoding\":\"gzip, deflate\",\"content-type\":\"application/json\",\"content-length\":86},\"requestBody\":\"{\\\"name\\\":\\\"CrgupIZotj\\\",\\\"email\\\":\\\"ELqXzNfikT@gmail.com\\\",\\\"gender\\\":\\\"Male\\\",\\\"status\\\":\\\"Active\\\"}\",\"duration\":584,\"allRequestResponses\":[{\"Request Body\":\"{\\\"name\\\":\\\"CrgupIZotj\\\",\\\"email\\\":\\\"ELqXzNfikT@gmail.com\\\",\\\"gender\\\":\\\"Male\\\",\\\"status\\\":\\\"Active\\\"}\",\"Request Headers\":{\"Connection\":\"keep-alive\",\"authorization\":\"Bearer 4b4c8f088b43abd2c4328d13f40228324cda0ef0b05a86faaacb6fbd31a3124d\",\"user-agent\":\"Mozilla/5.0 (Windows NT 10.0; Win64; x64) AppleWebKit/537.36 (KHTML, like Gecko) Cypress/9.5.0 Chrome/94.0.4606.81 Electron/15.3.4 Safari/537.36\",\"accept\":\"*/*\",\"accept-encoding\":\"gzip, deflate\",\"content-type\":\"application/json\",\"content-length\":86},\"Request URL\":\"https://gorest.co.in/public/v1/users\",\"Response Body\":{\"meta\":null,\"data\":{\"id\":3693,\"name\":\"CrgupIZotj\",\"email\":\"ELqXzNfikT@gmail.com\",\"gender\":\"male\",\"status\":\"active\"}},\"Response Headers\":{\"server\":\"nginx\",\"date\":\"Sun, 20 Feb 2022 06:40:37 GMT\",\"content-type\":\"application/json; charset=utf-8\",\"transfer-encoding\":\"chunked\",\"connection\":\"keep-alive\",\"x-frame-options\":\"SAMEORIGIN\",\"x-xss-protection\":\"0\",\"x-content-type-options\":\"nosniff\",\"x-download-options\":\"noopen\",\"x-permitted-cross-domain-policies\":\"none\",\"referrer-policy\":\"strict-origin-when-cross-origin\",\"x-ratelimit-limit\":\"90\",\"x-ratelimit-remaining\":\"88\",\"x-ratelimit-reset\":\"1\",\"location\":\"https://gorest.co.in/public/v1/users/3693\",\"etag\":\"W/\\\"f912e46fc39392f9bb0cf74d23a9dd23\\\"\",\"cache-control\":\"max-age=0, private, must-revalidate\",\"x-request-id\":\"5050a0d6-8e09-4ea5-a01d-bbe23943ab43\",\"x-runtime\":\"0.038699\",\"strict-transport-security\":\"max-age=63072000; includeSubDomains\",\"vary\":\"Origin\"},\"Response Status\":201}]}","stop":1645339084135}],"attachments":[],"parameters":[],"start":1645339083462,"name":"Then User Validates Post Call","stop":1645339084151},{"status":"passed","statusDetails":{},"stage":"finished","steps":[{"status":"passed","statusDetails":{},"stage":"finished","steps":[],"attachments":[],"parameters":[],"start":1645339084154,"name":"GET 200 https://gorest.co.in/public/v1/users","stop":1645339084317},{"status":"passed","statusDetails":{},"stage":"finished","steps":[],"attachments":[],"parameters":[],"start":1645339084326,"name":"log {\"body\":{\"meta\":{\"pagination\":{\"total\":3438,\"pages\":172,\"page\":1,\"limit\":20,\"links\":{\"previous\":null,\"current\":\"https://gorest.co.in/public/v1/users?page=1\",\"next\":\"https://gorest.co.in/public/v1/users?page=2\"}}},\"data\":[{\"id\":3693,\"name\":\"CrgupIZotj\",\"email\":\"ELqXzNfikT@gmail.com\",\"gender\":\"male\",\"status\":\"active\"},{\"id\":3686,\"name\":\"DKOjrYoqTv\",\"email\":\"a8yzVGnH3U@gmail.com\",\"gender\":\"male\",\"status\":\"active\"},{\"id\":3683,\"name\":\"xIThIZDRnq\",\"email\":\"XO6d36PE7K@gmail.com\",\"gender\":\"male\",\"status\":\"active\"},{\"id\":3680,\"name\":\"jpDXTNmGap\",\"email\":\"rsIXzUzeaP@gmail.com\",\"gender\":\"male\",\"status\":\"active\"},{\"id\":3679,\"name\":\"jCHGiSnzBO\",\"email\":\"vuhA3rZ8I5@gmail.com\",\"gender\":\"male\",\"status\":\"active\"},{\"id\":3678,\"name\":\"OeeaVdQaXs\",\"email\":\"ZLxkjgEmVr@gmail.com\",\"gender\":\"male\",\"status\":\"active\"},{\"id\":3675,\"name\":\"AKdntzYEzM\",\"email\":\"8w7FJetBf1@gmail.com\",\"gender\":\"male\",\"status\":\"active\"},{\"id\":3474,\"name\":\"Ajit Deshpande\",\"email\":\"deshpande_ajit@dietrich.info\",\"gender\":\"female\",\"status\":\"inactive\"},{\"id\":3473,\"name\":\"Vasudev Ganaka IV\",\"email\":\"iv_vasudev_ganaka@vonrueden-friesen.com\",\"gender\":\"male\",\"status\":\"active\"},{\"id\":3472,\"name\":\"Devi Kapoor\",\"email\":\"kapoor_devi@daugherty.io\",\"gender\":\"female\",\"status\":\"active\"},{\"id\":3471,\"name\":\"Achintya Trivedi\",\"email\":\"achintya_trivedi@mcglynn.net\",\"gender\":\"male\",\"status\":\"inactive\"},{\"id\":3470,\"name\":\"Mahendra Prajapat\",\"email\":\"mahendra_prajapat@fay-bechtelar.co\",\"gender\":\"female\",\"status\":\"active\"},{\"id\":3469,\"name\":\"Chidaatma Embranthiri\",\"email\":\"embranthiri_chidaatma@renner.com\",\"gender\":\"female\",\"status\":\"active\"},{\"id\":3468,\"name\":\"Bhaanumati Chaturvedi\",\"email\":\"bhaanumati_chaturvedi@mann.net\",\"gender\":\"male\",\"status\":\"active\"},{\"id\":3467,\"name\":\"Chandranath Nambeesan\",\"email\":\"chandranath_nambeesan@wintheiser.co\",\"gender\":\"male\",\"status\":\"inactive\"},{\"id\":3465,\"name\":\"The Hon. Vidur Marar\",\"email\":\"vidur_marar_hon_the@rutherford-watsica.biz\",\"gender\":\"female\",\"status\":\"active\"},{\"id\":3464,\"name\":\"Esha Khan III\",\"email\":\"iii_esha_khan@collier-mueller.org\",\"gender\":\"male\",\"status\":\"inactive\"},{\"id\":3463,\"name\":\"Miss Asha Pilla\",\"email\":\"miss_pilla_asha@hegmann.biz\",\"gender\":\"female\",\"status\":\"inactive\"},{\"id\":3462,\"name\":\"Shashi Adiga IV\",\"email\":\"adiga_shashi_iv@ullrich.biz\",\"gender\":\"male\",\"status\":\"inactive\"},{\"id\":3461,\"name\":\"Rep. Brahma Joshi\",\"email\":\"joshi_brahma_rep@howe.co\",\"gender\":\"female\",\"status\":\"active\"}]},\"headers\":{\"server\":\"nginx\",\"date\":\"Sun, 20 Feb 2022 06:40:37 GMT\",\"content-type\":\"application/json; charset=utf-8\",\"transfer-encoding\":\"chunked\",\"connection\":\"keep-alive\",\"vary\":\"Accept-Encoding, Origin\",\"x-frame-options\":\"SAMEORIGIN\",\"x-xss-protection\":\"0\",\"x-content-type-options\":\"nosniff\",\"x-download-options\":\"noopen\",\"x-permitted-cross-domain-policies\":\"none\",\"referrer-policy\":\"strict-origin-when-cross-origin\",\"x-ratelimit-limit\":\"90\",\"x-ratelimit-remaining\":\"89\",\"x-ratelimit-reset\":\"2\",\"etag\":\"W/\\\"c5a3aa78e0c8199e09ccea27d6875bef\\\"\",\"cache-control\":\"max-age=0, private, must-revalidate\",\"x-request-id\":\"703ba41a-ffb4-4f5a-b4d0-5e348e7a7dbe\",\"x-runtime\":\"0.032132\",\"strict-transport-security\":\"max-age=63072000; includeSubDomains\",\"content-encoding\":\"gzip\"},\"status\":200,\"statusText\":\"OK\",\"isOkStatusCode\":true,\"requestHeaders\":{\"Connection\":\"keep-alive\",\"authorization\":\"Bearer 4b4c8f088b43abd2c4328d13f40228324cda0ef0b05a86faaacb6fbd31a3124d\",\"user-agent\":\"Mozilla/5.0 (Windows NT 10.0; Win64; x64) AppleWebKit/537.36 (KHTML, like Gecko) Cypress/9.5.0 Chrome/94.0.4606.81 Electron/15.3.4 Safari/537.36\",\"accept\":\"*/*\",\"accept-encoding\":\"gzip, deflate\"},\"duration\":144,\"allRequestResponses\":[{\"Request Body\":null,\"Request Headers\":{\"Connection\":\"keep-alive\",\"authorization\":\"Bearer 4b4c8f088b43abd2c4328d13f40228324cda0ef0b05a86faaacb6fbd31a3124d\",\"user-agent\":\"Mozilla/5.0 (Windows NT 10.0; Win64; x64) AppleWebKit/537.36 (KHTML, like Gecko) Cypress/9.5.0 Chrome/94.0.4606.81 Electron/15.3.4 Safari/537.36\",\"accept\":\"*/*\",\"accept-encoding\":\"gzip, deflate\"},\"Request URL\":\"https://gorest.co.in/public/v1/users\",\"Response Body\":\"{\\\"meta\\\":{\\\"pagination\\\":{\\\"total\\\":3438,\\\"pages\\\":172,\\\"page\\\":1,\\\"limit\\\":20,\\\"links\\\":{\\\"previous\\\":null,\\\"current\\\":\\\"https://gorest.co.in/public/v1/users?page=1\\\",\\\"next\\\":\\\"https://gorest.co.in/public/v1/users?page=2\\\"}}},\\\"data\\\":[{\\\"id\\\":3693,\\\"name\\\":\\\"CrgupIZotj\\\",\\\"email\\\":\\\"ELqXzNfikT@gmail.com\\\",\\\"gender\\\":\\\"male\\\",\\\"status\\\":\\\"active\\\"},{\\\"id\\\":3686,\\\"name\\\":\\\"DKOjrYoqTv\\\",\\\"email\\\":\\\"a8yzVGnH3U@gmail.com\\\",\\\"gender\\\":\\\"male\\\",\\\"status\\\":\\\"active\\\"},{\\\"id\\\":3683,\\\"name\\\":\\\"xIThIZDRnq\\\",\\\"email\\\":\\\"XO6d36PE7K@gmail.com\\\",\\\"gender\\\":\\\"male\\\",\\\"status\\\":\\\"active\\\"},{\\\"id\\\":3680,\\\"name\\\":\\\"jpDXTNmGap\\\",\\\"email\\\":\\\"rsIXzUzeaP@gmail.com\\\",\\\"gender\\\":\\\"male\\\",\\\"status\\\":\\\"active\\\"},{\\\"id\\\":3679,\\\"name\\\":\\\"jCHGiSnzBO\\\",\\\"email\\\":\\\"vuhA3rZ8I5@gmail.com\\\",\\\"gender\\\":\\\"male\\\",\\\"status\\\":\\\"active\\\"},{\\\"id\\\":3678,\\\"name\\\":\\\"OeeaVdQaXs\\\",\\\"email\\\":\\\"ZLxkjgEmVr@gmail.com\\\",\\\"gender\\\":\\\"male\\\",\\\"status\\\":\\\"active\\\"},{\\\"id\\\":3675,\\\"name\\\":\\\"AKdntzYEzM\\\",\\\"email\\\":\\\"8w7FJetBf1@gmail.com\\\",\\\"gender\\\":\\\"male\\\",\\\"status\\\":\\\"active\\\"},{\\\"id\\\":3474,\\\"name\\\":\\\"Ajit Deshpande\\\",\\\"email\\\":\\\"deshpande_ajit@dietrich.info\\\",\\\"gender\\\":\\\"female\\\",\\\"status\\\":\\\"inactive\\\"},{\\\"id\\\":3473,\\\"name\\\":\\\"Vasudev Ganaka IV\\\",\\\"email\\\":\\\"iv_vasudev_ganaka@vonrueden-friesen.com\\\",\\\"gender\\\":\\\"male\\\",\\\"status\\\":\\\"active\\\"},{\\\"id\\\":3472,\\\"name\\\":\\\"Devi Kapoor\\\",\\\"email\\\":\\\"kapoor_devi@daugherty.io\\\",\\\"gender\\\":\\\"female\\\",\\\"status\\\":\\\"active\\\"},{\\\"id\\\":3471,\\\"name\\\":\\\"Achintya Trivedi\\\",\\\"email\\\":\\\"achintya_trivedi@mcglynn.net\\\",\\\"gender\\\":\\\"male\\\",\\\"status\\\":\\\"inactive\\\"},{\\\"id\\\":3470,\\\"name\\\":\\\"Mahendra Prajapat\\\",\\\"email\\\":\\\"mahendra_prajapat@fay-bechtelar.co\\\",\\\"gender\\\":\\\"female\\\",\\\"status\\\":\\\"active\\\"},{\\\"id\\\":3469,\\\"name\\\":\\\"Chidaatma Embranthiri\\\",\\\"email\\\":\\\"embranthiri_chidaatma@renner.com\\\",\\\"gender\\\":\\\"female\\\",\\\"status\\\":\\\"active\\\"},{\\\"id\\\":3468,\\\"name\\\":\\\"Bhaanumati Chaturvedi\\\",\\\"email\\\":\\\"bhaanumati_chaturvedi@mann.net\\\",\\\"gender\\\":\\\"male\\\",\\\"status\\\":\\\"active\\\"},{\\\"id\\\":3467,\\\"name\\\":\\\"Chandranath Nambeesan\\\",\\\"email\\\":\\\"chandranath_nambeesan@wintheiser.co\\\",\\\"gender\\\":\\\"male\\\",\\\"status\\\":\\\"inactive\\\"},{\\\"id\\\":3465,\\\"name\\\":\\\"The Hon. Vidur Marar\\\",\\\"email\\\":\\\"vidur_marar_hon_the@rutherford-watsica.biz\\\",\\\"gender\\\":\\\"female\\\",\\\"status\\\":\\\"active\\\"},{\\\"id\\\":3464,\\\"name\\\":\\\"Esha Khan III\\\",\\\"email\\\":\\\"iii_esha_khan@collier-mueller.org\\\",\\\"gender\\\":\\\"male\\\",\\\"status\\\":\\\"inactive\\\"},{\\\"id\\\":3463,\\\"name\\\":\\\"Miss Asha Pilla\\\",\\\"email\\\":\\\"miss_pilla_asha@hegmann.biz\\\",\\\"gender\\\":\\\"female\\\",\\\"status\\\":\\\"inactive\\\"},{\\\"id\\\":3462,\\\"name\\\":\\\"Shashi Adiga IV\\\",\\\"email\\\":\\\"adiga_shashi_iv@ullrich.biz\\\",\\\"gender\\\":\\\"male\\\",\\\"status\\\":\\\"inactive\\\"},{\\\"id\\\":3461,\\\"name\\\":\\\"Rep. Brahma Joshi\\\",\\\"email\\\":\\\"joshi_brahma_rep@howe.co\\\",\\\"gender\\\":\\\"female\\\",\\\"status\\\":\\\"active\\\"}]}\",\"Response Headers\":{\"server\":\"nginx\",\"date\":\"Sun, 20 Feb 2022 06:40:37 GMT\",\"content-type\":\"application/json; charset=utf-8\",\"transfer-encoding\":\"chunked\",\"connection\":\"keep-alive\",\"vary\":\"Accept-Encoding, Origin\",\"x-frame-options\":\"SAMEORIGIN\",\"x-xss-protection\":\"0\",\"x-content-type-options\":\"nosniff\",\"x-download-options\":\"noopen\",\"x-permitted-cross-domain-policies\":\"none\",\"referrer-policy\":\"strict-origin-when-cross-origin\",\"x-ratelimit-limit\":\"90\",\"x-ratelimit-remaining\":\"89\",\"x-ratelimit-reset\":\"2\",\"etag\":\"W/\\\"c5a3aa78e0c8199e09ccea27d6875bef\\\"\",\"cache-control\":\"max-age=0, private, must-revalidate\",\"x-request-id\":\"703ba41a-ffb4-4f5a-b4d0-5e348e7a7dbe\",\"x-runtime\":\"0.032132\",\"strict-transport-security\":\"max-age=63072000; includeSubDomains\",\"content-encoding\":\"gzip\"},\"Response Status\":200}]}","stop":1645339084340}],"attachments":[],"parameters":[],"start":1645339084151,"name":"Then User Validates Get Call","stop":1645339084350},{"status":"passed","statusDetails":{},"stage":"finished","steps":[{"status":"passed","statusDetails":{},"stage":"finished","steps":[],"attachments":[],"parameters":[],"start":1645339084352,"name":"log Put Method","stop":1645339084356}],"attachments":[],"parameters":[],"start":1645339084350,"name":"Then User Validates Put Call","stop":1645339084364},{"status":"passed","statusDetails":{},"stage":"finished","steps":[{"status":"passed","statusDetails":{},"stage":"finished","steps":[],"attachments":[],"parameters":[],"start":1645339084365,"name":"log Delete Method","stop":1645339084368}],"attachments":[],"parameters":[],"start":1645339084364,"name":"Then User Validates Delete Call","stop":1645339084370},{"status":"passed","statusDetails":{},"stage":"finished","steps":[],"attachments":[],"parameters":[],"start":1645339084437,"name":"\"after each\" hook","stop":1645339084440}],"attachments":[{"name":"video recording","type":"video/mp4","source":"a7f42ea6-5601-4a6c-8d00-8a6955ff0b0e-attachment.mp4"}],"parameters":[],"labels":[{"name":"suite","value":"API"},{"name":"feature","value":"Test E2E"},{"name":"tag","value":"Regression"}],"links":[],"start":1645339083431,"name":"TC001:Validate API Test","fullName":"TC001:Validate API Test","stop":1645339084371}