{"uuid":"68608516-d63f-4f53-95d2-2a507e65a75c","historyId":"a1430cd4396ea6d56fa0213f6fd58bff","status":"passed","statusDetails":{},"stage":"finished","steps":[{"status":"passed","statusDetails":{},"stage":"finished","steps":[],"attachments":[],"parameters":[],"start":1645338155800,"name":"\"before each\" hook","stop":1645338155801},{"status":"passed","statusDetails":{},"stage":"finished","steps":[{"status":"passed","statusDetails":{},"stage":"finished","steps":[],"attachments":[],"parameters":[],"start":1645338155830,"name":"log https://gorest.co.in/public/v1/users","stop":1645338155834},{"status":"passed","statusDetails":{},"stage":"finished","steps":[],"attachments":[],"parameters":[],"start":1645338155835,"name":"POST 201 https://gorest.co.in/public/v1/users","stop":1645338156369},{"status":"passed","statusDetails":{},"stage":"finished","steps":[],"attachments":[],"parameters":[],"start":1645338156381,"name":"log {\"body\":{\"meta\":null,\"data\":{\"id\":3683,\"name\":\"xIThIZDRnq\",\"email\":\"XO6d36PE7K@gmail.com\",\"gender\":\"male\",\"status\":\"active\"}},\"headers\":{\"server\":\"nginx\",\"date\":\"Sun, 20 Feb 2022 06:25:10 GMT\",\"content-type\":\"application/json; charset=utf-8\",\"transfer-encoding\":\"chunked\",\"connection\":\"keep-alive\",\"x-frame-options\":\"SAMEORIGIN\",\"x-xss-protection\":\"0\",\"x-content-type-options\":\"nosniff\",\"x-download-options\":\"noopen\",\"x-permitted-cross-domain-policies\":\"none\",\"referrer-policy\":\"strict-origin-when-cross-origin\",\"x-ratelimit-limit\":\"90\",\"x-ratelimit-remaining\":\"88\",\"x-ratelimit-reset\":\"1\",\"location\":\"https://gorest.co.in/public/v1/users/3683\",\"etag\":\"W/\\\"f234f74fbec618f82490fdda5a8bb4c5\\\"\",\"cache-control\":\"max-age=0, private, must-revalidate\",\"x-request-id\":\"6034ae19-b722-46fa-8f87-3fec1b6912ce\",\"x-runtime\":\"0.050330\",\"strict-transport-security\":\"max-age=63072000; includeSubDomains\",\"vary\":\"Origin\"},\"status\":201,\"statusText\":\"Created\",\"isOkStatusCode\":true,\"requestHeaders\":{\"Connection\":\"keep-alive\",\"authorization\":\"Bearer 4b4c8f088b43abd2c4328d13f40228324cda0ef0b05a86faaacb6fbd31a3124d\",\"user-agent\":\"Mozilla/5.0 (Windows NT 10.0; Win64; x64) AppleWebKit/537.36 (KHTML, like Gecko) Cypress/9.5.0 Chrome/94.0.4606.81 Electron/15.3.4 Safari/537.36\",\"accept\":\"*/*\",\"accept-encoding\":\"gzip, deflate\",\"content-type\":\"application/json\",\"content-length\":86},\"requestBody\":\"{\\\"name\\\":\\\"xIThIZDRnq\\\",\\\"email\\\":\\\"XO6d36PE7K@gmail.com\\\",\\\"gender\\\":\\\"Male\\\",\\\"status\\\":\\\"Active\\\"}\",\"duration\":521,\"allRequestResponses\":[{\"Request Body\":\"{\\\"name\\\":\\\"xIThIZDRnq\\\",\\\"email\\\":\\\"XO6d36PE7K@gmail.com\\\",\\\"gender\\\":\\\"Male\\\",\\\"status\\\":\\\"Active\\\"}\",\"Request Headers\":{\"Connection\":\"keep-alive\",\"authorization\":\"Bearer 4b4c8f088b43abd2c4328d13f40228324cda0ef0b05a86faaacb6fbd31a3124d\",\"user-agent\":\"Mozilla/5.0 (Windows NT 10.0; Win64; x64) AppleWebKit/537.36 (KHTML, like Gecko) Cypress/9.5.0 Chrome/94.0.4606.81 Electron/15.3.4 Safari/537.36\",\"accept\":\"*/*\",\"accept-encoding\":\"gzip, deflate\",\"content-type\":\"application/json\",\"content-length\":86},\"Request URL\":\"https://gorest.co.in/public/v1/users\",\"Response Body\":{\"meta\":null,\"data\":{\"id\":3683,\"name\":\"xIThIZDRnq\",\"email\":\"XO6d36PE7K@gmail.com\",\"gender\":\"male\",\"status\":\"active\"}},\"Response Headers\":{\"server\":\"nginx\",\"date\":\"Sun, 20 Feb 2022 06:25:10 GMT\",\"content-type\":\"application/json; charset=utf-8\",\"transfer-encoding\":\"chunked\",\"connection\":\"keep-alive\",\"x-frame-options\":\"SAMEORIGIN\",\"x-xss-protection\":\"0\",\"x-content-type-options\":\"nosniff\",\"x-download-options\":\"noopen\",\"x-permitted-cross-domain-policies\":\"none\",\"referrer-policy\":\"strict-origin-when-cross-origin\",\"x-ratelimit-limit\":\"90\",\"x-ratelimit-remaining\":\"88\",\"x-ratelimit-reset\":\"1\",\"location\":\"https://gorest.co.in/public/v1/users/3683\",\"etag\":\"W/\\\"f234f74fbec618f82490fdda5a8bb4c5\\\"\",\"cache-control\":\"max-age=0, private, must-revalidate\",\"x-request-id\":\"6034ae19-b722-46fa-8f87-3fec1b6912ce\",\"x-runtime\":\"0.050330\",\"strict-transport-security\":\"max-age=63072000; includeSubDomains\",\"vary\":\"Origin\"},\"Response Status\":201}]}","stop":1645338156390}],"attachments":[],"parameters":[],"start":1645338155828,"name":"Then User Validates Post Call","stop":1645338156404},{"status":"passed","statusDetails":{},"stage":"finished","steps":[{"status":"passed","statusDetails":{},"stage":"finished","steps":[],"attachments":[],"parameters":[],"start":1645338156406,"name":"GET 200 https://gorest.co.in/public/v1/users","stop":1645338156543},{"status":"passed","statusDetails":{},"stage":"finished","steps":[],"attachments":[],"parameters":[],"start":1645338156565,"name":"log {\"body\":{\"meta\":{\"pagination\":{\"total\":3436,\"pages\":172,\"page\":1,\"limit\":20,\"links\":{\"previous\":null,\"current\":\"https://gorest.co.in/public/v1/users?page=1\",\"next\":\"https://gorest.co.in/public/v1/users?page=2\"}}},\"data\":[{\"id\":3683,\"name\":\"xIThIZDRnq\",\"email\":\"XO6d36PE7K@gmail.com\",\"gender\":\"male\",\"status\":\"active\"},{\"id\":3680,\"name\":\"jpDXTNmGap\",\"email\":\"rsIXzUzeaP@gmail.com\",\"gender\":\"male\",\"status\":\"active\"},{\"id\":3679,\"name\":\"jCHGiSnzBO\",\"email\":\"vuhA3rZ8I5@gmail.com\",\"gender\":\"male\",\"status\":\"active\"},{\"id\":3678,\"name\":\"OeeaVdQaXs\",\"email\":\"ZLxkjgEmVr@gmail.com\",\"gender\":\"male\",\"status\":\"active\"},{\"id\":3675,\"name\":\"AKdntzYEzM\",\"email\":\"8w7FJetBf1@gmail.com\",\"gender\":\"male\",\"status\":\"active\"},{\"id\":3474,\"name\":\"Ajit Deshpande\",\"email\":\"deshpande_ajit@dietrich.info\",\"gender\":\"female\",\"status\":\"inactive\"},{\"id\":3473,\"name\":\"Vasudev Ganaka IV\",\"email\":\"iv_vasudev_ganaka@vonrueden-friesen.com\",\"gender\":\"male\",\"status\":\"active\"},{\"id\":3472,\"name\":\"Devi Kapoor\",\"email\":\"kapoor_devi@daugherty.io\",\"gender\":\"female\",\"status\":\"active\"},{\"id\":3471,\"name\":\"Achintya Trivedi\",\"email\":\"achintya_trivedi@mcglynn.net\",\"gender\":\"male\",\"status\":\"inactive\"},{\"id\":3470,\"name\":\"Mahendra Prajapat\",\"email\":\"mahendra_prajapat@fay-bechtelar.co\",\"gender\":\"female\",\"status\":\"active\"},{\"id\":3469,\"name\":\"Chidaatma Embranthiri\",\"email\":\"embranthiri_chidaatma@renner.com\",\"gender\":\"female\",\"status\":\"active\"},{\"id\":3468,\"name\":\"Bhaanumati Chaturvedi\",\"email\":\"bhaanumati_chaturvedi@mann.net\",\"gender\":\"male\",\"status\":\"active\"},{\"id\":3467,\"name\":\"Chandranath Nambeesan\",\"email\":\"chandranath_nambeesan@wintheiser.co\",\"gender\":\"male\",\"status\":\"inactive\"},{\"id\":3465,\"name\":\"The Hon. Vidur Marar\",\"email\":\"vidur_marar_hon_the@rutherford-watsica.biz\",\"gender\":\"female\",\"status\":\"active\"},{\"id\":3464,\"name\":\"Esha Khan III\",\"email\":\"iii_esha_khan@collier-mueller.org\",\"gender\":\"male\",\"status\":\"inactive\"},{\"id\":3463,\"name\":\"Miss Asha Pilla\",\"email\":\"miss_pilla_asha@hegmann.biz\",\"gender\":\"female\",\"status\":\"inactive\"},{\"id\":3462,\"name\":\"Shashi Adiga IV\",\"email\":\"adiga_shashi_iv@ullrich.biz\",\"gender\":\"male\",\"status\":\"inactive\"},{\"id\":3461,\"name\":\"Rep. Brahma Joshi\",\"email\":\"joshi_brahma_rep@howe.co\",\"gender\":\"female\",\"status\":\"active\"},{\"id\":3460,\"name\":\"Abhaidev Bandopadhyay\",\"email\":\"bandopadhyay_abhaidev@rice.com\",\"gender\":\"male\",\"status\":\"active\"},{\"id\":3459,\"name\":\"Aagney Devar\",\"email\":\"aagney_devar@lueilwitz.co\",\"gender\":\"female\",\"status\":\"active\"}]},\"headers\":{\"server\":\"nginx\",\"date\":\"Sun, 20 Feb 2022 06:25:10 GMT\",\"content-type\":\"application/json; charset=utf-8\",\"transfer-encoding\":\"chunked\",\"connection\":\"keep-alive\",\"vary\":\"Accept-Encoding, Origin\",\"x-frame-options\":\"SAMEORIGIN\",\"x-xss-protection\":\"0\",\"x-content-type-options\":\"nosniff\",\"x-download-options\":\"noopen\",\"x-permitted-cross-domain-policies\":\"none\",\"referrer-policy\":\"strict-origin-when-cross-origin\",\"x-ratelimit-limit\":\"90\",\"x-ratelimit-remaining\":\"89\",\"x-ratelimit-reset\":\"2\",\"etag\":\"W/\\\"09aeb08557e0f96a7bc9e75a2be05e94\\\"\",\"cache-control\":\"max-age=0, private, must-revalidate\",\"x-request-id\":\"69794d21-c141-4b1a-b23b-a8d7272aa930\",\"x-runtime\":\"0.032101\",\"strict-transport-security\":\"max-age=63072000; includeSubDomains\",\"content-encoding\":\"gzip\"},\"status\":200,\"statusText\":\"OK\",\"isOkStatusCode\":true,\"requestHeaders\":{\"Connection\":\"keep-alive\",\"authorization\":\"Bearer 4b4c8f088b43abd2c4328d13f40228324cda0ef0b05a86faaacb6fbd31a3124d\",\"user-agent\":\"Mozilla/5.0 (Windows NT 10.0; Win64; x64) AppleWebKit/537.36 (KHTML, like Gecko) Cypress/9.5.0 Chrome/94.0.4606.81 Electron/15.3.4 Safari/537.36\",\"accept\":\"*/*\",\"accept-encoding\":\"gzip, deflate\"},\"duration\":112,\"allRequestResponses\":[{\"Request Body\":null,\"Request Headers\":{\"Connection\":\"keep-alive\",\"authorization\":\"Bearer 4b4c8f088b43abd2c4328d13f40228324cda0ef0b05a86faaacb6fbd31a3124d\",\"user-agent\":\"Mozilla/5.0 (Windows NT 10.0; Win64; x64) AppleWebKit/537.36 (KHTML, like Gecko) Cypress/9.5.0 Chrome/94.0.4606.81 Electron/15.3.4 Safari/537.36\",\"accept\":\"*/*\",\"accept-encoding\":\"gzip, deflate\"},\"Request URL\":\"https://gorest.co.in/public/v1/users\",\"Response Body\":\"{\\\"meta\\\":{\\\"pagination\\\":{\\\"total\\\":3436,\\\"pages\\\":172,\\\"page\\\":1,\\\"limit\\\":20,\\\"links\\\":{\\\"previous\\\":null,\\\"current\\\":\\\"https://gorest.co.in/public/v1/users?page=1\\\",\\\"next\\\":\\\"https://gorest.co.in/public/v1/users?page=2\\\"}}},\\\"data\\\":[{\\\"id\\\":3683,\\\"name\\\":\\\"xIThIZDRnq\\\",\\\"email\\\":\\\"XO6d36PE7K@gmail.com\\\",\\\"gender\\\":\\\"male\\\",\\\"status\\\":\\\"active\\\"},{\\\"id\\\":3680,\\\"name\\\":\\\"jpDXTNmGap\\\",\\\"email\\\":\\\"rsIXzUzeaP@gmail.com\\\",\\\"gender\\\":\\\"male\\\",\\\"status\\\":\\\"active\\\"},{\\\"id\\\":3679,\\\"name\\\":\\\"jCHGiSnzBO\\\",\\\"email\\\":\\\"vuhA3rZ8I5@gmail.com\\\",\\\"gender\\\":\\\"male\\\",\\\"status\\\":\\\"active\\\"},{\\\"id\\\":3678,\\\"name\\\":\\\"OeeaVdQaXs\\\",\\\"email\\\":\\\"ZLxkjgEmVr@gmail.com\\\",\\\"gender\\\":\\\"male\\\",\\\"status\\\":\\\"active\\\"},{\\\"id\\\":3675,\\\"name\\\":\\\"AKdntzYEzM\\\",\\\"email\\\":\\\"8w7FJetBf1@gmail.com\\\",\\\"gender\\\":\\\"male\\\",\\\"status\\\":\\\"active\\\"},{\\\"id\\\":3474,\\\"name\\\":\\\"Ajit Deshpande\\\",\\\"email\\\":\\\"deshpande_ajit@dietrich.info\\\",\\\"gender\\\":\\\"female\\\",\\\"status\\\":\\\"inactive\\\"},{\\\"id\\\":3473,\\\"name\\\":\\\"Vasudev Ganaka IV\\\",\\\"email\\\":\\\"iv_vasudev_ganaka@vonrueden-friesen.com\\\",\\\"gender\\\":\\\"male\\\",\\\"status\\\":\\\"active\\\"},{\\\"id\\\":3472,\\\"name\\\":\\\"Devi Kapoor\\\",\\\"email\\\":\\\"kapoor_devi@daugherty.io\\\",\\\"gender\\\":\\\"female\\\",\\\"status\\\":\\\"active\\\"},{\\\"id\\\":3471,\\\"name\\\":\\\"Achintya Trivedi\\\",\\\"email\\\":\\\"achintya_trivedi@mcglynn.net\\\",\\\"gender\\\":\\\"male\\\",\\\"status\\\":\\\"inactive\\\"},{\\\"id\\\":3470,\\\"name\\\":\\\"Mahendra Prajapat\\\",\\\"email\\\":\\\"mahendra_prajapat@fay-bechtelar.co\\\",\\\"gender\\\":\\\"female\\\",\\\"status\\\":\\\"active\\\"},{\\\"id\\\":3469,\\\"name\\\":\\\"Chidaatma Embranthiri\\\",\\\"email\\\":\\\"embranthiri_chidaatma@renner.com\\\",\\\"gender\\\":\\\"female\\\",\\\"status\\\":\\\"active\\\"},{\\\"id\\\":3468,\\\"name\\\":\\\"Bhaanumati Chaturvedi\\\",\\\"email\\\":\\\"bhaanumati_chaturvedi@mann.net\\\",\\\"gender\\\":\\\"male\\\",\\\"status\\\":\\\"active\\\"},{\\\"id\\\":3467,\\\"name\\\":\\\"Chandranath Nambeesan\\\",\\\"email\\\":\\\"chandranath_nambeesan@wintheiser.co\\\",\\\"gender\\\":\\\"male\\\",\\\"status\\\":\\\"inactive\\\"},{\\\"id\\\":3465,\\\"name\\\":\\\"The Hon. Vidur Marar\\\",\\\"email\\\":\\\"vidur_marar_hon_the@rutherford-watsica.biz\\\",\\\"gender\\\":\\\"female\\\",\\\"status\\\":\\\"active\\\"},{\\\"id\\\":3464,\\\"name\\\":\\\"Esha Khan III\\\",\\\"email\\\":\\\"iii_esha_khan@collier-mueller.org\\\",\\\"gender\\\":\\\"male\\\",\\\"status\\\":\\\"inactive\\\"},{\\\"id\\\":3463,\\\"name\\\":\\\"Miss Asha Pilla\\\",\\\"email\\\":\\\"miss_pilla_asha@hegmann.biz\\\",\\\"gender\\\":\\\"female\\\",\\\"status\\\":\\\"inactive\\\"},{\\\"id\\\":3462,\\\"name\\\":\\\"Shashi Adiga IV\\\",\\\"email\\\":\\\"adiga_shashi_iv@ullrich.biz\\\",\\\"gender\\\":\\\"male\\\",\\\"status\\\":\\\"inactive\\\"},{\\\"id\\\":3461,\\\"name\\\":\\\"Rep. Brahma Joshi\\\",\\\"email\\\":\\\"joshi_brahma_rep@howe.co\\\",\\\"gender\\\":\\\"female\\\",\\\"status\\\":\\\"active\\\"},{\\\"id\\\":3460,\\\"name\\\":\\\"Abhaidev Bandopadhyay\\\",\\\"email\\\":\\\"bandopadhyay_abhaidev@rice.com\\\",\\\"gender\\\":\\\"male\\\",\\\"status\\\":\\\"active\\\"},{\\\"id\\\":3459,\\\"name\\\":\\\"Aagney Devar\\\",\\\"email\\\":\\\"aagney_devar@lueilwitz.co\\\",\\\"gender\\\":\\\"female\\\",\\\"status\\\":\\\"active\\\"}]}\",\"Response Headers\":{\"server\":\"nginx\",\"date\":\"Sun, 20 Feb 2022 06:25:10 GMT\",\"content-type\":\"application/json; charset=utf-8\",\"transfer-encoding\":\"chunked\",\"connection\":\"keep-alive\",\"vary\":\"Accept-Encoding, Origin\",\"x-frame-options\":\"SAMEORIGIN\",\"x-xss-protection\":\"0\",\"x-content-type-options\":\"nosniff\",\"x-download-options\":\"noopen\",\"x-permitted-cross-domain-policies\":\"none\",\"referrer-policy\":\"strict-origin-when-cross-origin\",\"x-ratelimit-limit\":\"90\",\"x-ratelimit-remaining\":\"89\",\"x-ratelimit-reset\":\"2\",\"etag\":\"W/\\\"09aeb08557e0f96a7bc9e75a2be05e94\\\"\",\"cache-control\":\"max-age=0, private, must-revalidate\",\"x-request-id\":\"69794d21-c141-4b1a-b23b-a8d7272aa930\",\"x-runtime\":\"0.032101\",\"strict-transport-security\":\"max-age=63072000; includeSubDomains\",\"content-encoding\":\"gzip\"},\"Response Status\":200}]}","stop":1645338156585}],"attachments":[],"parameters":[],"start":1645338156404,"name":"Then User Validates Get Call","stop":1645338156602},{"status":"passed","statusDetails":{},"stage":"finished","steps":[{"status":"passed","statusDetails":{},"stage":"finished","steps":[],"attachments":[],"parameters":[],"start":1645338156604,"name":"log Put Method","stop":1645338156615}],"attachments":[],"parameters":[],"start":1645338156602,"name":"Then User Validates Put Call","stop":1645338156622},{"status":"passed","statusDetails":{},"stage":"finished","steps":[{"status":"passed","statusDetails":{},"stage":"finished","steps":[],"attachments":[],"parameters":[],"start":1645338156623,"name":"log Delete Method","stop":1645338156629}],"attachments":[],"parameters":[],"start":1645338156622,"name":"Then User Validates Delete Call","stop":1645338156632},{"status":"passed","statusDetails":{},"stage":"finished","steps":[],"attachments":[],"parameters":[],"start":1645338156666,"name":"\"after each\" hook","stop":1645338156669}],"attachments":[{"name":"video recording","type":"video/mp4","source":"f5a758b4-7f32-4112-8c56-f6ef57ba9c99-attachment.mp4"}],"parameters":[],"labels":[{"name":"suite","value":"API"},{"name":"feature","value":"Test E2E"},{"name":"tag","value":"Regression"}],"links":[],"start":1645338155783,"name":"TC001:Validate API Test","fullName":"TC001:Validate API Test","stop":1645338156633}