{"uuid":"6d08488f-30ce-4f63-90a2-f9dc526edb0e","historyId":"f33da67a3de8eeca43913d49b621a687","status":"passed","statusDetails":{},"stage":"finished","steps":[{"status":"passed","statusDetails":{},"stage":"finished","steps":[],"attachments":[],"parameters":[],"start":1645364328469,"name":"\"before each\" hook","stop":1645364328470},{"status":"passed","statusDetails":{},"stage":"finished","steps":[{"status":"passed","statusDetails":{},"stage":"finished","steps":[],"attachments":[],"parameters":[],"start":1645364328487,"name":"log https://gorest.co.in/public/v1/users","stop":1645364328492},{"status":"passed","statusDetails":{},"stage":"finished","steps":[],"attachments":[],"parameters":[],"start":1645364328493,"name":"POST 201 https://gorest.co.in/public/v1/users","stop":1645364328771},{"status":"passed","statusDetails":{},"stage":"finished","steps":[],"attachments":[],"parameters":[],"start":1645364328778,"name":"log {\"body\":{\"meta\":null,\"data\":{\"id\":4069,\"name\":\"dKbcuuFCug\",\"email\":\"YypvJ2nNOY@gmail.com\",\"gender\":\"male\",\"status\":\"active\"}},\"headers\":{\"server\":\"nginx\",\"date\":\"Sun, 20 Feb 2022 13:38:48 GMT\",\"content-type\":\"application/json; charset=utf-8\",\"transfer-encoding\":\"chunked\",\"connection\":\"keep-alive\",\"x-frame-options\":\"SAMEORIGIN\",\"x-xss-protection\":\"0\",\"x-content-type-options\":\"nosniff\",\"x-download-options\":\"noopen\",\"x-permitted-cross-domain-policies\":\"none\",\"referrer-policy\":\"strict-origin-when-cross-origin\",\"x-ratelimit-limit\":\"90\",\"x-ratelimit-remaining\":\"88\",\"x-ratelimit-reset\":\"2\",\"location\":\"https://gorest.co.in/public/v1/users/4069\",\"etag\":\"W/\\\"0b2a6d8992618e031571735da7559352\\\"\",\"cache-control\":\"max-age=0, private, must-revalidate\",\"x-request-id\":\"e04eeedf-520f-4e1b-82a0-8192e70eb830\",\"x-runtime\":\"0.026670\",\"strict-transport-security\":\"max-age=63072000; includeSubDomains\",\"vary\":\"Origin\"},\"status\":201,\"statusText\":\"Created\",\"isOkStatusCode\":true,\"requestHeaders\":{\"Connection\":\"keep-alive\",\"authorization\":\"Bearer 4b4c8f088b43abd2c4328d13f40228324cda0ef0b05a86faaacb6fbd31a3124d\",\"user-agent\":\"Mozilla/5.0 (X11; Linux x86_64) AppleWebKit/537.36 (KHTML, like Gecko) HeadlessChrome/86.0.4240.193 Safari/537.36\",\"accept\":\"*/*\",\"accept-encoding\":\"gzip, deflate\",\"content-type\":\"application/json\",\"content-length\":86},\"requestBody\":\"{\\\"name\\\":\\\"dKbcuuFCug\\\",\\\"email\\\":\\\"YypvJ2nNOY@gmail.com\\\",\\\"gender\\\":\\\"Male\\\",\\\"status\\\":\\\"Active\\\"}\",\"duration\":252,\"allRequestResponses\":[{\"Request Body\":\"{\\\"name\\\":\\\"dKbcuuFCug\\\",\\\"email\\\":\\\"YypvJ2nNOY@gmail.com\\\",\\\"gender\\\":\\\"Male\\\",\\\"status\\\":\\\"Active\\\"}\",\"Request Headers\":{\"Connection\":\"keep-alive\",\"authorization\":\"Bearer 4b4c8f088b43abd2c4328d13f40228324cda0ef0b05a86faaacb6fbd31a3124d\",\"user-agent\":\"Mozilla/5.0 (X11; Linux x86_64) AppleWebKit/537.36 (KHTML, like Gecko) HeadlessChrome/86.0.4240.193 Safari/537.36\",\"accept\":\"*/*\",\"accept-encoding\":\"gzip, deflate\",\"content-type\":\"application/json\",\"content-length\":86},\"Request URL\":\"https://gorest.co.in/public/v1/users\",\"Response Body\":{\"meta\":null,\"data\":{\"id\":4069,\"name\":\"dKbcuuFCug\",\"email\":\"YypvJ2nNOY@gmail.com\",\"gender\":\"male\",\"status\":\"active\"}},\"Response Headers\":{\"server\":\"nginx\",\"date\":\"Sun, 20 Feb 2022 13:38:48 GMT\",\"content-type\":\"application/json; charset=utf-8\",\"transfer-encoding\":\"chunked\",\"connection\":\"keep-alive\",\"x-frame-options\":\"SAMEORIGIN\",\"x-xss-protection\":\"0\",\"x-content-type-options\":\"nosniff\",\"x-download-options\":\"noopen\",\"x-permitted-cross-domain-policies\":\"none\",\"referrer-policy\":\"strict-origin-when-cross-origin\",\"x-ratelimit-limit\":\"90\",\"x-ratelimit-remaining\":\"88\",\"x-ratelimit-reset\":\"2\",\"location\":\"https://gorest.co.in/public/v1/users/4069\",\"etag\":\"W/\\\"0b2a6d8992618e031571735da7559352\\\"\",\"cache-control\":\"max-age=0, private, must-revalidate\",\"x-request-id\":\"e04eeedf-520f-4e1b-82a0-8192e70eb830\",\"x-runtime\":\"0.026670\",\"strict-transport-security\":\"max-age=63072000; includeSubDomains\",\"vary\":\"Origin\"},\"Response Status\":201}]}","stop":1645364328784}],"attachments":[],"parameters":[],"start":1645364328486,"name":"Then User Validates Post Call","stop":1645364328789},{"status":"passed","statusDetails":{},"stage":"finished","steps":[{"status":"passed","statusDetails":{},"stage":"finished","steps":[],"attachments":[],"parameters":[],"start":1645364328789,"name":"GET 200 https://gorest.co.in/public/v1/users","stop":1645364329053},{"status":"passed","statusDetails":{},"stage":"finished","steps":[],"attachments":[],"parameters":[],"start":1645364329061,"name":"log {\"body\":{\"meta\":{\"pagination\":{\"total\":3475,\"pages\":174,\"page\":1,\"limit\":20,\"links\":{\"previous\":null,\"current\":\"https://gorest.co.in/public/v1/users?page=1\",\"next\":\"https://gorest.co.in/public/v1/users?page=2\"}}},\"data\":[{\"id\":4069,\"name\":\"dKbcuuFCug\",\"email\":\"YypvJ2nNOY@gmail.com\",\"gender\":\"male\",\"status\":\"active\"},{\"id\":4068,\"name\":\"PfEimhdoCK\",\"email\":\"VxVLjTJfqP@gmail.com\",\"gender\":\"male\",\"status\":\"active\"},{\"id\":4067,\"name\":\"BBtTvGiDks\",\"email\":\"Q5REUpNlRL@gmail.com\",\"gender\":\"male\",\"status\":\"active\"},{\"id\":4066,\"name\":\"oiOJIRObpc\",\"email\":\"TcKY8tPvyv@gmail.com\",\"gender\":\"male\",\"status\":\"active\"},{\"id\":4060,\"name\":\"BolSRPDiWu\",\"email\":\"HVsq2mUH6q@gmail.com\",\"gender\":\"male\",\"status\":\"active\"},{\"id\":4059,\"name\":\"txnbZWsvtl\",\"email\":\"F01mUkDEnK@gmail.com\",\"gender\":\"male\",\"status\":\"active\"},{\"id\":4058,\"name\":\"hnlAIOrcVC\",\"email\":\"3QcTVv5f1m@gmail.com\",\"gender\":\"male\",\"status\":\"active\"},{\"id\":4057,\"name\":\"tXkDWeRsUv\",\"email\":\"9Mr28WYoxo@gmail.com\",\"gender\":\"male\",\"status\":\"active\"},{\"id\":4053,\"name\":\"jPKaQUOEQR\",\"email\":\"DPCidWwlJZ@gmail.com\",\"gender\":\"male\",\"status\":\"active\"},{\"id\":4052,\"name\":\"DnTmGJTjHQ\",\"email\":\"EjmEWG8g6T@gmail.com\",\"gender\":\"male\",\"status\":\"active\"},{\"id\":4051,\"name\":\"mGUzkIfwLa\",\"email\":\"W0Nc5X2seH@gmail.com\",\"gender\":\"male\",\"status\":\"active\"},{\"id\":4050,\"name\":\"gxFaQHbbNl\",\"email\":\"5Ob3U67N64@gmail.com\",\"gender\":\"male\",\"status\":\"active\"},{\"id\":4049,\"name\":\"gLMjaAVTdl\",\"email\":\"X1gXmtLDdQ@gmail.com\",\"gender\":\"male\",\"status\":\"active\"},{\"id\":4048,\"name\":\"oCuLbTZfmG\",\"email\":\"qcVupjiz8s@gmail.com\",\"gender\":\"male\",\"status\":\"active\"},{\"id\":4047,\"name\":\"gcXlvzGIeG\",\"email\":\"IKZZ1JDNqo@gmail.com\",\"gender\":\"male\",\"status\":\"active\"},{\"id\":4046,\"name\":\"BlABVhPLfq\",\"email\":\"tgyyn6RK4l@gmail.com\",\"gender\":\"male\",\"status\":\"active\"},{\"id\":4045,\"name\":\"sBQNitWHDY\",\"email\":\"0ZQD6vKTtV@gmail.com\",\"gender\":\"male\",\"status\":\"active\"},{\"id\":4044,\"name\":\"dUbJTgIfDm\",\"email\":\"umI2OjGVh2@gmail.com\",\"gender\":\"male\",\"status\":\"active\"},{\"id\":4043,\"name\":\"BXWtjjuuXN\",\"email\":\"9dbVA0JTcU@gmail.com\",\"gender\":\"male\",\"status\":\"active\"},{\"id\":4042,\"name\":\"RYXookdNWu\",\"email\":\"wOsCbtKOJ4@gmail.com\",\"gender\":\"male\",\"status\":\"active\"}]},\"headers\":{\"server\":\"nginx\",\"date\":\"Sun, 20 Feb 2022 13:38:48 GMT\",\"content-type\":\"application/json; charset=utf-8\",\"transfer-encoding\":\"chunked\",\"connection\":\"keep-alive\",\"vary\":\"Accept-Encoding, Origin\",\"x-frame-options\":\"SAMEORIGIN\",\"x-xss-protection\":\"0\",\"x-content-type-options\":\"nosniff\",\"x-download-options\":\"noopen\",\"x-permitted-cross-domain-policies\":\"none\",\"referrer-policy\":\"strict-origin-when-cross-origin\",\"x-ratelimit-limit\":\"90\",\"x-ratelimit-remaining\":\"87\",\"x-ratelimit-reset\":\"3\",\"etag\":\"W/\\\"51d9e7a3ee803c3579ff193653ba49fb\\\"\",\"cache-control\":\"max-age=0, private, must-revalidate\",\"x-request-id\":\"f3ad4fe2-edd8-4d98-8346-e6ce17a880f8\",\"x-runtime\":\"0.029194\",\"strict-transport-security\":\"max-age=63072000; includeSubDomains\",\"content-encoding\":\"gzip\"},\"status\":200,\"statusText\":\"OK\",\"isOkStatusCode\":true,\"requestHeaders\":{\"Connection\":\"keep-alive\",\"authorization\":\"Bearer 4b4c8f088b43abd2c4328d13f40228324cda0ef0b05a86faaacb6fbd31a3124d\",\"user-agent\":\"Mozilla/5.0 (X11; Linux x86_64) AppleWebKit/537.36 (KHTML, like Gecko) HeadlessChrome/86.0.4240.193 Safari/537.36\",\"accept\":\"*/*\",\"accept-encoding\":\"gzip, deflate\"},\"duration\":254,\"allRequestResponses\":[{\"Request Body\":null,\"Request Headers\":{\"Connection\":\"keep-alive\",\"authorization\":\"Bearer 4b4c8f088b43abd2c4328d13f40228324cda0ef0b05a86faaacb6fbd31a3124d\",\"user-agent\":\"Mozilla/5.0 (X11; Linux x86_64) AppleWebKit/537.36 (KHTML, like Gecko) HeadlessChrome/86.0.4240.193 Safari/537.36\",\"accept\":\"*/*\",\"accept-encoding\":\"gzip, deflate\"},\"Request URL\":\"https://gorest.co.in/public/v1/users\",\"Response Body\":\"{\\\"meta\\\":{\\\"pagination\\\":{\\\"total\\\":3475,\\\"pages\\\":174,\\\"page\\\":1,\\\"limit\\\":20,\\\"links\\\":{\\\"previous\\\":null,\\\"current\\\":\\\"https://gorest.co.in/public/v1/users?page=1\\\",\\\"next\\\":\\\"https://gorest.co.in/public/v1/users?page=2\\\"}}},\\\"data\\\":[{\\\"id\\\":4069,\\\"name\\\":\\\"dKbcuuFCug\\\",\\\"email\\\":\\\"YypvJ2nNOY@gmail.com\\\",\\\"gender\\\":\\\"male\\\",\\\"status\\\":\\\"active\\\"},{\\\"id\\\":4068,\\\"name\\\":\\\"PfEimhdoCK\\\",\\\"email\\\":\\\"VxVLjTJfqP@gmail.com\\\",\\\"gender\\\":\\\"male\\\",\\\"status\\\":\\\"active\\\"},{\\\"id\\\":4067,\\\"name\\\":\\\"BBtTvGiDks\\\",\\\"email\\\":\\\"Q5REUpNlRL@gmail.com\\\",\\\"gender\\\":\\\"male\\\",\\\"status\\\":\\\"active\\\"},{\\\"id\\\":4066,\\\"name\\\":\\\"oiOJIRObpc\\\",\\\"email\\\":\\\"TcKY8tPvyv@gmail.com\\\",\\\"gender\\\":\\\"male\\\",\\\"status\\\":\\\"active\\\"},{\\\"id\\\":4060,\\\"name\\\":\\\"BolSRPDiWu\\\",\\\"email\\\":\\\"HVsq2mUH6q@gmail.com\\\",\\\"gender\\\":\\\"male\\\",\\\"status\\\":\\\"active\\\"},{\\\"id\\\":4059,\\\"name\\\":\\\"txnbZWsvtl\\\",\\\"email\\\":\\\"F01mUkDEnK@gmail.com\\\",\\\"gender\\\":\\\"male\\\",\\\"status\\\":\\\"active\\\"},{\\\"id\\\":4058,\\\"name\\\":\\\"hnlAIOrcVC\\\",\\\"email\\\":\\\"3QcTVv5f1m@gmail.com\\\",\\\"gender\\\":\\\"male\\\",\\\"status\\\":\\\"active\\\"},{\\\"id\\\":4057,\\\"name\\\":\\\"tXkDWeRsUv\\\",\\\"email\\\":\\\"9Mr28WYoxo@gmail.com\\\",\\\"gender\\\":\\\"male\\\",\\\"status\\\":\\\"active\\\"},{\\\"id\\\":4053,\\\"name\\\":\\\"jPKaQUOEQR\\\",\\\"email\\\":\\\"DPCidWwlJZ@gmail.com\\\",\\\"gender\\\":\\\"male\\\",\\\"status\\\":\\\"active\\\"},{\\\"id\\\":4052,\\\"name\\\":\\\"DnTmGJTjHQ\\\",\\\"email\\\":\\\"EjmEWG8g6T@gmail.com\\\",\\\"gender\\\":\\\"male\\\",\\\"status\\\":\\\"active\\\"},{\\\"id\\\":4051,\\\"name\\\":\\\"mGUzkIfwLa\\\",\\\"email\\\":\\\"W0Nc5X2seH@gmail.com\\\",\\\"gender\\\":\\\"male\\\",\\\"status\\\":\\\"active\\\"},{\\\"id\\\":4050,\\\"name\\\":\\\"gxFaQHbbNl\\\",\\\"email\\\":\\\"5Ob3U67N64@gmail.com\\\",\\\"gender\\\":\\\"male\\\",\\\"status\\\":\\\"active\\\"},{\\\"id\\\":4049,\\\"name\\\":\\\"gLMjaAVTdl\\\",\\\"email\\\":\\\"X1gXmtLDdQ@gmail.com\\\",\\\"gender\\\":\\\"male\\\",\\\"status\\\":\\\"active\\\"},{\\\"id\\\":4048,\\\"name\\\":\\\"oCuLbTZfmG\\\",\\\"email\\\":\\\"qcVupjiz8s@gmail.com\\\",\\\"gender\\\":\\\"male\\\",\\\"status\\\":\\\"active\\\"},{\\\"id\\\":4047,\\\"name\\\":\\\"gcXlvzGIeG\\\",\\\"email\\\":\\\"IKZZ1JDNqo@gmail.com\\\",\\\"gender\\\":\\\"male\\\",\\\"status\\\":\\\"active\\\"},{\\\"id\\\":4046,\\\"name\\\":\\\"BlABVhPLfq\\\",\\\"email\\\":\\\"tgyyn6RK4l@gmail.com\\\",\\\"gender\\\":\\\"male\\\",\\\"status\\\":\\\"active\\\"},{\\\"id\\\":4045,\\\"name\\\":\\\"sBQNitWHDY\\\",\\\"email\\\":\\\"0ZQD6vKTtV@gmail.com\\\",\\\"gender\\\":\\\"male\\\",\\\"status\\\":\\\"active\\\"},{\\\"id\\\":4044,\\\"name\\\":\\\"dUbJTgIfDm\\\",\\\"email\\\":\\\"umI2OjGVh2@gmail.com\\\",\\\"gender\\\":\\\"male\\\",\\\"status\\\":\\\"active\\\"},{\\\"id\\\":4043,\\\"name\\\":\\\"BXWtjjuuXN\\\",\\\"email\\\":\\\"9dbVA0JTcU@gmail.com\\\",\\\"gender\\\":\\\"male\\\",\\\"status\\\":\\\"active\\\"},{\\\"id\\\":4042,\\\"name\\\":\\\"RYXookdNWu\\\",\\\"email\\\":\\\"wOsCbtKOJ4@gmail.com\\\",\\\"gender\\\":\\\"male\\\",\\\"status\\\":\\\"active\\\"}]}\",\"Response Headers\":{\"server\":\"nginx\",\"date\":\"Sun, 20 Feb 2022 13:38:48 GMT\",\"content-type\":\"application/json; charset=utf-8\",\"transfer-encoding\":\"chunked\",\"connection\":\"keep-alive\",\"vary\":\"Accept-Encoding, Origin\",\"x-frame-options\":\"SAMEORIGIN\",\"x-xss-protection\":\"0\",\"x-content-type-options\":\"nosniff\",\"x-download-options\":\"noopen\",\"x-permitted-cross-domain-policies\":\"none\",\"referrer-policy\":\"strict-origin-when-cross-origin\",\"x-ratelimit-limit\":\"90\",\"x-ratelimit-remaining\":\"87\",\"x-ratelimit-reset\":\"3\",\"etag\":\"W/\\\"51d9e7a3ee803c3579ff193653ba49fb\\\"\",\"cache-control\":\"max-age=0, private, must-revalidate\",\"x-request-id\":\"f3ad4fe2-edd8-4d98-8346-e6ce17a880f8\",\"x-runtime\":\"0.029194\",\"strict-transport-security\":\"max-age=63072000; includeSubDomains\",\"content-encoding\":\"gzip\"},\"Response Status\":200}]}","stop":1645364329072}],"attachments":[],"parameters":[],"start":1645364328789,"name":"Then User Validates Get Call","stop":1645364329077},{"status":"passed","statusDetails":{},"stage":"finished","steps":[{"status":"passed","statusDetails":{},"stage":"finished","steps":[],"attachments":[],"parameters":[],"start":1645364329078,"name":"log Put Method","stop":1645364329081}],"attachments":[],"parameters":[],"start":1645364329077,"name":"Then User Validates Put Call","stop":1645364329085},{"status":"passed","statusDetails":{},"stage":"finished","steps":[{"status":"passed","statusDetails":{},"stage":"finished","steps":[],"attachments":[],"parameters":[],"start":1645364329085,"name":"log Delete Method","stop":1645364329089}],"attachments":[],"parameters":[],"start":1645364329085,"name":"Then User Validates Delete Call","stop":1645364329090},{"status":"passed","statusDetails":{},"stage":"finished","steps":[],"attachments":[],"parameters":[],"start":1645364329114,"name":"\"after each\" hook","stop":1645364329116}],"attachments":[{"name":"video recording","type":"video/mp4","source":"d82e393a-b826-41ec-9b2f-ca03199d9f4e-attachment.mp4"}],"parameters":[],"labels":[{"name":"suite","value":"API"},{"name":"feature","value":"Test E2E"},{"name":"tag","value":"Regression"}],"links":[],"start":1645364328466,"name":"TC002:Validate API Test","fullName":"TC002:Validate API Test","stop":1645364329091}