{"uuid":"afa331b3-7178-4e13-95aa-2a53967a1295","historyId":"c794df0de679a908cebc0733ea684a45","status":"passed","statusDetails":{},"stage":"finished","steps":[{"status":"passed","statusDetails":{},"stage":"finished","steps":[],"attachments":[],"parameters":[],"start":1645460777930,"name":"\"before each\" hook","stop":1645460777931},{"status":"passed","statusDetails":{},"stage":"finished","steps":[{"status":"passed","statusDetails":{},"stage":"finished","steps":[],"attachments":[],"parameters":[],"start":1645460777946,"name":"log https://gorest.co.in/public/v1/users","stop":1645460777950},{"status":"passed","statusDetails":{},"stage":"finished","steps":[],"attachments":[],"parameters":[],"start":1645460777951,"name":"POST 201 https://gorest.co.in/public/v1/users","stop":1645460779165},{"status":"passed","statusDetails":{},"stage":"finished","steps":[],"attachments":[],"parameters":[],"start":1645460779172,"name":"log {\"body\":{\"meta\":null,\"data\":{\"id\":5529,\"name\":\"tqLzWFIHZN\",\"email\":\"0eAfVj5GlD@gmail.com\",\"gender\":\"male\",\"status\":\"active\"}},\"headers\":{\"server\":\"nginx\",\"date\":\"Mon, 21 Feb 2022 16:26:19 GMT\",\"content-type\":\"application/json; charset=utf-8\",\"transfer-encoding\":\"chunked\",\"connection\":\"keep-alive\",\"x-frame-options\":\"SAMEORIGIN\",\"x-xss-protection\":\"0\",\"x-content-type-options\":\"nosniff\",\"x-download-options\":\"noopen\",\"x-permitted-cross-domain-policies\":\"none\",\"referrer-policy\":\"strict-origin-when-cross-origin\",\"x-ratelimit-limit\":\"90\",\"x-ratelimit-remaining\":\"88\",\"x-ratelimit-reset\":\"1\",\"location\":\"https://gorest.co.in/public/v1/users/5529\",\"etag\":\"W/\\\"8f9437e1b7f8276dc602ffb5a6daece6\\\"\",\"cache-control\":\"max-age=0, private, must-revalidate\",\"x-request-id\":\"ac2b32a4-3906-4518-a92a-d143d7561b3b\",\"x-runtime\":\"0.021563\",\"strict-transport-security\":\"max-age=63072000; includeSubDomains\",\"vary\":\"Origin\"},\"status\":201,\"statusText\":\"Created\",\"isOkStatusCode\":true,\"requestHeaders\":{\"Connection\":\"keep-alive\",\"authorization\":\"Bearer 4b4c8f088b43abd2c4328d13f40228324cda0ef0b05a86faaacb6fbd31a3124d\",\"user-agent\":\"Mozilla/5.0 (X11; Linux x86_64) AppleWebKit/537.36 (KHTML, like Gecko) HeadlessChrome/98.0.4758.80 Safari/537.36\",\"accept\":\"*/*\",\"accept-encoding\":\"gzip, deflate\",\"content-type\":\"application/json\",\"content-length\":86},\"requestBody\":\"{\\\"name\\\":\\\"tqLzWFIHZN\\\",\\\"email\\\":\\\"0eAfVj5GlD@gmail.com\\\",\\\"gender\\\":\\\"Male\\\",\\\"status\\\":\\\"Active\\\"}\",\"duration\":1192,\"allRequestResponses\":[{\"Request Body\":\"{\\\"name\\\":\\\"tqLzWFIHZN\\\",\\\"email\\\":\\\"0eAfVj5GlD@gmail.com\\\",\\\"gender\\\":\\\"Male\\\",\\\"status\\\":\\\"Active\\\"}\",\"Request Headers\":{\"Connection\":\"keep-alive\",\"authorization\":\"Bearer 4b4c8f088b43abd2c4328d13f40228324cda0ef0b05a86faaacb6fbd31a3124d\",\"user-agent\":\"Mozilla/5.0 (X11; Linux x86_64) AppleWebKit/537.36 (KHTML, like Gecko) HeadlessChrome/98.0.4758.80 Safari/537.36\",\"accept\":\"*/*\",\"accept-encoding\":\"gzip, deflate\",\"content-type\":\"application/json\",\"content-length\":86},\"Request URL\":\"https://gorest.co.in/public/v1/users\",\"Response Body\":{\"meta\":null,\"data\":{\"id\":5529,\"name\":\"tqLzWFIHZN\",\"email\":\"0eAfVj5GlD@gmail.com\",\"gender\":\"male\",\"status\":\"active\"}},\"Response Headers\":{\"server\":\"nginx\",\"date\":\"Mon, 21 Feb 2022 16:26:19 GMT\",\"content-type\":\"application/json; charset=utf-8\",\"transfer-encoding\":\"chunked\",\"connection\":\"keep-alive\",\"x-frame-options\":\"SAMEORIGIN\",\"x-xss-protection\":\"0\",\"x-content-type-options\":\"nosniff\",\"x-download-options\":\"noopen\",\"x-permitted-cross-domain-policies\":\"none\",\"referrer-policy\":\"strict-origin-when-cross-origin\",\"x-ratelimit-limit\":\"90\",\"x-ratelimit-remaining\":\"88\",\"x-ratelimit-reset\":\"1\",\"location\":\"https://gorest.co.in/public/v1/users/5529\",\"etag\":\"W/\\\"8f9437e1b7f8276dc602ffb5a6daece6\\\"\",\"cache-control\":\"max-age=0, private, must-revalidate\",\"x-request-id\":\"ac2b32a4-3906-4518-a92a-d143d7561b3b\",\"x-runtime\":\"0.021563\",\"strict-transport-security\":\"max-age=63072000; includeSubDomains\",\"vary\":\"Origin\"},\"Response Status\":201}]}","stop":1645460779177}],"attachments":[],"parameters":[],"start":1645460777945,"name":"Then User Validates Post Call","stop":1645460779180},{"status":"passed","statusDetails":{},"stage":"finished","steps":[{"status":"passed","statusDetails":{},"stage":"finished","steps":[],"attachments":[],"parameters":[],"start":1645460779181,"name":"GET 200 https://gorest.co.in/public/v1/users","stop":1645460779461},{"status":"passed","statusDetails":{},"stage":"finished","steps":[],"attachments":[],"parameters":[],"start":1645460779465,"name":"log {\"body\":{\"meta\":{\"pagination\":{\"total\":4053,\"pages\":203,\"page\":1,\"limit\":20,\"links\":{\"previous\":null,\"current\":\"https://gorest.co.in/public/v1/users?page=1\",\"next\":\"https://gorest.co.in/public/v1/users?page=2\"}}},\"data\":[{\"id\":5529,\"name\":\"tqLzWFIHZN\",\"email\":\"0eAfVj5GlD@gmail.com\",\"gender\":\"male\",\"status\":\"active\"},{\"id\":5528,\"name\":\"MLSejewxJY\",\"email\":\"7Inf71gcAp@gmail.com\",\"gender\":\"male\",\"status\":\"active\"},{\"id\":5527,\"name\":\"wdkzwxACQo\",\"email\":\"qubbaa56Jr@gmail.com\",\"gender\":\"male\",\"status\":\"active\"},{\"id\":5513,\"name\":\"mCTVlRKnrR\",\"email\":\"drCY3k12qT@gmail.com\",\"gender\":\"male\",\"status\":\"active\"},{\"id\":5512,\"name\":\"jqMHonUrKQ\",\"email\":\"PGZbt6qb6F@gmail.com\",\"gender\":\"male\",\"status\":\"active\"},{\"id\":5510,\"name\":\"VTSeyKeNtm\",\"email\":\"oXm9wh5Gwd@gmail.com\",\"gender\":\"male\",\"status\":\"active\"},{\"id\":5509,\"name\":\"ZHaNptcoHk\",\"email\":\"RpmJhSJyyN@gmail.com\",\"gender\":\"male\",\"status\":\"active\"},{\"id\":5508,\"name\":\"OgeqpsCukp\",\"email\":\"2pHDy6Scu7@gmail.com\",\"gender\":\"male\",\"status\":\"active\"},{\"id\":5507,\"name\":\"GuqnYWqYrZ\",\"email\":\"inZo8ludXX@gmail.com\",\"gender\":\"male\",\"status\":\"active\"},{\"id\":5506,\"name\":\"eTaEjrtYmk\",\"email\":\"qoU1nYeYMj@gmail.com\",\"gender\":\"male\",\"status\":\"active\"},{\"id\":5505,\"name\":\"QmZHlJuKOb\",\"email\":\"6D9flk8qzt@gmail.com\",\"gender\":\"male\",\"status\":\"active\"},{\"id\":5504,\"name\":\"HMrJocQEOt\",\"email\":\"ggC1Nha6uI@gmail.com\",\"gender\":\"male\",\"status\":\"active\"},{\"id\":5502,\"name\":\"WlmhkHbYAn\",\"email\":\"kZB26x4hAn@gmail.com\",\"gender\":\"male\",\"status\":\"active\"},{\"id\":5500,\"name\":\"ANAHdyvDIC\",\"email\":\"ASZTMASrfH@gmail.com\",\"gender\":\"male\",\"status\":\"active\"},{\"id\":5499,\"name\":\"pdUTxPLLhq\",\"email\":\"J5DlXeH5ue@gmail.com\",\"gender\":\"male\",\"status\":\"active\"},{\"id\":5498,\"name\":\"JMJgkknRPC\",\"email\":\"Z5KM96CO4w@gmail.com\",\"gender\":\"male\",\"status\":\"active\"},{\"id\":5497,\"name\":\"QyxWLGjPEa\",\"email\":\"51RqiqASjE@gmail.com\",\"gender\":\"male\",\"status\":\"active\"},{\"id\":5496,\"name\":\"NKRgSfKjvG\",\"email\":\"0GGZIxFAOW@gmail.com\",\"gender\":\"male\",\"status\":\"active\"},{\"id\":5488,\"name\":\"vdMofGItCN\",\"email\":\"Mgz0arFVaN@gmail.com\",\"gender\":\"male\",\"status\":\"active\"},{\"id\":5486,\"name\":\"VTRkPPyuSw\",\"email\":\"tTxe8MAPmq@gmail.com\",\"gender\":\"male\",\"status\":\"active\"}]},\"headers\":{\"server\":\"nginx\",\"date\":\"Mon, 21 Feb 2022 16:26:19 GMT\",\"content-type\":\"application/json; charset=utf-8\",\"transfer-encoding\":\"chunked\",\"connection\":\"keep-alive\",\"vary\":\"Accept-Encoding, Origin\",\"x-frame-options\":\"SAMEORIGIN\",\"x-xss-protection\":\"0\",\"x-content-type-options\":\"nosniff\",\"x-download-options\":\"noopen\",\"x-permitted-cross-domain-policies\":\"none\",\"referrer-policy\":\"strict-origin-when-cross-origin\",\"x-ratelimit-limit\":\"90\",\"x-ratelimit-remaining\":\"89\",\"x-ratelimit-reset\":\"2\",\"etag\":\"W/\\\"0941fe96e9df6462241df3af6b573ee8\\\"\",\"cache-control\":\"max-age=0, private, must-revalidate\",\"x-request-id\":\"9f55e185-a804-4ef9-a8a1-1dff73218cf6\",\"x-runtime\":\"0.037435\",\"strict-transport-security\":\"max-age=63072000; includeSubDomains\",\"content-encoding\":\"gzip\"},\"status\":200,\"statusText\":\"OK\",\"isOkStatusCode\":true,\"requestHeaders\":{\"Connection\":\"keep-alive\",\"authorization\":\"Bearer 4b4c8f088b43abd2c4328d13f40228324cda0ef0b05a86faaacb6fbd31a3124d\",\"user-agent\":\"Mozilla/5.0 (X11; Linux x86_64) AppleWebKit/537.36 (KHTML, like Gecko) HeadlessChrome/98.0.4758.80 Safari/537.36\",\"accept\":\"*/*\",\"accept-encoding\":\"gzip, deflate\"},\"duration\":273,\"allRequestResponses\":[{\"Request Body\":null,\"Request Headers\":{\"Connection\":\"keep-alive\",\"authorization\":\"Bearer 4b4c8f088b43abd2c4328d13f40228324cda0ef0b05a86faaacb6fbd31a3124d\",\"user-agent\":\"Mozilla/5.0 (X11; Linux x86_64) AppleWebKit/537.36 (KHTML, like Gecko) HeadlessChrome/98.0.4758.80 Safari/537.36\",\"accept\":\"*/*\",\"accept-encoding\":\"gzip, deflate\"},\"Request URL\":\"https://gorest.co.in/public/v1/users\",\"Response Body\":\"{\\\"meta\\\":{\\\"pagination\\\":{\\\"total\\\":4053,\\\"pages\\\":203,\\\"page\\\":1,\\\"limit\\\":20,\\\"links\\\":{\\\"previous\\\":null,\\\"current\\\":\\\"https://gorest.co.in/public/v1/users?page=1\\\",\\\"next\\\":\\\"https://gorest.co.in/public/v1/users?page=2\\\"}}},\\\"data\\\":[{\\\"id\\\":5529,\\\"name\\\":\\\"tqLzWFIHZN\\\",\\\"email\\\":\\\"0eAfVj5GlD@gmail.com\\\",\\\"gender\\\":\\\"male\\\",\\\"status\\\":\\\"active\\\"},{\\\"id\\\":5528,\\\"name\\\":\\\"MLSejewxJY\\\",\\\"email\\\":\\\"7Inf71gcAp@gmail.com\\\",\\\"gender\\\":\\\"male\\\",\\\"status\\\":\\\"active\\\"},{\\\"id\\\":5527,\\\"name\\\":\\\"wdkzwxACQo\\\",\\\"email\\\":\\\"qubbaa56Jr@gmail.com\\\",\\\"gender\\\":\\\"male\\\",\\\"status\\\":\\\"active\\\"},{\\\"id\\\":5513,\\\"name\\\":\\\"mCTVlRKnrR\\\",\\\"email\\\":\\\"drCY3k12qT@gmail.com\\\",\\\"gender\\\":\\\"male\\\",\\\"status\\\":\\\"active\\\"},{\\\"id\\\":5512,\\\"name\\\":\\\"jqMHonUrKQ\\\",\\\"email\\\":\\\"PGZbt6qb6F@gmail.com\\\",\\\"gender\\\":\\\"male\\\",\\\"status\\\":\\\"active\\\"},{\\\"id\\\":5510,\\\"name\\\":\\\"VTSeyKeNtm\\\",\\\"email\\\":\\\"oXm9wh5Gwd@gmail.com\\\",\\\"gender\\\":\\\"male\\\",\\\"status\\\":\\\"active\\\"},{\\\"id\\\":5509,\\\"name\\\":\\\"ZHaNptcoHk\\\",\\\"email\\\":\\\"RpmJhSJyyN@gmail.com\\\",\\\"gender\\\":\\\"male\\\",\\\"status\\\":\\\"active\\\"},{\\\"id\\\":5508,\\\"name\\\":\\\"OgeqpsCukp\\\",\\\"email\\\":\\\"2pHDy6Scu7@gmail.com\\\",\\\"gender\\\":\\\"male\\\",\\\"status\\\":\\\"active\\\"},{\\\"id\\\":5507,\\\"name\\\":\\\"GuqnYWqYrZ\\\",\\\"email\\\":\\\"inZo8ludXX@gmail.com\\\",\\\"gender\\\":\\\"male\\\",\\\"status\\\":\\\"active\\\"},{\\\"id\\\":5506,\\\"name\\\":\\\"eTaEjrtYmk\\\",\\\"email\\\":\\\"qoU1nYeYMj@gmail.com\\\",\\\"gender\\\":\\\"male\\\",\\\"status\\\":\\\"active\\\"},{\\\"id\\\":5505,\\\"name\\\":\\\"QmZHlJuKOb\\\",\\\"email\\\":\\\"6D9flk8qzt@gmail.com\\\",\\\"gender\\\":\\\"male\\\",\\\"status\\\":\\\"active\\\"},{\\\"id\\\":5504,\\\"name\\\":\\\"HMrJocQEOt\\\",\\\"email\\\":\\\"ggC1Nha6uI@gmail.com\\\",\\\"gender\\\":\\\"male\\\",\\\"status\\\":\\\"active\\\"},{\\\"id\\\":5502,\\\"name\\\":\\\"WlmhkHbYAn\\\",\\\"email\\\":\\\"kZB26x4hAn@gmail.com\\\",\\\"gender\\\":\\\"male\\\",\\\"status\\\":\\\"active\\\"},{\\\"id\\\":5500,\\\"name\\\":\\\"ANAHdyvDIC\\\",\\\"email\\\":\\\"ASZTMASrfH@gmail.com\\\",\\\"gender\\\":\\\"male\\\",\\\"status\\\":\\\"active\\\"},{\\\"id\\\":5499,\\\"name\\\":\\\"pdUTxPLLhq\\\",\\\"email\\\":\\\"J5DlXeH5ue@gmail.com\\\",\\\"gender\\\":\\\"male\\\",\\\"status\\\":\\\"active\\\"},{\\\"id\\\":5498,\\\"name\\\":\\\"JMJgkknRPC\\\",\\\"email\\\":\\\"Z5KM96CO4w@gmail.com\\\",\\\"gender\\\":\\\"male\\\",\\\"status\\\":\\\"active\\\"},{\\\"id\\\":5497,\\\"name\\\":\\\"QyxWLGjPEa\\\",\\\"email\\\":\\\"51RqiqASjE@gmail.com\\\",\\\"gender\\\":\\\"male\\\",\\\"status\\\":\\\"active\\\"},{\\\"id\\\":5496,\\\"name\\\":\\\"NKRgSfKjvG\\\",\\\"email\\\":\\\"0GGZIxFAOW@gmail.com\\\",\\\"gender\\\":\\\"male\\\",\\\"status\\\":\\\"active\\\"},{\\\"id\\\":5488,\\\"name\\\":\\\"vdMofGItCN\\\",\\\"email\\\":\\\"Mgz0arFVaN@gmail.com\\\",\\\"gender\\\":\\\"male\\\",\\\"status\\\":\\\"active\\\"},{\\\"id\\\":5486,\\\"name\\\":\\\"VTRkPPyuSw\\\",\\\"email\\\":\\\"tTxe8MAPmq@gmail.com\\\",\\\"gender\\\":\\\"male\\\",\\\"status\\\":\\\"active\\\"}]}\",\"Response Headers\":{\"server\":\"nginx\",\"date\":\"Mon, 21 Feb 2022 16:26:19 GMT\",\"content-type\":\"application/json; charset=utf-8\",\"transfer-encoding\":\"chunked\",\"connection\":\"keep-alive\",\"vary\":\"Accept-Encoding, Origin\",\"x-frame-options\":\"SAMEORIGIN\",\"x-xss-protection\":\"0\",\"x-content-type-options\":\"nosniff\",\"x-download-options\":\"noopen\",\"x-permitted-cross-domain-policies\":\"none\",\"referrer-policy\":\"strict-origin-when-cross-origin\",\"x-ratelimit-limit\":\"90\",\"x-ratelimit-remaining\":\"89\",\"x-ratelimit-reset\":\"2\",\"etag\":\"W/\\\"0941fe96e9df6462241df3af6b573ee8\\\"\",\"cache-control\":\"max-age=0, private, must-revalidate\",\"x-request-id\":\"9f55e185-a804-4ef9-a8a1-1dff73218cf6\",\"x-runtime\":\"0.037435\",\"strict-transport-security\":\"max-age=63072000; includeSubDomains\",\"content-encoding\":\"gzip\"},\"Response Status\":200}]}","stop":1645460779477}],"attachments":[],"parameters":[],"start":1645460779180,"name":"Then User Validates Get Call","stop":1645460779483},{"status":"passed","statusDetails":{},"stage":"finished","steps":[{"status":"passed","statusDetails":{},"stage":"finished","steps":[],"attachments":[],"parameters":[],"start":1645460779483,"name":"log Put Method","stop":1645460779486}],"attachments":[],"parameters":[],"start":1645460779483,"name":"Then User Validates Put Call","stop":1645460779495},{"status":"passed","statusDetails":{},"stage":"finished","steps":[{"status":"passed","statusDetails":{},"stage":"finished","steps":[],"attachments":[],"parameters":[],"start":1645460779495,"name":"log Delete Method","stop":1645460779497}],"attachments":[],"parameters":[],"start":1645460779495,"name":"Then User Validates Delete Call","stop":1645460779499},{"status":"passed","statusDetails":{},"stage":"finished","steps":[],"attachments":[],"parameters":[],"start":1645460779526,"name":"\"after each\" hook","stop":1645460779527}],"attachments":[{"name":"video recording","type":"video/mp4","source":"00f1bbe1-c1d4-4285-ad34-e6ac949ef6e3-attachment.mp4"}],"parameters":[],"labels":[{"name":"suite","value":"Test E2E"},{"name":"feature","value":"Test E2E"},{"name":"tag","value":"Smoke"}],"links":[],"start":1645460777925,"name":"TC004:Validate API Test","fullName":"TC004:Validate API Test","stop":1645460779500}