{"uuid":"b9052a53-3740-409c-8513-064eb369ebef","historyId":"a1430cd4396ea6d56fa0213f6fd58bff","status":"passed","statusDetails":{},"stage":"finished","steps":[{"status":"passed","statusDetails":{},"stage":"finished","steps":[],"attachments":[],"parameters":[],"start":1642931864993,"name":"\"before each\" hook","stop":1642931864994},{"status":"passed","statusDetails":{},"stage":"finished","steps":[{"status":"passed","statusDetails":{},"stage":"finished","steps":[],"attachments":[],"parameters":[],"start":1642931865008,"name":"log https://gorest.co.in/public/v1/users","stop":1642931865012},{"status":"passed","statusDetails":{},"stage":"finished","steps":[],"attachments":[],"parameters":[],"start":1642931865013,"name":"POST 201 https://gorest.co.in/public/v1/users","stop":1642931866038},{"status":"passed","statusDetails":{},"stage":"finished","steps":[],"attachments":[],"parameters":[],"start":1642931866049,"name":"log {\"body\":{\"meta\":null,\"data\":{\"id\":2662,\"name\":\"MevoNuGoAy\",\"email\":\"9ahi9mcr8r@gmail.com\",\"gender\":\"male\",\"status\":\"active\"}},\"headers\":{\"server\":\"nginx\",\"date\":\"Sun, 23 Jan 2022 10:00:14 GMT\",\"content-type\":\"application/json; charset=utf-8\",\"transfer-encoding\":\"chunked\",\"connection\":\"keep-alive\",\"x-frame-options\":\"SAMEORIGIN\",\"x-xss-protection\":\"0\",\"x-content-type-options\":\"nosniff\",\"x-download-options\":\"noopen\",\"x-permitted-cross-domain-policies\":\"none\",\"referrer-policy\":\"strict-origin-when-cross-origin\",\"x-ratelimit-limit\":\"90\",\"x-ratelimit-remaining\":\"88\",\"x-ratelimit-reset\":\"1\",\"location\":\"https://gorest.co.in/public/v1/users/2662\",\"etag\":\"W/\\\"ec52138e6db8faa4090379e4ad2dede8\\\"\",\"cache-control\":\"max-age=0, private, must-revalidate\",\"x-request-id\":\"372702bb-e7ae-41a3-b4e0-a27eabab2851\",\"x-runtime\":\"0.030327\",\"vary\":\"Origin\"},\"status\":201,\"statusText\":\"Created\",\"isOkStatusCode\":true,\"requestHeaders\":{\"Connection\":\"keep-alive\",\"authorization\":\"Bearer 4b4c8f088b43abd2c4328d13f40228324cda0ef0b05a86faaacb6fbd31a3124d\",\"user-agent\":\"Mozilla/5.0 (Windows NT 10.0; Win64; x64) AppleWebKit/537.36 (KHTML, like Gecko) Cypress/9.3.1 Chrome/94.0.4606.81 Electron/15.3.4 Safari/537.36\",\"accept\":\"*/*\",\"accept-encoding\":\"gzip, deflate\",\"content-type\":\"application/json\",\"content-length\":86},\"requestBody\":\"{\\\"name\\\":\\\"MevoNuGoAy\\\",\\\"email\\\":\\\"9ahi9mcr8r@gmail.com\\\",\\\"gender\\\":\\\"Male\\\",\\\"status\\\":\\\"Active\\\"}\",\"duration\":999,\"allRequestResponses\":[{\"Request Body\":\"{\\\"name\\\":\\\"MevoNuGoAy\\\",\\\"email\\\":\\\"9ahi9mcr8r@gmail.com\\\",\\\"gender\\\":\\\"Male\\\",\\\"status\\\":\\\"Active\\\"}\",\"Request Headers\":{\"Connection\":\"keep-alive\",\"authorization\":\"Bearer 4b4c8f088b43abd2c4328d13f40228324cda0ef0b05a86faaacb6fbd31a3124d\",\"user-agent\":\"Mozilla/5.0 (Windows NT 10.0; Win64; x64) AppleWebKit/537.36 (KHTML, like Gecko) Cypress/9.3.1 Chrome/94.0.4606.81 Electron/15.3.4 Safari/537.36\",\"accept\":\"*/*\",\"accept-encoding\":\"gzip, deflate\",\"content-type\":\"application/json\",\"content-length\":86},\"Request URL\":\"https://gorest.co.in/public/v1/users\",\"Response Body\":{\"meta\":null,\"data\":{\"id\":2662,\"name\":\"MevoNuGoAy\",\"email\":\"9ahi9mcr8r@gmail.com\",\"gender\":\"male\",\"status\":\"active\"}},\"Response Headers\":{\"server\":\"nginx\",\"date\":\"Sun, 23 Jan 2022 10:00:14 GMT\",\"content-type\":\"application/json; charset=utf-8\",\"transfer-encoding\":\"chunked\",\"connection\":\"keep-alive\",\"x-frame-options\":\"SAMEORIGIN\",\"x-xss-protection\":\"0\",\"x-content-type-options\":\"nosniff\",\"x-download-options\":\"noopen\",\"x-permitted-cross-domain-policies\":\"none\",\"referrer-policy\":\"strict-origin-when-cross-origin\",\"x-ratelimit-limit\":\"90\",\"x-ratelimit-remaining\":\"88\",\"x-ratelimit-reset\":\"1\",\"location\":\"https://gorest.co.in/public/v1/users/2662\",\"etag\":\"W/\\\"ec52138e6db8faa4090379e4ad2dede8\\\"\",\"cache-control\":\"max-age=0, private, must-revalidate\",\"x-request-id\":\"372702bb-e7ae-41a3-b4e0-a27eabab2851\",\"x-runtime\":\"0.030327\",\"vary\":\"Origin\"},\"Response Status\":201}]}","stop":1642931866060}],"attachments":[],"parameters":[],"start":1642931865007,"name":"Then User Validates Post Call","stop":1642931866069},{"status":"passed","statusDetails":{},"stage":"finished","steps":[{"status":"passed","statusDetails":{},"stage":"finished","steps":[],"attachments":[],"parameters":[],"start":1642931866070,"name":"GET 200 https://gorest.co.in/public/v1/users","stop":1642931866209},{"status":"passed","statusDetails":{},"stage":"finished","steps":[],"attachments":[],"parameters":[],"start":1642931866219,"name":"log {\"body\":{\"meta\":{\"pagination\":{\"total\":1890,\"pages\":95,\"page\":1,\"limit\":20,\"links\":{\"previous\":null,\"current\":\"https://gorest.co.in/public/v1/users?page=1\",\"next\":\"https://gorest.co.in/public/v1/users?page=2\"}}},\"data\":[{\"id\":2662,\"name\":\"MevoNuGoAy\",\"email\":\"9ahi9mcr8r@gmail.com\",\"gender\":\"male\",\"status\":\"active\"},{\"id\":2657,\"name\":\"cMZMqhbBhf\",\"email\":\"tSLNdDhprF@gmail.com\",\"gender\":\"male\",\"status\":\"active\"},{\"id\":2649,\"name\":\"nhhZQUQWhH\",\"email\":\"mBtvdddDqB@gmail.com\",\"gender\":\"male\",\"status\":\"active\"},{\"id\":1920,\"name\":\"Mrs. Dandak Rana\",\"email\":\"dandak_mrs_rana@harvey-langworth.name\",\"gender\":\"male\",\"status\":\"active\"},{\"id\":1918,\"name\":\"Inder Singh\",\"email\":\"inder_singh@marquardt-gleason.io\",\"gender\":\"male\",\"status\":\"inactive\"},{\"id\":1917,\"name\":\"Kamla Chopra\",\"email\":\"kamla_chopra@pouros.info\",\"gender\":\"male\",\"status\":\"active\"},{\"id\":1916,\"name\":\"Gov. Dandak Achari\",\"email\":\"gov_dandak_achari@kemmer-kertzmann.org\",\"gender\":\"male\",\"status\":\"inactive\"},{\"id\":1915,\"name\":\"Tanirika Acharya\",\"email\":\"acharya_tanirika@parisian.name\",\"gender\":\"male\",\"status\":\"active\"},{\"id\":1914,\"name\":\"Sarvin Butt\",\"email\":\"sarvin_butt@kassulke.biz\",\"gender\":\"female\",\"status\":\"inactive\"},{\"id\":1913,\"name\":\"Geeta Singh\",\"email\":\"singh_geeta@carter-harvey.net\",\"gender\":\"male\",\"status\":\"active\"},{\"id\":1912,\"name\":\"Geetanjali Gowda\",\"email\":\"geetanjali_gowda@howell.net\",\"gender\":\"male\",\"status\":\"inactive\"},{\"id\":1911,\"name\":\"Madhuri Kakkar\",\"email\":\"kakkar_madhuri@wolff.biz\",\"gender\":\"female\",\"status\":\"active\"},{\"id\":1910,\"name\":\"Achyut Sharma\",\"email\":\"achyut_sharma@franecki-mcclure.biz\",\"gender\":\"female\",\"status\":\"inactive\"},{\"id\":1909,\"name\":\"Krishnadas Mehra\",\"email\":\"mehra_krishnadas@hansen.net\",\"gender\":\"female\",\"status\":\"active\"},{\"id\":1908,\"name\":\"Gov. Mani Johar\",\"email\":\"mani_gov_johar@hodkiewicz.biz\",\"gender\":\"male\",\"status\":\"inactive\"},{\"id\":1907,\"name\":\"Dhanadeepa Bharadwaj\",\"email\":\"bharadwaj_dhanadeepa@gibson.io\",\"gender\":\"male\",\"status\":\"active\"},{\"id\":1906,\"name\":\"Trilochan Bhattacharya DDS\",\"email\":\"bhattacharya_trilochan_dds@pollich-luettgen.com\",\"gender\":\"male\",\"status\":\"inactive\"},{\"id\":1905,\"name\":\"Amb. Vrinda Patel\",\"email\":\"amb_patel_vrinda@nicolas-gusikowski.info\",\"gender\":\"female\",\"status\":\"inactive\"},{\"id\":1904,\"name\":\"Kalyani Bhattacharya\",\"email\":\"bhattacharya_kalyani@schaefer-kshlerin.info\",\"gender\":\"male\",\"status\":\"active\"},{\"id\":1903,\"name\":\"Sukanya Embranthiri\",\"email\":\"sukanya_embranthiri@bernier.co\",\"gender\":\"male\",\"status\":\"active\"}]},\"headers\":{\"server\":\"nginx\",\"date\":\"Sun, 23 Jan 2022 10:00:14 GMT\",\"content-type\":\"application/json; charset=utf-8\",\"transfer-encoding\":\"chunked\",\"connection\":\"keep-alive\",\"vary\":\"Accept-Encoding, Origin\",\"x-frame-options\":\"SAMEORIGIN\",\"x-xss-protection\":\"0\",\"x-content-type-options\":\"nosniff\",\"x-download-options\":\"noopen\",\"x-permitted-cross-domain-policies\":\"none\",\"referrer-policy\":\"strict-origin-when-cross-origin\",\"x-ratelimit-limit\":\"90\",\"x-ratelimit-remaining\":\"89\",\"x-ratelimit-reset\":\"2\",\"etag\":\"W/\\\"7b38e270ebf724ab9717c9b165088535\\\"\",\"cache-control\":\"max-age=0, private, must-revalidate\",\"x-request-id\":\"38dbbbb6-dd70-42cf-a50f-892e38beda5e\",\"x-runtime\":\"0.029353\",\"content-encoding\":\"gzip\"},\"status\":200,\"statusText\":\"OK\",\"isOkStatusCode\":true,\"requestHeaders\":{\"Connection\":\"keep-alive\",\"authorization\":\"Bearer 4b4c8f088b43abd2c4328d13f40228324cda0ef0b05a86faaacb6fbd31a3124d\",\"user-agent\":\"Mozilla/5.0 (Windows NT 10.0; Win64; x64) AppleWebKit/537.36 (KHTML, like Gecko) Cypress/9.3.1 Chrome/94.0.4606.81 Electron/15.3.4 Safari/537.36\",\"accept\":\"*/*\",\"accept-encoding\":\"gzip, deflate\"},\"duration\":117,\"allRequestResponses\":[{\"Request Body\":null,\"Request Headers\":{\"Connection\":\"keep-alive\",\"authorization\":\"Bearer 4b4c8f088b43abd2c4328d13f40228324cda0ef0b05a86faaacb6fbd31a3124d\",\"user-agent\":\"Mozilla/5.0 (Windows NT 10.0; Win64; x64) AppleWebKit/537.36 (KHTML, like Gecko) Cypress/9.3.1 Chrome/94.0.4606.81 Electron/15.3.4 Safari/537.36\",\"accept\":\"*/*\",\"accept-encoding\":\"gzip, deflate\"},\"Request URL\":\"https://gorest.co.in/public/v1/users\",\"Response Body\":\"{\\\"meta\\\":{\\\"pagination\\\":{\\\"total\\\":1890,\\\"pages\\\":95,\\\"page\\\":1,\\\"limit\\\":20,\\\"links\\\":{\\\"previous\\\":null,\\\"current\\\":\\\"https://gorest.co.in/public/v1/users?page=1\\\",\\\"next\\\":\\\"https://gorest.co.in/public/v1/users?page=2\\\"}}},\\\"data\\\":[{\\\"id\\\":2662,\\\"name\\\":\\\"MevoNuGoAy\\\",\\\"email\\\":\\\"9ahi9mcr8r@gmail.com\\\",\\\"gender\\\":\\\"male\\\",\\\"status\\\":\\\"active\\\"},{\\\"id\\\":2657,\\\"name\\\":\\\"cMZMqhbBhf\\\",\\\"email\\\":\\\"tSLNdDhprF@gmail.com\\\",\\\"gender\\\":\\\"male\\\",\\\"status\\\":\\\"active\\\"},{\\\"id\\\":2649,\\\"name\\\":\\\"nhhZQUQWhH\\\",\\\"email\\\":\\\"mBtvdddDqB@gmail.com\\\",\\\"gender\\\":\\\"male\\\",\\\"status\\\":\\\"active\\\"},{\\\"id\\\":1920,\\\"name\\\":\\\"Mrs. Dandak Rana\\\",\\\"email\\\":\\\"dandak_mrs_rana@harvey-langworth.name\\\",\\\"gender\\\":\\\"male\\\",\\\"status\\\":\\\"active\\\"},{\\\"id\\\":1918,\\\"name\\\":\\\"Inder Singh\\\",\\\"email\\\":\\\"inder_singh@marquardt-gleason.io\\\",\\\"gender\\\":\\\"male\\\",\\\"status\\\":\\\"inactive\\\"},{\\\"id\\\":1917,\\\"name\\\":\\\"Kamla Chopra\\\",\\\"email\\\":\\\"kamla_chopra@pouros.info\\\",\\\"gender\\\":\\\"male\\\",\\\"status\\\":\\\"active\\\"},{\\\"id\\\":1916,\\\"name\\\":\\\"Gov. Dandak Achari\\\",\\\"email\\\":\\\"gov_dandak_achari@kemmer-kertzmann.org\\\",\\\"gender\\\":\\\"male\\\",\\\"status\\\":\\\"inactive\\\"},{\\\"id\\\":1915,\\\"name\\\":\\\"Tanirika Acharya\\\",\\\"email\\\":\\\"acharya_tanirika@parisian.name\\\",\\\"gender\\\":\\\"male\\\",\\\"status\\\":\\\"active\\\"},{\\\"id\\\":1914,\\\"name\\\":\\\"Sarvin Butt\\\",\\\"email\\\":\\\"sarvin_butt@kassulke.biz\\\",\\\"gender\\\":\\\"female\\\",\\\"status\\\":\\\"inactive\\\"},{\\\"id\\\":1913,\\\"name\\\":\\\"Geeta Singh\\\",\\\"email\\\":\\\"singh_geeta@carter-harvey.net\\\",\\\"gender\\\":\\\"male\\\",\\\"status\\\":\\\"active\\\"},{\\\"id\\\":1912,\\\"name\\\":\\\"Geetanjali Gowda\\\",\\\"email\\\":\\\"geetanjali_gowda@howell.net\\\",\\\"gender\\\":\\\"male\\\",\\\"status\\\":\\\"inactive\\\"},{\\\"id\\\":1911,\\\"name\\\":\\\"Madhuri Kakkar\\\",\\\"email\\\":\\\"kakkar_madhuri@wolff.biz\\\",\\\"gender\\\":\\\"female\\\",\\\"status\\\":\\\"active\\\"},{\\\"id\\\":1910,\\\"name\\\":\\\"Achyut Sharma\\\",\\\"email\\\":\\\"achyut_sharma@franecki-mcclure.biz\\\",\\\"gender\\\":\\\"female\\\",\\\"status\\\":\\\"inactive\\\"},{\\\"id\\\":1909,\\\"name\\\":\\\"Krishnadas Mehra\\\",\\\"email\\\":\\\"mehra_krishnadas@hansen.net\\\",\\\"gender\\\":\\\"female\\\",\\\"status\\\":\\\"active\\\"},{\\\"id\\\":1908,\\\"name\\\":\\\"Gov. Mani Johar\\\",\\\"email\\\":\\\"mani_gov_johar@hodkiewicz.biz\\\",\\\"gender\\\":\\\"male\\\",\\\"status\\\":\\\"inactive\\\"},{\\\"id\\\":1907,\\\"name\\\":\\\"Dhanadeepa Bharadwaj\\\",\\\"email\\\":\\\"bharadwaj_dhanadeepa@gibson.io\\\",\\\"gender\\\":\\\"male\\\",\\\"status\\\":\\\"active\\\"},{\\\"id\\\":1906,\\\"name\\\":\\\"Trilochan Bhattacharya DDS\\\",\\\"email\\\":\\\"bhattacharya_trilochan_dds@pollich-luettgen.com\\\",\\\"gender\\\":\\\"male\\\",\\\"status\\\":\\\"inactive\\\"},{\\\"id\\\":1905,\\\"name\\\":\\\"Amb. Vrinda Patel\\\",\\\"email\\\":\\\"amb_patel_vrinda@nicolas-gusikowski.info\\\",\\\"gender\\\":\\\"female\\\",\\\"status\\\":\\\"inactive\\\"},{\\\"id\\\":1904,\\\"name\\\":\\\"Kalyani Bhattacharya\\\",\\\"email\\\":\\\"bhattacharya_kalyani@schaefer-kshlerin.info\\\",\\\"gender\\\":\\\"male\\\",\\\"status\\\":\\\"active\\\"},{\\\"id\\\":1903,\\\"name\\\":\\\"Sukanya Embranthiri\\\",\\\"email\\\":\\\"sukanya_embranthiri@bernier.co\\\",\\\"gender\\\":\\\"male\\\",\\\"status\\\":\\\"active\\\"}]}\",\"Response Headers\":{\"server\":\"nginx\",\"date\":\"Sun, 23 Jan 2022 10:00:14 GMT\",\"content-type\":\"application/json; charset=utf-8\",\"transfer-encoding\":\"chunked\",\"connection\":\"keep-alive\",\"vary\":\"Accept-Encoding, Origin\",\"x-frame-options\":\"SAMEORIGIN\",\"x-xss-protection\":\"0\",\"x-content-type-options\":\"nosniff\",\"x-download-options\":\"noopen\",\"x-permitted-cross-domain-policies\":\"none\",\"referrer-policy\":\"strict-origin-when-cross-origin\",\"x-ratelimit-limit\":\"90\",\"x-ratelimit-remaining\":\"89\",\"x-ratelimit-reset\":\"2\",\"etag\":\"W/\\\"7b38e270ebf724ab9717c9b165088535\\\"\",\"cache-control\":\"max-age=0, private, must-revalidate\",\"x-request-id\":\"38dbbbb6-dd70-42cf-a50f-892e38beda5e\",\"x-runtime\":\"0.029353\",\"content-encoding\":\"gzip\"},\"Response Status\":200}]}","stop":1642931866239}],"attachments":[],"parameters":[],"start":1642931866069,"name":"Then User Validates Get Call","stop":1642931866260},{"status":"passed","statusDetails":{},"stage":"finished","steps":[{"status":"passed","statusDetails":{},"stage":"finished","steps":[],"attachments":[],"parameters":[],"start":1642931866261,"name":"log Put Method","stop":1642931866267}],"attachments":[],"parameters":[],"start":1642931866260,"name":"Then User Validates Put Call","stop":1642931866274},{"status":"passed","statusDetails":{},"stage":"finished","steps":[{"status":"passed","statusDetails":{},"stage":"finished","steps":[],"attachments":[],"parameters":[],"start":1642931866275,"name":"log Delete Method","stop":1642931866279}],"attachments":[],"parameters":[],"start":1642931866274,"name":"Then User Validates Delete Call","stop":1642931866281},{"status":"passed","statusDetails":{},"stage":"finished","steps":[],"attachments":[],"parameters":[],"start":1642931866309,"name":"\"after each\" hook","stop":1642931866310}],"attachments":[{"name":"video recording","type":"video/mp4","source":"00fa8725-da35-48c0-ba67-f0001d162960-attachment.mp4"}],"parameters":[],"labels":[{"name":"suite","value":"API"},{"name":"feature","value":"Test E2E"},{"name":"tag","value":"Regression"}],"links":[],"start":1642931864991,"name":"TC001:Validate API Test","fullName":"TC001:Validate API Test","stop":1642931866283}