{"uuid":"c0673fc2-916d-4980-b223-3ee5e565dd96","historyId":"f33da67a3de8eeca43913d49b621a687","status":"passed","statusDetails":{},"stage":"finished","steps":[{"status":"passed","statusDetails":{},"stage":"finished","steps":[],"attachments":[],"parameters":[],"start":1645362735377,"name":"\"before each\" hook","stop":1645362735377},{"status":"passed","statusDetails":{},"stage":"finished","steps":[{"status":"passed","statusDetails":{},"stage":"finished","steps":[],"attachments":[],"parameters":[],"start":1645362735394,"name":"log https://gorest.co.in/public/v1/users","stop":1645362735399},{"status":"passed","statusDetails":{},"stage":"finished","steps":[],"attachments":[],"parameters":[],"start":1645362735400,"name":"POST 201 https://gorest.co.in/public/v1/users","stop":1645362735680},{"status":"passed","statusDetails":{},"stage":"finished","steps":[],"attachments":[],"parameters":[],"start":1645362735688,"name":"log {\"body\":{\"meta\":null,\"data\":{\"id\":4033,\"name\":\"kVPsbiSPzn\",\"email\":\"C08iyoGpgC@gmail.com\",\"gender\":\"male\",\"status\":\"active\"}},\"headers\":{\"server\":\"nginx\",\"date\":\"Sun, 20 Feb 2022 13:12:15 GMT\",\"content-type\":\"application/json; charset=utf-8\",\"transfer-encoding\":\"chunked\",\"connection\":\"keep-alive\",\"x-frame-options\":\"SAMEORIGIN\",\"x-xss-protection\":\"0\",\"x-content-type-options\":\"nosniff\",\"x-download-options\":\"noopen\",\"x-permitted-cross-domain-policies\":\"none\",\"referrer-policy\":\"strict-origin-when-cross-origin\",\"x-ratelimit-limit\":\"90\",\"x-ratelimit-remaining\":\"88\",\"x-ratelimit-reset\":\"1\",\"location\":\"https://gorest.co.in/public/v1/users/4033\",\"etag\":\"W/\\\"fac595e0812eee06179cf21ddfa3ecdc\\\"\",\"cache-control\":\"max-age=0, private, must-revalidate\",\"x-request-id\":\"a8d64082-684f-4fd1-bd8c-ba3c4e7aad7f\",\"x-runtime\":\"0.026704\",\"strict-transport-security\":\"max-age=63072000; includeSubDomains\",\"vary\":\"Origin\"},\"status\":201,\"statusText\":\"Created\",\"isOkStatusCode\":true,\"requestHeaders\":{\"Connection\":\"keep-alive\",\"authorization\":\"Bearer 4b4c8f088b43abd2c4328d13f40228324cda0ef0b05a86faaacb6fbd31a3124d\",\"user-agent\":\"Mozilla/5.0 (X11; Linux x86_64) AppleWebKit/537.36 (KHTML, like Gecko) Chrome/86.0.4240.193 Safari/537.36\",\"accept\":\"*/*\",\"accept-encoding\":\"gzip, deflate\",\"content-type\":\"application/json\",\"content-length\":86},\"requestBody\":\"{\\\"name\\\":\\\"kVPsbiSPzn\\\",\\\"email\\\":\\\"C08iyoGpgC@gmail.com\\\",\\\"gender\\\":\\\"Male\\\",\\\"status\\\":\\\"Active\\\"}\",\"duration\":255,\"allRequestResponses\":[{\"Request Body\":\"{\\\"name\\\":\\\"kVPsbiSPzn\\\",\\\"email\\\":\\\"C08iyoGpgC@gmail.com\\\",\\\"gender\\\":\\\"Male\\\",\\\"status\\\":\\\"Active\\\"}\",\"Request Headers\":{\"Connection\":\"keep-alive\",\"authorization\":\"Bearer 4b4c8f088b43abd2c4328d13f40228324cda0ef0b05a86faaacb6fbd31a3124d\",\"user-agent\":\"Mozilla/5.0 (X11; Linux x86_64) AppleWebKit/537.36 (KHTML, like Gecko) Chrome/86.0.4240.193 Safari/537.36\",\"accept\":\"*/*\",\"accept-encoding\":\"gzip, deflate\",\"content-type\":\"application/json\",\"content-length\":86},\"Request URL\":\"https://gorest.co.in/public/v1/users\",\"Response Body\":{\"meta\":null,\"data\":{\"id\":4033,\"name\":\"kVPsbiSPzn\",\"email\":\"C08iyoGpgC@gmail.com\",\"gender\":\"male\",\"status\":\"active\"}},\"Response Headers\":{\"server\":\"nginx\",\"date\":\"Sun, 20 Feb 2022 13:12:15 GMT\",\"content-type\":\"application/json; charset=utf-8\",\"transfer-encoding\":\"chunked\",\"connection\":\"keep-alive\",\"x-frame-options\":\"SAMEORIGIN\",\"x-xss-protection\":\"0\",\"x-content-type-options\":\"nosniff\",\"x-download-options\":\"noopen\",\"x-permitted-cross-domain-policies\":\"none\",\"referrer-policy\":\"strict-origin-when-cross-origin\",\"x-ratelimit-limit\":\"90\",\"x-ratelimit-remaining\":\"88\",\"x-ratelimit-reset\":\"1\",\"location\":\"https://gorest.co.in/public/v1/users/4033\",\"etag\":\"W/\\\"fac595e0812eee06179cf21ddfa3ecdc\\\"\",\"cache-control\":\"max-age=0, private, must-revalidate\",\"x-request-id\":\"a8d64082-684f-4fd1-bd8c-ba3c4e7aad7f\",\"x-runtime\":\"0.026704\",\"strict-transport-security\":\"max-age=63072000; includeSubDomains\",\"vary\":\"Origin\"},\"Response Status\":201}]}","stop":1645362735695}],"attachments":[],"parameters":[],"start":1645362735393,"name":"Then User Validates Post Call","stop":1645362735699},{"status":"passed","statusDetails":{},"stage":"finished","steps":[{"status":"passed","statusDetails":{},"stage":"finished","steps":[],"attachments":[],"parameters":[],"start":1645362735700,"name":"GET 200 https://gorest.co.in/public/v1/users","stop":1645362735972},{"status":"passed","statusDetails":{},"stage":"finished","steps":[],"attachments":[],"parameters":[],"start":1645362735979,"name":"log {\"body\":{\"meta\":{\"pagination\":{\"total\":3458,\"pages\":173,\"page\":1,\"limit\":20,\"links\":{\"previous\":null,\"current\":\"https://gorest.co.in/public/v1/users?page=1\",\"next\":\"https://gorest.co.in/public/v1/users?page=2\"}}},\"data\":[{\"id\":4033,\"name\":\"kVPsbiSPzn\",\"email\":\"C08iyoGpgC@gmail.com\",\"gender\":\"male\",\"status\":\"active\"},{\"id\":4032,\"name\":\"KLgotYLrWC\",\"email\":\"Wp9lIB6UUD@gmail.com\",\"gender\":\"male\",\"status\":\"active\"},{\"id\":4024,\"name\":\"aiMZxNuxvI\",\"email\":\"aV64BoKbfj@gmail.com\",\"gender\":\"male\",\"status\":\"active\"},{\"id\":4023,\"name\":\"hYwyOZRpYL\",\"email\":\"bzKKQPVbPa@gmail.com\",\"gender\":\"male\",\"status\":\"active\"},{\"id\":4022,\"name\":\"wOEgRtYTSF\",\"email\":\"t6tBZm1k2j@gmail.com\",\"gender\":\"male\",\"status\":\"active\"},{\"id\":4021,\"name\":\"ihXbsHMSUX\",\"email\":\"WMX8QWI1lE@gmail.com\",\"gender\":\"male\",\"status\":\"active\"},{\"id\":4018,\"name\":\"SPULXJgrAs\",\"email\":\"smlBoqfKtF@gmail.com\",\"gender\":\"male\",\"status\":\"active\"},{\"id\":4017,\"name\":\"tJABWUUxus\",\"email\":\"v8XmuMvV4V@gmail.com\",\"gender\":\"male\",\"status\":\"active\"},{\"id\":4016,\"name\":\"OCsXetXmJc\",\"email\":\"m6S39z5oNl@gmail.com\",\"gender\":\"male\",\"status\":\"active\"},{\"id\":4015,\"name\":\"PtmmogrmHE\",\"email\":\"l2NqiIMOkp@gmail.com\",\"gender\":\"male\",\"status\":\"active\"},{\"id\":4003,\"name\":\"KYbGyLIJkf\",\"email\":\"EVmcwgUmWh@gmail.com\",\"gender\":\"male\",\"status\":\"active\"},{\"id\":4002,\"name\":\"NXfHFtzQzL\",\"email\":\"rvLENDPyip@gmail.com\",\"gender\":\"male\",\"status\":\"active\"},{\"id\":4001,\"name\":\"pkJPyNRvBO\",\"email\":\"d2FRSKBqmF@gmail.com\",\"gender\":\"male\",\"status\":\"active\"},{\"id\":4000,\"name\":\"SEhiJztqKE\",\"email\":\"7v8y6gK763@gmail.com\",\"gender\":\"male\",\"status\":\"active\"},{\"id\":3994,\"name\":\"wNycvticPm\",\"email\":\"lqpQm44HRe@gmail.com\",\"gender\":\"male\",\"status\":\"active\"},{\"id\":3993,\"name\":\"xdLznNinnC\",\"email\":\"MMAtRoRVTy@gmail.com\",\"gender\":\"male\",\"status\":\"active\"},{\"id\":3992,\"name\":\"reQXqrUAzP\",\"email\":\"JKXpvJLjSD@gmail.com\",\"gender\":\"male\",\"status\":\"active\"},{\"id\":3991,\"name\":\"lictyxjACH\",\"email\":\"QNUKBeqTte@gmail.com\",\"gender\":\"male\",\"status\":\"active\"},{\"id\":3979,\"name\":\"SYQmnRconl\",\"email\":\"mXD662MQlm@gmail.com\",\"gender\":\"male\",\"status\":\"active\"},{\"id\":3978,\"name\":\"moxqrsypCG\",\"email\":\"3cSH0FrGrI@gmail.com\",\"gender\":\"male\",\"status\":\"active\"}]},\"headers\":{\"server\":\"nginx\",\"date\":\"Sun, 20 Feb 2022 13:12:15 GMT\",\"content-type\":\"application/json; charset=utf-8\",\"transfer-encoding\":\"chunked\",\"connection\":\"keep-alive\",\"vary\":\"Accept-Encoding, Origin\",\"x-frame-options\":\"SAMEORIGIN\",\"x-xss-protection\":\"0\",\"x-content-type-options\":\"nosniff\",\"x-download-options\":\"noopen\",\"x-permitted-cross-domain-policies\":\"none\",\"referrer-policy\":\"strict-origin-when-cross-origin\",\"x-ratelimit-limit\":\"90\",\"x-ratelimit-remaining\":\"89\",\"x-ratelimit-reset\":\"2\",\"etag\":\"W/\\\"44c28e9df89ebe6b30ed8f446fca2663\\\"\",\"cache-control\":\"max-age=0, private, must-revalidate\",\"x-request-id\":\"2753d938-5bea-4aec-9a55-ede0f3d5712a\",\"x-runtime\":\"0.031941\",\"strict-transport-security\":\"max-age=63072000; includeSubDomains\",\"content-encoding\":\"gzip\"},\"status\":200,\"statusText\":\"OK\",\"isOkStatusCode\":true,\"requestHeaders\":{\"Connection\":\"keep-alive\",\"authorization\":\"Bearer 4b4c8f088b43abd2c4328d13f40228324cda0ef0b05a86faaacb6fbd31a3124d\",\"user-agent\":\"Mozilla/5.0 (X11; Linux x86_64) AppleWebKit/537.36 (KHTML, like Gecko) Chrome/86.0.4240.193 Safari/537.36\",\"accept\":\"*/*\",\"accept-encoding\":\"gzip, deflate\"},\"duration\":264,\"allRequestResponses\":[{\"Request Body\":null,\"Request Headers\":{\"Connection\":\"keep-alive\",\"authorization\":\"Bearer 4b4c8f088b43abd2c4328d13f40228324cda0ef0b05a86faaacb6fbd31a3124d\",\"user-agent\":\"Mozilla/5.0 (X11; Linux x86_64) AppleWebKit/537.36 (KHTML, like Gecko) Chrome/86.0.4240.193 Safari/537.36\",\"accept\":\"*/*\",\"accept-encoding\":\"gzip, deflate\"},\"Request URL\":\"https://gorest.co.in/public/v1/users\",\"Response Body\":\"{\\\"meta\\\":{\\\"pagination\\\":{\\\"total\\\":3458,\\\"pages\\\":173,\\\"page\\\":1,\\\"limit\\\":20,\\\"links\\\":{\\\"previous\\\":null,\\\"current\\\":\\\"https://gorest.co.in/public/v1/users?page=1\\\",\\\"next\\\":\\\"https://gorest.co.in/public/v1/users?page=2\\\"}}},\\\"data\\\":[{\\\"id\\\":4033,\\\"name\\\":\\\"kVPsbiSPzn\\\",\\\"email\\\":\\\"C08iyoGpgC@gmail.com\\\",\\\"gender\\\":\\\"male\\\",\\\"status\\\":\\\"active\\\"},{\\\"id\\\":4032,\\\"name\\\":\\\"KLgotYLrWC\\\",\\\"email\\\":\\\"Wp9lIB6UUD@gmail.com\\\",\\\"gender\\\":\\\"male\\\",\\\"status\\\":\\\"active\\\"},{\\\"id\\\":4024,\\\"name\\\":\\\"aiMZxNuxvI\\\",\\\"email\\\":\\\"aV64BoKbfj@gmail.com\\\",\\\"gender\\\":\\\"male\\\",\\\"status\\\":\\\"active\\\"},{\\\"id\\\":4023,\\\"name\\\":\\\"hYwyOZRpYL\\\",\\\"email\\\":\\\"bzKKQPVbPa@gmail.com\\\",\\\"gender\\\":\\\"male\\\",\\\"status\\\":\\\"active\\\"},{\\\"id\\\":4022,\\\"name\\\":\\\"wOEgRtYTSF\\\",\\\"email\\\":\\\"t6tBZm1k2j@gmail.com\\\",\\\"gender\\\":\\\"male\\\",\\\"status\\\":\\\"active\\\"},{\\\"id\\\":4021,\\\"name\\\":\\\"ihXbsHMSUX\\\",\\\"email\\\":\\\"WMX8QWI1lE@gmail.com\\\",\\\"gender\\\":\\\"male\\\",\\\"status\\\":\\\"active\\\"},{\\\"id\\\":4018,\\\"name\\\":\\\"SPULXJgrAs\\\",\\\"email\\\":\\\"smlBoqfKtF@gmail.com\\\",\\\"gender\\\":\\\"male\\\",\\\"status\\\":\\\"active\\\"},{\\\"id\\\":4017,\\\"name\\\":\\\"tJABWUUxus\\\",\\\"email\\\":\\\"v8XmuMvV4V@gmail.com\\\",\\\"gender\\\":\\\"male\\\",\\\"status\\\":\\\"active\\\"},{\\\"id\\\":4016,\\\"name\\\":\\\"OCsXetXmJc\\\",\\\"email\\\":\\\"m6S39z5oNl@gmail.com\\\",\\\"gender\\\":\\\"male\\\",\\\"status\\\":\\\"active\\\"},{\\\"id\\\":4015,\\\"name\\\":\\\"PtmmogrmHE\\\",\\\"email\\\":\\\"l2NqiIMOkp@gmail.com\\\",\\\"gender\\\":\\\"male\\\",\\\"status\\\":\\\"active\\\"},{\\\"id\\\":4003,\\\"name\\\":\\\"KYbGyLIJkf\\\",\\\"email\\\":\\\"EVmcwgUmWh@gmail.com\\\",\\\"gender\\\":\\\"male\\\",\\\"status\\\":\\\"active\\\"},{\\\"id\\\":4002,\\\"name\\\":\\\"NXfHFtzQzL\\\",\\\"email\\\":\\\"rvLENDPyip@gmail.com\\\",\\\"gender\\\":\\\"male\\\",\\\"status\\\":\\\"active\\\"},{\\\"id\\\":4001,\\\"name\\\":\\\"pkJPyNRvBO\\\",\\\"email\\\":\\\"d2FRSKBqmF@gmail.com\\\",\\\"gender\\\":\\\"male\\\",\\\"status\\\":\\\"active\\\"},{\\\"id\\\":4000,\\\"name\\\":\\\"SEhiJztqKE\\\",\\\"email\\\":\\\"7v8y6gK763@gmail.com\\\",\\\"gender\\\":\\\"male\\\",\\\"status\\\":\\\"active\\\"},{\\\"id\\\":3994,\\\"name\\\":\\\"wNycvticPm\\\",\\\"email\\\":\\\"lqpQm44HRe@gmail.com\\\",\\\"gender\\\":\\\"male\\\",\\\"status\\\":\\\"active\\\"},{\\\"id\\\":3993,\\\"name\\\":\\\"xdLznNinnC\\\",\\\"email\\\":\\\"MMAtRoRVTy@gmail.com\\\",\\\"gender\\\":\\\"male\\\",\\\"status\\\":\\\"active\\\"},{\\\"id\\\":3992,\\\"name\\\":\\\"reQXqrUAzP\\\",\\\"email\\\":\\\"JKXpvJLjSD@gmail.com\\\",\\\"gender\\\":\\\"male\\\",\\\"status\\\":\\\"active\\\"},{\\\"id\\\":3991,\\\"name\\\":\\\"lictyxjACH\\\",\\\"email\\\":\\\"QNUKBeqTte@gmail.com\\\",\\\"gender\\\":\\\"male\\\",\\\"status\\\":\\\"active\\\"},{\\\"id\\\":3979,\\\"name\\\":\\\"SYQmnRconl\\\",\\\"email\\\":\\\"mXD662MQlm@gmail.com\\\",\\\"gender\\\":\\\"male\\\",\\\"status\\\":\\\"active\\\"},{\\\"id\\\":3978,\\\"name\\\":\\\"moxqrsypCG\\\",\\\"email\\\":\\\"3cSH0FrGrI@gmail.com\\\",\\\"gender\\\":\\\"male\\\",\\\"status\\\":\\\"active\\\"}]}\",\"Response Headers\":{\"server\":\"nginx\",\"date\":\"Sun, 20 Feb 2022 13:12:15 GMT\",\"content-type\":\"application/json; charset=utf-8\",\"transfer-encoding\":\"chunked\",\"connection\":\"keep-alive\",\"vary\":\"Accept-Encoding, Origin\",\"x-frame-options\":\"SAMEORIGIN\",\"x-xss-protection\":\"0\",\"x-content-type-options\":\"nosniff\",\"x-download-options\":\"noopen\",\"x-permitted-cross-domain-policies\":\"none\",\"referrer-policy\":\"strict-origin-when-cross-origin\",\"x-ratelimit-limit\":\"90\",\"x-ratelimit-remaining\":\"89\",\"x-ratelimit-reset\":\"2\",\"etag\":\"W/\\\"44c28e9df89ebe6b30ed8f446fca2663\\\"\",\"cache-control\":\"max-age=0, private, must-revalidate\",\"x-request-id\":\"2753d938-5bea-4aec-9a55-ede0f3d5712a\",\"x-runtime\":\"0.031941\",\"strict-transport-security\":\"max-age=63072000; includeSubDomains\",\"content-encoding\":\"gzip\"},\"Response Status\":200}]}","stop":1645362735992}],"attachments":[],"parameters":[],"start":1645362735699,"name":"Then User Validates Get Call","stop":1645362735996},{"status":"passed","statusDetails":{},"stage":"finished","steps":[{"status":"passed","statusDetails":{},"stage":"finished","steps":[],"attachments":[],"parameters":[],"start":1645362735997,"name":"log Put Method","stop":1645362736000}],"attachments":[],"parameters":[],"start":1645362735996,"name":"Then User Validates Put Call","stop":1645362736003},{"status":"passed","statusDetails":{},"stage":"finished","steps":[{"status":"passed","statusDetails":{},"stage":"finished","steps":[],"attachments":[],"parameters":[],"start":1645362736004,"name":"log Delete Method","stop":1645362736007}],"attachments":[],"parameters":[],"start":1645362736003,"name":"Then User Validates Delete Call","stop":1645362736008},{"status":"passed","statusDetails":{},"stage":"finished","steps":[],"attachments":[],"parameters":[],"start":1645362736032,"name":"\"after each\" hook","stop":1645362736035}],"attachments":[{"name":"video recording","type":"video/mp4","source":"6dae2786-bbb7-4915-86cd-fe5b8dc15208-attachment.mp4"}],"parameters":[],"labels":[{"name":"suite","value":"API"},{"name":"feature","value":"Test E2E"},{"name":"tag","value":"Regression"}],"links":[],"start":1645362735373,"name":"TC002:Validate API Test","fullName":"TC002:Validate API Test","stop":1645362736009}