{"uuid":"c7b571c6-fa04-4aed-9bef-6f5429cd6633","historyId":"214433e76a647f87328ff1cd0a6e87a0","status":"passed","statusDetails":{},"stage":"finished","steps":[{"status":"passed","statusDetails":{},"stage":"finished","steps":[],"attachments":[],"parameters":[],"start":1645361255032,"name":"\"before each\" hook","stop":1645361255033},{"status":"passed","statusDetails":{},"stage":"finished","steps":[{"status":"passed","statusDetails":{},"stage":"finished","steps":[],"attachments":[],"parameters":[],"start":1645361255055,"name":"log https://gorest.co.in/public/v1/users","stop":1645361255061},{"status":"passed","statusDetails":{},"stage":"finished","steps":[],"attachments":[],"parameters":[],"start":1645361255062,"name":"POST 201 https://gorest.co.in/public/v1/users","stop":1645361255366},{"status":"passed","statusDetails":{},"stage":"finished","steps":[],"attachments":[],"parameters":[],"start":1645361255374,"name":"log {\"body\":{\"meta\":null,\"data\":{\"id\":4023,\"name\":\"hYwyOZRpYL\",\"email\":\"bzKKQPVbPa@gmail.com\",\"gender\":\"male\",\"status\":\"active\"}},\"headers\":{\"server\":\"nginx\",\"date\":\"Sun, 20 Feb 2022 12:47:35 GMT\",\"content-type\":\"application/json; charset=utf-8\",\"transfer-encoding\":\"chunked\",\"connection\":\"keep-alive\",\"x-frame-options\":\"SAMEORIGIN\",\"x-xss-protection\":\"0\",\"x-content-type-options\":\"nosniff\",\"x-download-options\":\"noopen\",\"x-permitted-cross-domain-policies\":\"none\",\"referrer-policy\":\"strict-origin-when-cross-origin\",\"x-ratelimit-limit\":\"90\",\"x-ratelimit-remaining\":\"88\",\"x-ratelimit-reset\":\"1\",\"location\":\"https://gorest.co.in/public/v1/users/4023\",\"etag\":\"W/\\\"0a5ddf4b5d00bf405e5238b4307d2882\\\"\",\"cache-control\":\"max-age=0, private, must-revalidate\",\"x-request-id\":\"91299df8-fc19-43fe-adae-767baa914e9a\",\"x-runtime\":\"0.038417\",\"strict-transport-security\":\"max-age=63072000; includeSubDomains\",\"vary\":\"Origin\"},\"status\":201,\"statusText\":\"Created\",\"isOkStatusCode\":true,\"requestHeaders\":{\"Connection\":\"keep-alive\",\"authorization\":\"Bearer 4b4c8f088b43abd2c4328d13f40228324cda0ef0b05a86faaacb6fbd31a3124d\",\"user-agent\":\"Mozilla/5.0 (X11; Linux x86_64) AppleWebKit/537.36 (KHTML, like Gecko) Chrome/86.0.4240.193 Safari/537.36\",\"accept\":\"*/*\",\"accept-encoding\":\"gzip, deflate\",\"content-type\":\"application/json\",\"content-length\":86},\"requestBody\":\"{\\\"name\\\":\\\"hYwyOZRpYL\\\",\\\"email\\\":\\\"bzKKQPVbPa@gmail.com\\\",\\\"gender\\\":\\\"Male\\\",\\\"status\\\":\\\"Active\\\"}\",\"duration\":273,\"allRequestResponses\":[{\"Request Body\":\"{\\\"name\\\":\\\"hYwyOZRpYL\\\",\\\"email\\\":\\\"bzKKQPVbPa@gmail.com\\\",\\\"gender\\\":\\\"Male\\\",\\\"status\\\":\\\"Active\\\"}\",\"Request Headers\":{\"Connection\":\"keep-alive\",\"authorization\":\"Bearer 4b4c8f088b43abd2c4328d13f40228324cda0ef0b05a86faaacb6fbd31a3124d\",\"user-agent\":\"Mozilla/5.0 (X11; Linux x86_64) AppleWebKit/537.36 (KHTML, like Gecko) Chrome/86.0.4240.193 Safari/537.36\",\"accept\":\"*/*\",\"accept-encoding\":\"gzip, deflate\",\"content-type\":\"application/json\",\"content-length\":86},\"Request URL\":\"https://gorest.co.in/public/v1/users\",\"Response Body\":{\"meta\":null,\"data\":{\"id\":4023,\"name\":\"hYwyOZRpYL\",\"email\":\"bzKKQPVbPa@gmail.com\",\"gender\":\"male\",\"status\":\"active\"}},\"Response Headers\":{\"server\":\"nginx\",\"date\":\"Sun, 20 Feb 2022 12:47:35 GMT\",\"content-type\":\"application/json; charset=utf-8\",\"transfer-encoding\":\"chunked\",\"connection\":\"keep-alive\",\"x-frame-options\":\"SAMEORIGIN\",\"x-xss-protection\":\"0\",\"x-content-type-options\":\"nosniff\",\"x-download-options\":\"noopen\",\"x-permitted-cross-domain-policies\":\"none\",\"referrer-policy\":\"strict-origin-when-cross-origin\",\"x-ratelimit-limit\":\"90\",\"x-ratelimit-remaining\":\"88\",\"x-ratelimit-reset\":\"1\",\"location\":\"https://gorest.co.in/public/v1/users/4023\",\"etag\":\"W/\\\"0a5ddf4b5d00bf405e5238b4307d2882\\\"\",\"cache-control\":\"max-age=0, private, must-revalidate\",\"x-request-id\":\"91299df8-fc19-43fe-adae-767baa914e9a\",\"x-runtime\":\"0.038417\",\"strict-transport-security\":\"max-age=63072000; includeSubDomains\",\"vary\":\"Origin\"},\"Response Status\":201}]}","stop":1645361255381}],"attachments":[],"parameters":[],"start":1645361255054,"name":"Then User Validates Post Call","stop":1645361255385},{"status":"passed","statusDetails":{},"stage":"finished","steps":[{"status":"passed","statusDetails":{},"stage":"finished","steps":[],"attachments":[],"parameters":[],"start":1645361255386,"name":"GET 200 https://gorest.co.in/public/v1/users","stop":1645361255676},{"status":"passed","statusDetails":{},"stage":"finished","steps":[],"attachments":[],"parameters":[],"start":1645361255684,"name":"log {\"body\":{\"meta\":{\"pagination\":{\"total\":3455,\"pages\":173,\"page\":1,\"limit\":20,\"links\":{\"previous\":null,\"current\":\"https://gorest.co.in/public/v1/users?page=1\",\"next\":\"https://gorest.co.in/public/v1/users?page=2\"}}},\"data\":[{\"id\":4023,\"name\":\"hYwyOZRpYL\",\"email\":\"bzKKQPVbPa@gmail.com\",\"gender\":\"male\",\"status\":\"active\"},{\"id\":4022,\"name\":\"wOEgRtYTSF\",\"email\":\"t6tBZm1k2j@gmail.com\",\"gender\":\"male\",\"status\":\"active\"},{\"id\":4021,\"name\":\"ihXbsHMSUX\",\"email\":\"WMX8QWI1lE@gmail.com\",\"gender\":\"male\",\"status\":\"active\"},{\"id\":4018,\"name\":\"SPULXJgrAs\",\"email\":\"smlBoqfKtF@gmail.com\",\"gender\":\"male\",\"status\":\"active\"},{\"id\":4017,\"name\":\"tJABWUUxus\",\"email\":\"v8XmuMvV4V@gmail.com\",\"gender\":\"male\",\"status\":\"active\"},{\"id\":4016,\"name\":\"OCsXetXmJc\",\"email\":\"m6S39z5oNl@gmail.com\",\"gender\":\"male\",\"status\":\"active\"},{\"id\":4015,\"name\":\"PtmmogrmHE\",\"email\":\"l2NqiIMOkp@gmail.com\",\"gender\":\"male\",\"status\":\"active\"},{\"id\":4003,\"name\":\"KYbGyLIJkf\",\"email\":\"EVmcwgUmWh@gmail.com\",\"gender\":\"male\",\"status\":\"active\"},{\"id\":4002,\"name\":\"NXfHFtzQzL\",\"email\":\"rvLENDPyip@gmail.com\",\"gender\":\"male\",\"status\":\"active\"},{\"id\":4001,\"name\":\"pkJPyNRvBO\",\"email\":\"d2FRSKBqmF@gmail.com\",\"gender\":\"male\",\"status\":\"active\"},{\"id\":4000,\"name\":\"SEhiJztqKE\",\"email\":\"7v8y6gK763@gmail.com\",\"gender\":\"male\",\"status\":\"active\"},{\"id\":3994,\"name\":\"wNycvticPm\",\"email\":\"lqpQm44HRe@gmail.com\",\"gender\":\"male\",\"status\":\"active\"},{\"id\":3993,\"name\":\"xdLznNinnC\",\"email\":\"MMAtRoRVTy@gmail.com\",\"gender\":\"male\",\"status\":\"active\"},{\"id\":3992,\"name\":\"reQXqrUAzP\",\"email\":\"JKXpvJLjSD@gmail.com\",\"gender\":\"male\",\"status\":\"active\"},{\"id\":3991,\"name\":\"lictyxjACH\",\"email\":\"QNUKBeqTte@gmail.com\",\"gender\":\"male\",\"status\":\"active\"},{\"id\":3979,\"name\":\"SYQmnRconl\",\"email\":\"mXD662MQlm@gmail.com\",\"gender\":\"male\",\"status\":\"active\"},{\"id\":3978,\"name\":\"moxqrsypCG\",\"email\":\"3cSH0FrGrI@gmail.com\",\"gender\":\"male\",\"status\":\"active\"},{\"id\":3977,\"name\":\"EkfTBkaBGQ\",\"email\":\"EaOPQTssjU@gmail.com\",\"gender\":\"male\",\"status\":\"active\"},{\"id\":3976,\"name\":\"iMxGQkCkgh\",\"email\":\"VJw3fixYuJ@gmail.com\",\"gender\":\"male\",\"status\":\"active\"},{\"id\":3972,\"name\":\"jWWBLIEUEC\",\"email\":\"EtjTIpolb6@gmail.com\",\"gender\":\"male\",\"status\":\"active\"}]},\"headers\":{\"server\":\"nginx\",\"date\":\"Sun, 20 Feb 2022 12:47:35 GMT\",\"content-type\":\"application/json; charset=utf-8\",\"transfer-encoding\":\"chunked\",\"connection\":\"keep-alive\",\"vary\":\"Accept-Encoding, Origin\",\"x-frame-options\":\"SAMEORIGIN\",\"x-xss-protection\":\"0\",\"x-content-type-options\":\"nosniff\",\"x-download-options\":\"noopen\",\"x-permitted-cross-domain-policies\":\"none\",\"referrer-policy\":\"strict-origin-when-cross-origin\",\"x-ratelimit-limit\":\"90\",\"x-ratelimit-remaining\":\"89\",\"x-ratelimit-reset\":\"2\",\"etag\":\"W/\\\"2042d35203b4bf668825d19d5882d084\\\"\",\"cache-control\":\"max-age=0, private, must-revalidate\",\"x-request-id\":\"0cf9e714-907d-4bc1-aa66-47bd9941cb53\",\"x-runtime\":\"0.044160\",\"strict-transport-security\":\"max-age=63072000; includeSubDomains\",\"content-encoding\":\"gzip\"},\"status\":200,\"statusText\":\"OK\",\"isOkStatusCode\":true,\"requestHeaders\":{\"Connection\":\"keep-alive\",\"authorization\":\"Bearer 4b4c8f088b43abd2c4328d13f40228324cda0ef0b05a86faaacb6fbd31a3124d\",\"user-agent\":\"Mozilla/5.0 (X11; Linux x86_64) AppleWebKit/537.36 (KHTML, like Gecko) Chrome/86.0.4240.193 Safari/537.36\",\"accept\":\"*/*\",\"accept-encoding\":\"gzip, deflate\"},\"duration\":280,\"allRequestResponses\":[{\"Request Body\":null,\"Request Headers\":{\"Connection\":\"keep-alive\",\"authorization\":\"Bearer 4b4c8f088b43abd2c4328d13f40228324cda0ef0b05a86faaacb6fbd31a3124d\",\"user-agent\":\"Mozilla/5.0 (X11; Linux x86_64) AppleWebKit/537.36 (KHTML, like Gecko) Chrome/86.0.4240.193 Safari/537.36\",\"accept\":\"*/*\",\"accept-encoding\":\"gzip, deflate\"},\"Request URL\":\"https://gorest.co.in/public/v1/users\",\"Response Body\":\"{\\\"meta\\\":{\\\"pagination\\\":{\\\"total\\\":3455,\\\"pages\\\":173,\\\"page\\\":1,\\\"limit\\\":20,\\\"links\\\":{\\\"previous\\\":null,\\\"current\\\":\\\"https://gorest.co.in/public/v1/users?page=1\\\",\\\"next\\\":\\\"https://gorest.co.in/public/v1/users?page=2\\\"}}},\\\"data\\\":[{\\\"id\\\":4023,\\\"name\\\":\\\"hYwyOZRpYL\\\",\\\"email\\\":\\\"bzKKQPVbPa@gmail.com\\\",\\\"gender\\\":\\\"male\\\",\\\"status\\\":\\\"active\\\"},{\\\"id\\\":4022,\\\"name\\\":\\\"wOEgRtYTSF\\\",\\\"email\\\":\\\"t6tBZm1k2j@gmail.com\\\",\\\"gender\\\":\\\"male\\\",\\\"status\\\":\\\"active\\\"},{\\\"id\\\":4021,\\\"name\\\":\\\"ihXbsHMSUX\\\",\\\"email\\\":\\\"WMX8QWI1lE@gmail.com\\\",\\\"gender\\\":\\\"male\\\",\\\"status\\\":\\\"active\\\"},{\\\"id\\\":4018,\\\"name\\\":\\\"SPULXJgrAs\\\",\\\"email\\\":\\\"smlBoqfKtF@gmail.com\\\",\\\"gender\\\":\\\"male\\\",\\\"status\\\":\\\"active\\\"},{\\\"id\\\":4017,\\\"name\\\":\\\"tJABWUUxus\\\",\\\"email\\\":\\\"v8XmuMvV4V@gmail.com\\\",\\\"gender\\\":\\\"male\\\",\\\"status\\\":\\\"active\\\"},{\\\"id\\\":4016,\\\"name\\\":\\\"OCsXetXmJc\\\",\\\"email\\\":\\\"m6S39z5oNl@gmail.com\\\",\\\"gender\\\":\\\"male\\\",\\\"status\\\":\\\"active\\\"},{\\\"id\\\":4015,\\\"name\\\":\\\"PtmmogrmHE\\\",\\\"email\\\":\\\"l2NqiIMOkp@gmail.com\\\",\\\"gender\\\":\\\"male\\\",\\\"status\\\":\\\"active\\\"},{\\\"id\\\":4003,\\\"name\\\":\\\"KYbGyLIJkf\\\",\\\"email\\\":\\\"EVmcwgUmWh@gmail.com\\\",\\\"gender\\\":\\\"male\\\",\\\"status\\\":\\\"active\\\"},{\\\"id\\\":4002,\\\"name\\\":\\\"NXfHFtzQzL\\\",\\\"email\\\":\\\"rvLENDPyip@gmail.com\\\",\\\"gender\\\":\\\"male\\\",\\\"status\\\":\\\"active\\\"},{\\\"id\\\":4001,\\\"name\\\":\\\"pkJPyNRvBO\\\",\\\"email\\\":\\\"d2FRSKBqmF@gmail.com\\\",\\\"gender\\\":\\\"male\\\",\\\"status\\\":\\\"active\\\"},{\\\"id\\\":4000,\\\"name\\\":\\\"SEhiJztqKE\\\",\\\"email\\\":\\\"7v8y6gK763@gmail.com\\\",\\\"gender\\\":\\\"male\\\",\\\"status\\\":\\\"active\\\"},{\\\"id\\\":3994,\\\"name\\\":\\\"wNycvticPm\\\",\\\"email\\\":\\\"lqpQm44HRe@gmail.com\\\",\\\"gender\\\":\\\"male\\\",\\\"status\\\":\\\"active\\\"},{\\\"id\\\":3993,\\\"name\\\":\\\"xdLznNinnC\\\",\\\"email\\\":\\\"MMAtRoRVTy@gmail.com\\\",\\\"gender\\\":\\\"male\\\",\\\"status\\\":\\\"active\\\"},{\\\"id\\\":3992,\\\"name\\\":\\\"reQXqrUAzP\\\",\\\"email\\\":\\\"JKXpvJLjSD@gmail.com\\\",\\\"gender\\\":\\\"male\\\",\\\"status\\\":\\\"active\\\"},{\\\"id\\\":3991,\\\"name\\\":\\\"lictyxjACH\\\",\\\"email\\\":\\\"QNUKBeqTte@gmail.com\\\",\\\"gender\\\":\\\"male\\\",\\\"status\\\":\\\"active\\\"},{\\\"id\\\":3979,\\\"name\\\":\\\"SYQmnRconl\\\",\\\"email\\\":\\\"mXD662MQlm@gmail.com\\\",\\\"gender\\\":\\\"male\\\",\\\"status\\\":\\\"active\\\"},{\\\"id\\\":3978,\\\"name\\\":\\\"moxqrsypCG\\\",\\\"email\\\":\\\"3cSH0FrGrI@gmail.com\\\",\\\"gender\\\":\\\"male\\\",\\\"status\\\":\\\"active\\\"},{\\\"id\\\":3977,\\\"name\\\":\\\"EkfTBkaBGQ\\\",\\\"email\\\":\\\"EaOPQTssjU@gmail.com\\\",\\\"gender\\\":\\\"male\\\",\\\"status\\\":\\\"active\\\"},{\\\"id\\\":3976,\\\"name\\\":\\\"iMxGQkCkgh\\\",\\\"email\\\":\\\"VJw3fixYuJ@gmail.com\\\",\\\"gender\\\":\\\"male\\\",\\\"status\\\":\\\"active\\\"},{\\\"id\\\":3972,\\\"name\\\":\\\"jWWBLIEUEC\\\",\\\"email\\\":\\\"EtjTIpolb6@gmail.com\\\",\\\"gender\\\":\\\"male\\\",\\\"status\\\":\\\"active\\\"}]}\",\"Response Headers\":{\"server\":\"nginx\",\"date\":\"Sun, 20 Feb 2022 12:47:35 GMT\",\"content-type\":\"application/json; charset=utf-8\",\"transfer-encoding\":\"chunked\",\"connection\":\"keep-alive\",\"vary\":\"Accept-Encoding, Origin\",\"x-frame-options\":\"SAMEORIGIN\",\"x-xss-protection\":\"0\",\"x-content-type-options\":\"nosniff\",\"x-download-options\":\"noopen\",\"x-permitted-cross-domain-policies\":\"none\",\"referrer-policy\":\"strict-origin-when-cross-origin\",\"x-ratelimit-limit\":\"90\",\"x-ratelimit-remaining\":\"89\",\"x-ratelimit-reset\":\"2\",\"etag\":\"W/\\\"2042d35203b4bf668825d19d5882d084\\\"\",\"cache-control\":\"max-age=0, private, must-revalidate\",\"x-request-id\":\"0cf9e714-907d-4bc1-aa66-47bd9941cb53\",\"x-runtime\":\"0.044160\",\"strict-transport-security\":\"max-age=63072000; includeSubDomains\",\"content-encoding\":\"gzip\"},\"Response Status\":200}]}","stop":1645361255696}],"attachments":[],"parameters":[],"start":1645361255385,"name":"Then User Validates Get Call","stop":1645361255702},{"status":"passed","statusDetails":{},"stage":"finished","steps":[{"status":"passed","statusDetails":{},"stage":"finished","steps":[],"attachments":[],"parameters":[],"start":1645361255703,"name":"log Put Method","stop":1645361255706}],"attachments":[],"parameters":[],"start":1645361255702,"name":"Then User Validates Put Call","stop":1645361255711},{"status":"passed","statusDetails":{},"stage":"finished","steps":[{"status":"passed","statusDetails":{},"stage":"finished","steps":[],"attachments":[],"parameters":[],"start":1645361255711,"name":"log Delete Method","stop":1645361255715}],"attachments":[],"parameters":[],"start":1645361255711,"name":"Then User Validates Delete Call","stop":1645361255717},{"status":"passed","statusDetails":{},"stage":"finished","steps":[],"attachments":[],"parameters":[],"start":1645361255751,"name":"\"after each\" hook","stop":1645361255757}],"attachments":[{"name":"video recording","type":"video/mp4","source":"6fe569a2-4ddd-4ba3-aa80-3cd3e6a3a378-attachment.mp4"}],"parameters":[],"labels":[{"name":"suite","value":"API"},{"name":"feature","value":"Test E2E"},{"name":"tag","value":"Regression"}],"links":[],"start":1645361255027,"name":"TC003:Validate API Test","fullName":"TC003:Validate API Test","stop":1645361255718}