{"uuid":"fa00a40e-56f2-47d7-b726-d5c77c0142a4","historyId":"214433e76a647f87328ff1cd0a6e87a0","status":"passed","statusDetails":{},"stage":"finished","steps":[{"status":"passed","statusDetails":{},"stage":"finished","steps":[],"attachments":[],"parameters":[],"start":1645411681252,"name":"\"before each\" hook","stop":1645411681252},{"status":"passed","statusDetails":{},"stage":"finished","steps":[{"status":"passed","statusDetails":{},"stage":"finished","steps":[],"attachments":[],"parameters":[],"start":1645411681273,"name":"log https://gorest.co.in/public/v1/users","stop":1645411681279},{"status":"passed","statusDetails":{},"stage":"finished","steps":[],"attachments":[],"parameters":[],"start":1645411681281,"name":"POST 201 https://gorest.co.in/public/v1/users","stop":1645411682571},{"status":"passed","statusDetails":{},"stage":"finished","steps":[],"attachments":[],"parameters":[],"start":1645411682580,"name":"log {\"body\":{\"meta\":null,\"data\":{\"id\":4232,\"name\":\"tQQDjCFucq\",\"email\":\"HaUPgR7f7D@gmail.com\",\"gender\":\"male\",\"status\":\"active\"}},\"headers\":{\"server\":\"nginx\",\"date\":\"Mon, 21 Feb 2022 02:48:02 GMT\",\"content-type\":\"application/json; charset=utf-8\",\"transfer-encoding\":\"chunked\",\"connection\":\"keep-alive\",\"x-frame-options\":\"SAMEORIGIN\",\"x-xss-protection\":\"0\",\"x-content-type-options\":\"nosniff\",\"x-download-options\":\"noopen\",\"x-permitted-cross-domain-policies\":\"none\",\"referrer-policy\":\"strict-origin-when-cross-origin\",\"x-ratelimit-limit\":\"90\",\"x-ratelimit-remaining\":\"88\",\"x-ratelimit-reset\":\"1\",\"location\":\"https://gorest.co.in/public/v1/users/4232\",\"etag\":\"W/\\\"d82ba8988d57227c5ee8e3bd3789a7d3\\\"\",\"cache-control\":\"max-age=0, private, must-revalidate\",\"x-request-id\":\"12c14cb9-d83e-4956-a804-da656b618ac1\",\"x-runtime\":\"0.073219\",\"strict-transport-security\":\"max-age=63072000; includeSubDomains\",\"vary\":\"Origin\"},\"status\":201,\"statusText\":\"Created\",\"isOkStatusCode\":true,\"requestHeaders\":{\"Connection\":\"keep-alive\",\"authorization\":\"Bearer 4b4c8f088b43abd2c4328d13f40228324cda0ef0b05a86faaacb6fbd31a3124d\",\"user-agent\":\"Mozilla/5.0 (X11; Linux x86_64) AppleWebKit/537.36 (KHTML, like Gecko) HeadlessChrome/86.0.4240.193 Safari/537.36\",\"accept\":\"*/*\",\"accept-encoding\":\"gzip, deflate\",\"content-type\":\"application/json\",\"content-length\":86},\"requestBody\":\"{\\\"name\\\":\\\"tQQDjCFucq\\\",\\\"email\\\":\\\"HaUPgR7f7D@gmail.com\\\",\\\"gender\\\":\\\"Male\\\",\\\"status\\\":\\\"Active\\\"}\",\"duration\":1246,\"allRequestResponses\":[{\"Request Body\":\"{\\\"name\\\":\\\"tQQDjCFucq\\\",\\\"email\\\":\\\"HaUPgR7f7D@gmail.com\\\",\\\"gender\\\":\\\"Male\\\",\\\"status\\\":\\\"Active\\\"}\",\"Request Headers\":{\"Connection\":\"keep-alive\",\"authorization\":\"Bearer 4b4c8f088b43abd2c4328d13f40228324cda0ef0b05a86faaacb6fbd31a3124d\",\"user-agent\":\"Mozilla/5.0 (X11; Linux x86_64) AppleWebKit/537.36 (KHTML, like Gecko) HeadlessChrome/86.0.4240.193 Safari/537.36\",\"accept\":\"*/*\",\"accept-encoding\":\"gzip, deflate\",\"content-type\":\"application/json\",\"content-length\":86},\"Request URL\":\"https://gorest.co.in/public/v1/users\",\"Response Body\":{\"meta\":null,\"data\":{\"id\":4232,\"name\":\"tQQDjCFucq\",\"email\":\"HaUPgR7f7D@gmail.com\",\"gender\":\"male\",\"status\":\"active\"}},\"Response Headers\":{\"server\":\"nginx\",\"date\":\"Mon, 21 Feb 2022 02:48:02 GMT\",\"content-type\":\"application/json; charset=utf-8\",\"transfer-encoding\":\"chunked\",\"connection\":\"keep-alive\",\"x-frame-options\":\"SAMEORIGIN\",\"x-xss-protection\":\"0\",\"x-content-type-options\":\"nosniff\",\"x-download-options\":\"noopen\",\"x-permitted-cross-domain-policies\":\"none\",\"referrer-policy\":\"strict-origin-when-cross-origin\",\"x-ratelimit-limit\":\"90\",\"x-ratelimit-remaining\":\"88\",\"x-ratelimit-reset\":\"1\",\"location\":\"https://gorest.co.in/public/v1/users/4232\",\"etag\":\"W/\\\"d82ba8988d57227c5ee8e3bd3789a7d3\\\"\",\"cache-control\":\"max-age=0, private, must-revalidate\",\"x-request-id\":\"12c14cb9-d83e-4956-a804-da656b618ac1\",\"x-runtime\":\"0.073219\",\"strict-transport-security\":\"max-age=63072000; includeSubDomains\",\"vary\":\"Origin\"},\"Response Status\":201}]}","stop":1645411682589}],"attachments":[],"parameters":[],"start":1645411681271,"name":"Then User Validates Post Call","stop":1645411682595},{"status":"passed","statusDetails":{},"stage":"finished","steps":[{"status":"passed","statusDetails":{},"stage":"finished","steps":[],"attachments":[],"parameters":[],"start":1645411682596,"name":"GET 200 https://gorest.co.in/public/v1/users","stop":1645411682877},{"status":"passed","statusDetails":{},"stage":"finished","steps":[],"attachments":[],"parameters":[],"start":1645411682884,"name":"log {\"body\":{\"meta\":{\"pagination\":{\"total\":4115,\"pages\":206,\"page\":1,\"limit\":20,\"links\":{\"previous\":null,\"current\":\"https://gorest.co.in/public/v1/users?page=1\",\"next\":\"https://gorest.co.in/public/v1/users?page=2\"}}},\"data\":[{\"id\":4232,\"name\":\"tQQDjCFucq\",\"email\":\"HaUPgR7f7D@gmail.com\",\"gender\":\"male\",\"status\":\"active\"},{\"id\":4231,\"name\":\"BBIWzaozIo\",\"email\":\"Wu0lKge2h6@gmail.com\",\"gender\":\"male\",\"status\":\"active\"},{\"id\":4230,\"name\":\"eEnvEHzKlD\",\"email\":\"ZuhBRH8Shb@gmail.com\",\"gender\":\"male\",\"status\":\"active\"},{\"id\":4229,\"name\":\"vyhJuauINg\",\"email\":\"7uqT745AC4@gmail.com\",\"gender\":\"male\",\"status\":\"active\"},{\"id\":4143,\"name\":\"Amb. Ghanaanand Abbott\",\"email\":\"abbott_amb_ghanaanand@kassulke.info\",\"gender\":\"female\",\"status\":\"active\"},{\"id\":4141,\"name\":\"Prof. Baijayanti Khanna\",\"email\":\"khanna_baijayanti_prof@kulas-schuster.biz\",\"gender\":\"female\",\"status\":\"active\"},{\"id\":4138,\"name\":\"Chandini Butt\",\"email\":\"chandini_butt@bergnaum-hartmann.com\",\"gender\":\"male\",\"status\":\"inactive\"},{\"id\":4137,\"name\":\"Daiwik Marar\",\"email\":\"daiwik_marar@torp.co\",\"gender\":\"male\",\"status\":\"inactive\"},{\"id\":4134,\"name\":\"Fr. Kali Iyer\",\"email\":\"fr_kali_iyer@wehner.net\",\"gender\":\"female\",\"status\":\"inactive\"},{\"id\":4133,\"name\":\"Baalagopaal Butt\",\"email\":\"butt_baalagopaal@deckow.net\",\"gender\":\"female\",\"status\":\"inactive\"},{\"id\":4132,\"name\":\"Gautam Chaturvedi\",\"email\":\"chaturvedi_gautam@tromp-kunze.info\",\"gender\":\"female\",\"status\":\"inactive\"},{\"id\":4131,\"name\":\"Bhoopat Iyengar\",\"email\":\"bhoopat_iyengar@davis-langworth.com\",\"gender\":\"female\",\"status\":\"inactive\"},{\"id\":4125,\"name\":\"Aashritha Tagore CPA\",\"email\":\"cpa_tagore_aashritha@barton-daugherty.name\",\"gender\":\"female\",\"status\":\"active\"},{\"id\":4124,\"name\":\"The Hon. Manjusha Varman\",\"email\":\"the_manjusha_varman_hon@heathcote.com\",\"gender\":\"female\",\"status\":\"active\"},{\"id\":4122,\"name\":\"Akshata Pilla\",\"email\":\"akshata_pilla@roberts.com\",\"gender\":\"female\",\"status\":\"active\"},{\"id\":4121,\"name\":\"Daiwik Mishra\",\"email\":\"mishra_daiwik@howe-howell.co\",\"gender\":\"male\",\"status\":\"active\"},{\"id\":4120,\"name\":\"Atmananda Sinha\",\"email\":\"atmananda_sinha@stehr.co\",\"gender\":\"female\",\"status\":\"active\"},{\"id\":4119,\"name\":\"Jay Varrier III\",\"email\":\"jay_varrier_iii@roob.co\",\"gender\":\"female\",\"status\":\"inactive\"},{\"id\":4118,\"name\":\"Brahma Sethi\",\"email\":\"brahma_sethi@lang-turner.org\",\"gender\":\"female\",\"status\":\"active\"},{\"id\":4117,\"name\":\"Naval Kaul\",\"email\":\"naval_kaul@sipes.org\",\"gender\":\"male\",\"status\":\"inactive\"}]},\"headers\":{\"server\":\"nginx\",\"date\":\"Mon, 21 Feb 2022 02:48:02 GMT\",\"content-type\":\"application/json; charset=utf-8\",\"transfer-encoding\":\"chunked\",\"connection\":\"keep-alive\",\"vary\":\"Accept-Encoding, Origin\",\"x-frame-options\":\"SAMEORIGIN\",\"x-xss-protection\":\"0\",\"x-content-type-options\":\"nosniff\",\"x-download-options\":\"noopen\",\"x-permitted-cross-domain-policies\":\"none\",\"referrer-policy\":\"strict-origin-when-cross-origin\",\"x-ratelimit-limit\":\"90\",\"x-ratelimit-remaining\":\"89\",\"x-ratelimit-reset\":\"2\",\"etag\":\"W/\\\"5bfcece4a61df8395dbf2f96140268ae\\\"\",\"cache-control\":\"max-age=0, private, must-revalidate\",\"x-request-id\":\"34c821fc-b3a0-4975-b284-245a16f1fa2c\",\"x-runtime\":\"0.034044\",\"strict-transport-security\":\"max-age=63072000; includeSubDomains\",\"content-encoding\":\"gzip\"},\"status\":200,\"statusText\":\"OK\",\"isOkStatusCode\":true,\"requestHeaders\":{\"Connection\":\"keep-alive\",\"authorization\":\"Bearer 4b4c8f088b43abd2c4328d13f40228324cda0ef0b05a86faaacb6fbd31a3124d\",\"user-agent\":\"Mozilla/5.0 (X11; Linux x86_64) AppleWebKit/537.36 (KHTML, like Gecko) HeadlessChrome/86.0.4240.193 Safari/537.36\",\"accept\":\"*/*\",\"accept-encoding\":\"gzip, deflate\"},\"duration\":263,\"allRequestResponses\":[{\"Request Body\":null,\"Request Headers\":{\"Connection\":\"keep-alive\",\"authorization\":\"Bearer 4b4c8f088b43abd2c4328d13f40228324cda0ef0b05a86faaacb6fbd31a3124d\",\"user-agent\":\"Mozilla/5.0 (X11; Linux x86_64) AppleWebKit/537.36 (KHTML, like Gecko) HeadlessChrome/86.0.4240.193 Safari/537.36\",\"accept\":\"*/*\",\"accept-encoding\":\"gzip, deflate\"},\"Request URL\":\"https://gorest.co.in/public/v1/users\",\"Response Body\":\"{\\\"meta\\\":{\\\"pagination\\\":{\\\"total\\\":4115,\\\"pages\\\":206,\\\"page\\\":1,\\\"limit\\\":20,\\\"links\\\":{\\\"previous\\\":null,\\\"current\\\":\\\"https://gorest.co.in/public/v1/users?page=1\\\",\\\"next\\\":\\\"https://gorest.co.in/public/v1/users?page=2\\\"}}},\\\"data\\\":[{\\\"id\\\":4232,\\\"name\\\":\\\"tQQDjCFucq\\\",\\\"email\\\":\\\"HaUPgR7f7D@gmail.com\\\",\\\"gender\\\":\\\"male\\\",\\\"status\\\":\\\"active\\\"},{\\\"id\\\":4231,\\\"name\\\":\\\"BBIWzaozIo\\\",\\\"email\\\":\\\"Wu0lKge2h6@gmail.com\\\",\\\"gender\\\":\\\"male\\\",\\\"status\\\":\\\"active\\\"},{\\\"id\\\":4230,\\\"name\\\":\\\"eEnvEHzKlD\\\",\\\"email\\\":\\\"ZuhBRH8Shb@gmail.com\\\",\\\"gender\\\":\\\"male\\\",\\\"status\\\":\\\"active\\\"},{\\\"id\\\":4229,\\\"name\\\":\\\"vyhJuauINg\\\",\\\"email\\\":\\\"7uqT745AC4@gmail.com\\\",\\\"gender\\\":\\\"male\\\",\\\"status\\\":\\\"active\\\"},{\\\"id\\\":4143,\\\"name\\\":\\\"Amb. Ghanaanand Abbott\\\",\\\"email\\\":\\\"abbott_amb_ghanaanand@kassulke.info\\\",\\\"gender\\\":\\\"female\\\",\\\"status\\\":\\\"active\\\"},{\\\"id\\\":4141,\\\"name\\\":\\\"Prof. Baijayanti Khanna\\\",\\\"email\\\":\\\"khanna_baijayanti_prof@kulas-schuster.biz\\\",\\\"gender\\\":\\\"female\\\",\\\"status\\\":\\\"active\\\"},{\\\"id\\\":4138,\\\"name\\\":\\\"Chandini Butt\\\",\\\"email\\\":\\\"chandini_butt@bergnaum-hartmann.com\\\",\\\"gender\\\":\\\"male\\\",\\\"status\\\":\\\"inactive\\\"},{\\\"id\\\":4137,\\\"name\\\":\\\"Daiwik Marar\\\",\\\"email\\\":\\\"daiwik_marar@torp.co\\\",\\\"gender\\\":\\\"male\\\",\\\"status\\\":\\\"inactive\\\"},{\\\"id\\\":4134,\\\"name\\\":\\\"Fr. Kali Iyer\\\",\\\"email\\\":\\\"fr_kali_iyer@wehner.net\\\",\\\"gender\\\":\\\"female\\\",\\\"status\\\":\\\"inactive\\\"},{\\\"id\\\":4133,\\\"name\\\":\\\"Baalagopaal Butt\\\",\\\"email\\\":\\\"butt_baalagopaal@deckow.net\\\",\\\"gender\\\":\\\"female\\\",\\\"status\\\":\\\"inactive\\\"},{\\\"id\\\":4132,\\\"name\\\":\\\"Gautam Chaturvedi\\\",\\\"email\\\":\\\"chaturvedi_gautam@tromp-kunze.info\\\",\\\"gender\\\":\\\"female\\\",\\\"status\\\":\\\"inactive\\\"},{\\\"id\\\":4131,\\\"name\\\":\\\"Bhoopat Iyengar\\\",\\\"email\\\":\\\"bhoopat_iyengar@davis-langworth.com\\\",\\\"gender\\\":\\\"female\\\",\\\"status\\\":\\\"inactive\\\"},{\\\"id\\\":4125,\\\"name\\\":\\\"Aashritha Tagore CPA\\\",\\\"email\\\":\\\"cpa_tagore_aashritha@barton-daugherty.name\\\",\\\"gender\\\":\\\"female\\\",\\\"status\\\":\\\"active\\\"},{\\\"id\\\":4124,\\\"name\\\":\\\"The Hon. Manjusha Varman\\\",\\\"email\\\":\\\"the_manjusha_varman_hon@heathcote.com\\\",\\\"gender\\\":\\\"female\\\",\\\"status\\\":\\\"active\\\"},{\\\"id\\\":4122,\\\"name\\\":\\\"Akshata Pilla\\\",\\\"email\\\":\\\"akshata_pilla@roberts.com\\\",\\\"gender\\\":\\\"female\\\",\\\"status\\\":\\\"active\\\"},{\\\"id\\\":4121,\\\"name\\\":\\\"Daiwik Mishra\\\",\\\"email\\\":\\\"mishra_daiwik@howe-howell.co\\\",\\\"gender\\\":\\\"male\\\",\\\"status\\\":\\\"active\\\"},{\\\"id\\\":4120,\\\"name\\\":\\\"Atmananda Sinha\\\",\\\"email\\\":\\\"atmananda_sinha@stehr.co\\\",\\\"gender\\\":\\\"female\\\",\\\"status\\\":\\\"active\\\"},{\\\"id\\\":4119,\\\"name\\\":\\\"Jay Varrier III\\\",\\\"email\\\":\\\"jay_varrier_iii@roob.co\\\",\\\"gender\\\":\\\"female\\\",\\\"status\\\":\\\"inactive\\\"},{\\\"id\\\":4118,\\\"name\\\":\\\"Brahma Sethi\\\",\\\"email\\\":\\\"brahma_sethi@lang-turner.org\\\",\\\"gender\\\":\\\"female\\\",\\\"status\\\":\\\"active\\\"},{\\\"id\\\":4117,\\\"name\\\":\\\"Naval Kaul\\\",\\\"email\\\":\\\"naval_kaul@sipes.org\\\",\\\"gender\\\":\\\"male\\\",\\\"status\\\":\\\"inactive\\\"}]}\",\"Response Headers\":{\"server\":\"nginx\",\"date\":\"Mon, 21 Feb 2022 02:48:02 GMT\",\"content-type\":\"application/json; charset=utf-8\",\"transfer-encoding\":\"chunked\",\"connection\":\"keep-alive\",\"vary\":\"Accept-Encoding, Origin\",\"x-frame-options\":\"SAMEORIGIN\",\"x-xss-protection\":\"0\",\"x-content-type-options\":\"nosniff\",\"x-download-options\":\"noopen\",\"x-permitted-cross-domain-policies\":\"none\",\"referrer-policy\":\"strict-origin-when-cross-origin\",\"x-ratelimit-limit\":\"90\",\"x-ratelimit-remaining\":\"89\",\"x-ratelimit-reset\":\"2\",\"etag\":\"W/\\\"5bfcece4a61df8395dbf2f96140268ae\\\"\",\"cache-control\":\"max-age=0, private, must-revalidate\",\"x-request-id\":\"34c821fc-b3a0-4975-b284-245a16f1fa2c\",\"x-runtime\":\"0.034044\",\"strict-transport-security\":\"max-age=63072000; includeSubDomains\",\"content-encoding\":\"gzip\"},\"Response Status\":200}]}","stop":1645411682905}],"attachments":[],"parameters":[],"start":1645411682595,"name":"Then User Validates Get Call","stop":1645411682911},{"status":"passed","statusDetails":{},"stage":"finished","steps":[{"status":"passed","statusDetails":{},"stage":"finished","steps":[],"attachments":[],"parameters":[],"start":1645411682912,"name":"log Put Method","stop":1645411682917}],"attachments":[],"parameters":[],"start":1645411682911,"name":"Then User Validates Put Call","stop":1645411682921},{"status":"passed","statusDetails":{},"stage":"finished","steps":[{"status":"passed","statusDetails":{},"stage":"finished","steps":[],"attachments":[],"parameters":[],"start":1645411682922,"name":"log Delete Method","stop":1645411682925}],"attachments":[],"parameters":[],"start":1645411682921,"name":"Then User Validates Delete Call","stop":1645411682927},{"status":"passed","statusDetails":{},"stage":"finished","steps":[],"attachments":[],"parameters":[],"start":1645411682955,"name":"\"after each\" hook","stop":1645411682958}],"attachments":[{"name":"video recording","type":"video/mp4","source":"bf390966-4cfe-443c-a685-9235f4aa30e2-attachment.mp4"}],"parameters":[],"labels":[{"name":"suite","value":"API"},{"name":"feature","value":"Test E2E"},{"name":"tag","value":"Regression"}],"links":[],"start":1645411681247,"name":"TC003:Validate API Test","fullName":"TC003:Validate API Test","stop":1645411682928}