{
  "uid" : "4522a710c496b5a",
  "name" : "TC004:Validate API Test",
  "fullName" : "TC004:Validate API Test",
  "historyId" : "c794df0de679a908cebc0733ea684a45",
  "time" : {
    "start" : 1645362750759,
    "stop" : 1645362751397,
    "duration" : 638
  },
  "status" : "passed",
  "flaky" : false,
  "newFailed" : false,
  "beforeStages" : [ ],
  "testStage" : {
    "status" : "passed",
    "steps" : [ {
      "name" : "\"before each\" hook",
      "time" : {
        "start" : 1645362750765,
        "stop" : 1645362750765,
        "duration" : 0
      },
      "status" : "passed",
      "steps" : [ ],
      "attachments" : [ ],
      "parameters" : [ ],
      "stepsCount" : 0,
      "attachmentsCount" : 0,
      "shouldDisplayMessage" : false,
      "hasContent" : false
    }, {
      "name" : "Then User Validates Post Call",
      "time" : {
        "start" : 1645362750785,
        "stop" : 1645362751090,
        "duration" : 305
      },
      "status" : "passed",
      "steps" : [ {
        "name" : "log https://gorest.co.in/public/v1/users",
        "time" : {
          "start" : 1645362750787,
          "stop" : 1645362750791,
          "duration" : 4
        },
        "status" : "passed",
        "steps" : [ ],
        "attachments" : [ ],
        "parameters" : [ ],
        "stepsCount" : 0,
        "attachmentsCount" : 0,
        "shouldDisplayMessage" : false,
        "hasContent" : false
      }, {
        "name" : "POST 201 https://gorest.co.in/public/v1/users",
        "time" : {
          "start" : 1645362750792,
          "stop" : 1645362751074,
          "duration" : 282
        },
        "status" : "passed",
        "steps" : [ ],
        "attachments" : [ ],
        "parameters" : [ ],
        "stepsCount" : 0,
        "attachmentsCount" : 0,
        "shouldDisplayMessage" : false,
        "hasContent" : false
      }, {
        "name" : "log {\"body\":{\"meta\":null,\"data\":{\"id\":4035,\"name\":\"KLFRlRpauM\",\"email\":\"UcCOCmdqs7@gmail.com\",\"gender\":\"male\",\"status\":\"active\"}},\"headers\":{\"server\":\"nginx\",\"date\":\"Sun, 20 Feb 2022 13:12:30 GMT\",\"content-type\":\"application/json; charset=utf-8\",\"transfer-encoding\":\"chunked\",\"connection\":\"keep-alive\",\"x-frame-options\":\"SAMEORIGIN\",\"x-xss-protection\":\"0\",\"x-content-type-options\":\"nosniff\",\"x-download-options\":\"noopen\",\"x-permitted-cross-domain-policies\":\"none\",\"referrer-policy\":\"strict-origin-when-cross-origin\",\"x-ratelimit-limit\":\"90\",\"x-ratelimit-remaining\":\"88\",\"x-ratelimit-reset\":\"1\",\"location\":\"https://gorest.co.in/public/v1/users/4035\",\"etag\":\"W/\\\"50d4bd1cace37f90aaffe1921b290277\\\"\",\"cache-control\":\"max-age=0, private, must-revalidate\",\"x-request-id\":\"41bc2ac2-e25b-4e36-a599-cef2bff95fa5\",\"x-runtime\":\"0.028738\",\"strict-transport-security\":\"max-age=63072000; includeSubDomains\",\"vary\":\"Origin\"},\"status\":201,\"statusText\":\"Created\",\"isOkStatusCode\":true,\"requestHeaders\":{\"Connection\":\"keep-alive\",\"authorization\":\"Bearer 4b4c8f088b43abd2c4328d13f40228324cda0ef0b05a86faaacb6fbd31a3124d\",\"user-agent\":\"Mozilla/5.0 (X11; Linux x86_64) AppleWebKit/537.36 (KHTML, like Gecko) Chrome/86.0.4240.193 Safari/537.36\",\"accept\":\"*/*\",\"accept-encoding\":\"gzip, deflate\",\"content-type\":\"application/json\",\"content-length\":86},\"requestBody\":\"{\\\"name\\\":\\\"KLFRlRpauM\\\",\\\"email\\\":\\\"UcCOCmdqs7@gmail.com\\\",\\\"gender\\\":\\\"Male\\\",\\\"status\\\":\\\"Active\\\"}\",\"duration\":258,\"allRequestResponses\":[{\"Request Body\":\"{\\\"name\\\":\\\"KLFRlRpauM\\\",\\\"email\\\":\\\"UcCOCmdqs7@gmail.com\\\",\\\"gender\\\":\\\"Male\\\",\\\"status\\\":\\\"Active\\\"}\",\"Request Headers\":{\"Connection\":\"keep-alive\",\"authorization\":\"Bearer 4b4c8f088b43abd2c4328d13f40228324cda0ef0b05a86faaacb6fbd31a3124d\",\"user-agent\":\"Mozilla/5.0 (X11; Linux x86_64) AppleWebKit/537.36 (KHTML, like Gecko) Chrome/86.0.4240.193 Safari/537.36\",\"accept\":\"*/*\",\"accept-encoding\":\"gzip, deflate\",\"content-type\":\"application/json\",\"content-length\":86},\"Request URL\":\"https://gorest.co.in/public/v1/users\",\"Response Body\":{\"meta\":null,\"data\":{\"id\":4035,\"name\":\"KLFRlRpauM\",\"email\":\"UcCOCmdqs7@gmail.com\",\"gender\":\"male\",\"status\":\"active\"}},\"Response Headers\":{\"server\":\"nginx\",\"date\":\"Sun, 20 Feb 2022 13:12:30 GMT\",\"content-type\":\"application/json; charset=utf-8\",\"transfer-encoding\":\"chunked\",\"connection\":\"keep-alive\",\"x-frame-options\":\"SAMEORIGIN\",\"x-xss-protection\":\"0\",\"x-content-type-options\":\"nosniff\",\"x-download-options\":\"noopen\",\"x-permitted-cross-domain-policies\":\"none\",\"referrer-policy\":\"strict-origin-when-cross-origin\",\"x-ratelimit-limit\":\"90\",\"x-ratelimit-remaining\":\"88\",\"x-ratelimit-reset\":\"1\",\"location\":\"https://gorest.co.in/public/v1/users/4035\",\"etag\":\"W/\\\"50d4bd1cace37f90aaffe1921b290277\\\"\",\"cache-control\":\"max-age=0, private, must-revalidate\",\"x-request-id\":\"41bc2ac2-e25b-4e36-a599-cef2bff95fa5\",\"x-runtime\":\"0.028738\",\"strict-transport-security\":\"max-age=63072000; includeSubDomains\",\"vary\":\"Origin\"},\"Response Status\":201}]}",
        "time" : {
          "start" : 1645362751082,
          "stop" : 1645362751087,
          "duration" : 5
        },
        "status" : "passed",
        "steps" : [ ],
        "attachments" : [ ],
        "parameters" : [ ],
        "stepsCount" : 0,
        "attachmentsCount" : 0,
        "shouldDisplayMessage" : false,
        "hasContent" : false
      } ],
      "attachments" : [ ],
      "parameters" : [ ],
      "stepsCount" : 3,
      "attachmentsCount" : 0,
      "shouldDisplayMessage" : false,
      "hasContent" : true
    }, {
      "name" : "Then User Validates Get Call",
      "time" : {
        "start" : 1645362751090,
        "stop" : 1645362751386,
        "duration" : 296
      },
      "status" : "passed",
      "steps" : [ {
        "name" : "GET 200 https://gorest.co.in/public/v1/users",
        "time" : {
          "start" : 1645362751091,
          "stop" : 1645362751363,
          "duration" : 272
        },
        "status" : "passed",
        "steps" : [ ],
        "attachments" : [ ],
        "parameters" : [ ],
        "stepsCount" : 0,
        "attachmentsCount" : 0,
        "shouldDisplayMessage" : false,
        "hasContent" : false
      }, {
        "name" : "log {\"body\":{\"meta\":{\"pagination\":{\"total\":3459,\"pages\":173,\"page\":1,\"limit\":20,\"links\":{\"previous\":null,\"current\":\"https://gorest.co.in/public/v1/users?page=1\",\"next\":\"https://gorest.co.in/public/v1/users?page=2\"}}},\"data\":[{\"id\":4035,\"name\":\"KLFRlRpauM\",\"email\":\"UcCOCmdqs7@gmail.com\",\"gender\":\"male\",\"status\":\"active\"},{\"id\":4034,\"name\":\"bQhRmvJmMZ\",\"email\":\"GrdgFBcdQG@gmail.com\",\"gender\":\"male\",\"status\":\"active\"},{\"id\":4033,\"name\":\"kVPsbiSPzn\",\"email\":\"C08iyoGpgC@gmail.com\",\"gender\":\"male\",\"status\":\"active\"},{\"id\":4032,\"name\":\"KLgotYLrWC\",\"email\":\"Wp9lIB6UUD@gmail.com\",\"gender\":\"male\",\"status\":\"active\"},{\"id\":4024,\"name\":\"aiMZxNuxvI\",\"email\":\"aV64BoKbfj@gmail.com\",\"gender\":\"male\",\"status\":\"active\"},{\"id\":4023,\"name\":\"hYwyOZRpYL\",\"email\":\"bzKKQPVbPa@gmail.com\",\"gender\":\"male\",\"status\":\"active\"},{\"id\":4022,\"name\":\"wOEgRtYTSF\",\"email\":\"t6tBZm1k2j@gmail.com\",\"gender\":\"male\",\"status\":\"active\"},{\"id\":4021,\"name\":\"ihXbsHMSUX\",\"email\":\"WMX8QWI1lE@gmail.com\",\"gender\":\"male\",\"status\":\"active\"},{\"id\":4018,\"name\":\"SPULXJgrAs\",\"email\":\"smlBoqfKtF@gmail.com\",\"gender\":\"male\",\"status\":\"active\"},{\"id\":4017,\"name\":\"tJABWUUxus\",\"email\":\"v8XmuMvV4V@gmail.com\",\"gender\":\"male\",\"status\":\"active\"},{\"id\":4016,\"name\":\"OCsXetXmJc\",\"email\":\"m6S39z5oNl@gmail.com\",\"gender\":\"male\",\"status\":\"active\"},{\"id\":4015,\"name\":\"PtmmogrmHE\",\"email\":\"l2NqiIMOkp@gmail.com\",\"gender\":\"male\",\"status\":\"active\"},{\"id\":4003,\"name\":\"KYbGyLIJkf\",\"email\":\"EVmcwgUmWh@gmail.com\",\"gender\":\"male\",\"status\":\"active\"},{\"id\":4002,\"name\":\"NXfHFtzQzL\",\"email\":\"rvLENDPyip@gmail.com\",\"gender\":\"male\",\"status\":\"active\"},{\"id\":4001,\"name\":\"pkJPyNRvBO\",\"email\":\"d2FRSKBqmF@gmail.com\",\"gender\":\"male\",\"status\":\"active\"},{\"id\":4000,\"name\":\"SEhiJztqKE\",\"email\":\"7v8y6gK763@gmail.com\",\"gender\":\"male\",\"status\":\"active\"},{\"id\":3994,\"name\":\"wNycvticPm\",\"email\":\"lqpQm44HRe@gmail.com\",\"gender\":\"male\",\"status\":\"active\"},{\"id\":3993,\"name\":\"xdLznNinnC\",\"email\":\"MMAtRoRVTy@gmail.com\",\"gender\":\"male\",\"status\":\"active\"},{\"id\":3992,\"name\":\"reQXqrUAzP\",\"email\":\"JKXpvJLjSD@gmail.com\",\"gender\":\"male\",\"status\":\"active\"},{\"id\":3991,\"name\":\"lictyxjACH\",\"email\":\"QNUKBeqTte@gmail.com\",\"gender\":\"male\",\"status\":\"active\"}]},\"headers\":{\"server\":\"nginx\",\"date\":\"Sun, 20 Feb 2022 13:12:31 GMT\",\"content-type\":\"application/json; charset=utf-8\",\"transfer-encoding\":\"chunked\",\"connection\":\"keep-alive\",\"vary\":\"Accept-Encoding, Origin\",\"x-frame-options\":\"SAMEORIGIN\",\"x-xss-protection\":\"0\",\"x-content-type-options\":\"nosniff\",\"x-download-options\":\"noopen\",\"x-permitted-cross-domain-policies\":\"none\",\"referrer-policy\":\"strict-origin-when-cross-origin\",\"x-ratelimit-limit\":\"90\",\"x-ratelimit-remaining\":\"89\",\"x-ratelimit-reset\":\"2\",\"etag\":\"W/\\\"e58e00c0e734376a1e59c92cf6febefd\\\"\",\"cache-control\":\"max-age=0, private, must-revalidate\",\"x-request-id\":\"05429d7a-92b9-4239-9aab-1bb5aded45d6\",\"x-runtime\":\"0.034845\",\"strict-transport-security\":\"max-age=63072000; includeSubDomains\",\"content-encoding\":\"gzip\"},\"status\":200,\"statusText\":\"OK\",\"isOkStatusCode\":true,\"requestHeaders\":{\"Connection\":\"keep-alive\",\"authorization\":\"Bearer 4b4c8f088b43abd2c4328d13f40228324cda0ef0b05a86faaacb6fbd31a3124d\",\"user-agent\":\"Mozilla/5.0 (X11; Linux x86_64) AppleWebKit/537.36 (KHTML, like Gecko) Chrome/86.0.4240.193 Safari/537.36\",\"accept\":\"*/*\",\"accept-encoding\":\"gzip, deflate\"},\"duration\":264,\"allRequestResponses\":[{\"Request Body\":null,\"Request Headers\":{\"Connection\":\"keep-alive\",\"authorization\":\"Bearer 4b4c8f088b43abd2c4328d13f40228324cda0ef0b05a86faaacb6fbd31a3124d\",\"user-agent\":\"Mozilla/5.0 (X11; Linux x86_64) AppleWebKit/537.36 (KHTML, like Gecko) Chrome/86.0.4240.193 Safari/537.36\",\"accept\":\"*/*\",\"accept-encoding\":\"gzip, deflate\"},\"Request URL\":\"https://gorest.co.in/public/v1/users\",\"Response Body\":\"{\\\"meta\\\":{\\\"pagination\\\":{\\\"total\\\":3459,\\\"pages\\\":173,\\\"page\\\":1,\\\"limit\\\":20,\\\"links\\\":{\\\"previous\\\":null,\\\"current\\\":\\\"https://gorest.co.in/public/v1/users?page=1\\\",\\\"next\\\":\\\"https://gorest.co.in/public/v1/users?page=2\\\"}}},\\\"data\\\":[{\\\"id\\\":4035,\\\"name\\\":\\\"KLFRlRpauM\\\",\\\"email\\\":\\\"UcCOCmdqs7@gmail.com\\\",\\\"gender\\\":\\\"male\\\",\\\"status\\\":\\\"active\\\"},{\\\"id\\\":4034,\\\"name\\\":\\\"bQhRmvJmMZ\\\",\\\"email\\\":\\\"GrdgFBcdQG@gmail.com\\\",\\\"gender\\\":\\\"male\\\",\\\"status\\\":\\\"active\\\"},{\\\"id\\\":4033,\\\"name\\\":\\\"kVPsbiSPzn\\\",\\\"email\\\":\\\"C08iyoGpgC@gmail.com\\\",\\\"gender\\\":\\\"male\\\",\\\"status\\\":\\\"active\\\"},{\\\"id\\\":4032,\\\"name\\\":\\\"KLgotYLrWC\\\",\\\"email\\\":\\\"Wp9lIB6UUD@gmail.com\\\",\\\"gender\\\":\\\"male\\\",\\\"status\\\":\\\"active\\\"},{\\\"id\\\":4024,\\\"name\\\":\\\"aiMZxNuxvI\\\",\\\"email\\\":\\\"aV64BoKbfj@gmail.com\\\",\\\"gender\\\":\\\"male\\\",\\\"status\\\":\\\"active\\\"},{\\\"id\\\":4023,\\\"name\\\":\\\"hYwyOZRpYL\\\",\\\"email\\\":\\\"bzKKQPVbPa@gmail.com\\\",\\\"gender\\\":\\\"male\\\",\\\"status\\\":\\\"active\\\"},{\\\"id\\\":4022,\\\"name\\\":\\\"wOEgRtYTSF\\\",\\\"email\\\":\\\"t6tBZm1k2j@gmail.com\\\",\\\"gender\\\":\\\"male\\\",\\\"status\\\":\\\"active\\\"},{\\\"id\\\":4021,\\\"name\\\":\\\"ihXbsHMSUX\\\",\\\"email\\\":\\\"WMX8QWI1lE@gmail.com\\\",\\\"gender\\\":\\\"male\\\",\\\"status\\\":\\\"active\\\"},{\\\"id\\\":4018,\\\"name\\\":\\\"SPULXJgrAs\\\",\\\"email\\\":\\\"smlBoqfKtF@gmail.com\\\",\\\"gender\\\":\\\"male\\\",\\\"status\\\":\\\"active\\\"},{\\\"id\\\":4017,\\\"name\\\":\\\"tJABWUUxus\\\",\\\"email\\\":\\\"v8XmuMvV4V@gmail.com\\\",\\\"gender\\\":\\\"male\\\",\\\"status\\\":\\\"active\\\"},{\\\"id\\\":4016,\\\"name\\\":\\\"OCsXetXmJc\\\",\\\"email\\\":\\\"m6S39z5oNl@gmail.com\\\",\\\"gender\\\":\\\"male\\\",\\\"status\\\":\\\"active\\\"},{\\\"id\\\":4015,\\\"name\\\":\\\"PtmmogrmHE\\\",\\\"email\\\":\\\"l2NqiIMOkp@gmail.com\\\",\\\"gender\\\":\\\"male\\\",\\\"status\\\":\\\"active\\\"},{\\\"id\\\":4003,\\\"name\\\":\\\"KYbGyLIJkf\\\",\\\"email\\\":\\\"EVmcwgUmWh@gmail.com\\\",\\\"gender\\\":\\\"male\\\",\\\"status\\\":\\\"active\\\"},{\\\"id\\\":4002,\\\"name\\\":\\\"NXfHFtzQzL\\\",\\\"email\\\":\\\"rvLENDPyip@gmail.com\\\",\\\"gender\\\":\\\"male\\\",\\\"status\\\":\\\"active\\\"},{\\\"id\\\":4001,\\\"name\\\":\\\"pkJPyNRvBO\\\",\\\"email\\\":\\\"d2FRSKBqmF@gmail.com\\\",\\\"gender\\\":\\\"male\\\",\\\"status\\\":\\\"active\\\"},{\\\"id\\\":4000,\\\"name\\\":\\\"SEhiJztqKE\\\",\\\"email\\\":\\\"7v8y6gK763@gmail.com\\\",\\\"gender\\\":\\\"male\\\",\\\"status\\\":\\\"active\\\"},{\\\"id\\\":3994,\\\"name\\\":\\\"wNycvticPm\\\",\\\"email\\\":\\\"lqpQm44HRe@gmail.com\\\",\\\"gender\\\":\\\"male\\\",\\\"status\\\":\\\"active\\\"},{\\\"id\\\":3993,\\\"name\\\":\\\"xdLznNinnC\\\",\\\"email\\\":\\\"MMAtRoRVTy@gmail.com\\\",\\\"gender\\\":\\\"male\\\",\\\"status\\\":\\\"active\\\"},{\\\"id\\\":3992,\\\"name\\\":\\\"reQXqrUAzP\\\",\\\"email\\\":\\\"JKXpvJLjSD@gmail.com\\\",\\\"gender\\\":\\\"male\\\",\\\"status\\\":\\\"active\\\"},{\\\"id\\\":3991,\\\"name\\\":\\\"lictyxjACH\\\",\\\"email\\\":\\\"QNUKBeqTte@gmail.com\\\",\\\"gender\\\":\\\"male\\\",\\\"status\\\":\\\"active\\\"}]}\",\"Response Headers\":{\"server\":\"nginx\",\"date\":\"Sun, 20 Feb 2022 13:12:31 GMT\",\"content-type\":\"application/json; charset=utf-8\",\"transfer-encoding\":\"chunked\",\"connection\":\"keep-alive\",\"vary\":\"Accept-Encoding, Origin\",\"x-frame-options\":\"SAMEORIGIN\",\"x-xss-protection\":\"0\",\"x-content-type-options\":\"nosniff\",\"x-download-options\":\"noopen\",\"x-permitted-cross-domain-policies\":\"none\",\"referrer-policy\":\"strict-origin-when-cross-origin\",\"x-ratelimit-limit\":\"90\",\"x-ratelimit-remaining\":\"89\",\"x-ratelimit-reset\":\"2\",\"etag\":\"W/\\\"e58e00c0e734376a1e59c92cf6febefd\\\"\",\"cache-control\":\"max-age=0, private, must-revalidate\",\"x-request-id\":\"05429d7a-92b9-4239-9aab-1bb5aded45d6\",\"x-runtime\":\"0.034845\",\"strict-transport-security\":\"max-age=63072000; includeSubDomains\",\"content-encoding\":\"gzip\"},\"Response Status\":200}]}",
        "time" : {
          "start" : 1645362751370,
          "stop" : 1645362751380,
          "duration" : 10
        },
        "status" : "passed",
        "steps" : [ ],
        "attachments" : [ ],
        "parameters" : [ ],
        "stepsCount" : 0,
        "attachmentsCount" : 0,
        "shouldDisplayMessage" : false,
        "hasContent" : false
      } ],
      "attachments" : [ ],
      "parameters" : [ ],
      "stepsCount" : 2,
      "attachmentsCount" : 0,
      "shouldDisplayMessage" : false,
      "hasContent" : true
    }, {
      "name" : "Then User Validates Put Call",
      "time" : {
        "start" : 1645362751386,
        "stop" : 1645362751392,
        "duration" : 6
      },
      "status" : "passed",
      "steps" : [ {
        "name" : "log Put Method",
        "time" : {
          "start" : 1645362751386,
          "stop" : 1645362751389,
          "duration" : 3
        },
        "status" : "passed",
        "steps" : [ ],
        "attachments" : [ ],
        "parameters" : [ ],
        "stepsCount" : 0,
        "attachmentsCount" : 0,
        "shouldDisplayMessage" : false,
        "hasContent" : false
      } ],
      "attachments" : [ ],
      "parameters" : [ ],
      "stepsCount" : 1,
      "attachmentsCount" : 0,
      "shouldDisplayMessage" : false,
      "hasContent" : true
    }, {
      "name" : "Then User Validates Delete Call",
      "time" : {
        "start" : 1645362751392,
        "stop" : 1645362751396,
        "duration" : 4
      },
      "status" : "passed",
      "steps" : [ {
        "name" : "log Delete Method",
        "time" : {
          "start" : 1645362751392,
          "stop" : 1645362751395,
          "duration" : 3
        },
        "status" : "passed",
        "steps" : [ ],
        "attachments" : [ ],
        "parameters" : [ ],
        "stepsCount" : 0,
        "attachmentsCount" : 0,
        "shouldDisplayMessage" : false,
        "hasContent" : false
      } ],
      "attachments" : [ ],
      "parameters" : [ ],
      "stepsCount" : 1,
      "attachmentsCount" : 0,
      "shouldDisplayMessage" : false,
      "hasContent" : true
    }, {
      "name" : "\"after each\" hook",
      "time" : {
        "start" : 1645362751414,
        "stop" : 1645362751416,
        "duration" : 2
      },
      "status" : "passed",
      "steps" : [ ],
      "attachments" : [ ],
      "parameters" : [ ],
      "stepsCount" : 0,
      "attachmentsCount" : 0,
      "shouldDisplayMessage" : false,
      "hasContent" : false
    } ],
    "attachments" : [ {
      "uid" : "97d18ee05d40760e",
      "name" : "video recording",
      "source" : "97d18ee05d40760e.mp4",
      "type" : "video/mp4",
      "size" : 501703
    } ],
    "parameters" : [ ],
    "stepsCount" : 13,
    "attachmentsCount" : 1,
    "shouldDisplayMessage" : false,
    "hasContent" : true
  },
  "afterStages" : [ ],
  "labels" : [ {
    "name" : "suite",
    "value" : "API"
  }, {
    "name" : "feature",
    "value" : "Test E2E"
  }, {
    "name" : "tag",
    "value" : "Regression"
  }, {
    "name" : "resultFormat",
    "value" : "allure2"
  } ],
  "parameters" : [ ],
  "links" : [ ],
  "hidden" : true,
  "retry" : true,
  "extra" : {
    "categories" : [ ],
    "tags" : [ "Regression" ]
  },
  "source" : "4522a710c496b5a.json",
  "parameterValues" : [ ]
}