{
  "uid" : "4c9619b7ca0d6ee9",
  "name" : "TC004:Validate API Test",
  "fullName" : "TC004:Validate API Test",
  "historyId" : "c794df0de679a908cebc0733ea684a45",
  "time" : {
    "start" : 1645441948207,
    "stop" : 1645441949746,
    "duration" : 1539
  },
  "status" : "passed",
  "flaky" : false,
  "newFailed" : false,
  "beforeStages" : [ ],
  "testStage" : {
    "status" : "passed",
    "steps" : [ {
      "name" : "\"before each\" hook",
      "time" : {
        "start" : 1645441948210,
        "stop" : 1645441948211,
        "duration" : 1
      },
      "status" : "passed",
      "steps" : [ ],
      "attachments" : [ ],
      "parameters" : [ ],
      "stepsCount" : 0,
      "attachmentsCount" : 0,
      "shouldDisplayMessage" : false,
      "hasContent" : false
    }, {
      "name" : "Then User Validates Post Call",
      "time" : {
        "start" : 1645441948227,
        "stop" : 1645441949445,
        "duration" : 1218
      },
      "status" : "passed",
      "steps" : [ {
        "name" : "log https://gorest.co.in/public/v1/users",
        "time" : {
          "start" : 1645441948228,
          "stop" : 1645441948234,
          "duration" : 6
        },
        "status" : "passed",
        "steps" : [ ],
        "attachments" : [ ],
        "parameters" : [ ],
        "stepsCount" : 0,
        "attachmentsCount" : 0,
        "shouldDisplayMessage" : false,
        "hasContent" : false
      }, {
        "name" : "POST 201 https://gorest.co.in/public/v1/users",
        "time" : {
          "start" : 1645441948235,
          "stop" : 1645441949421,
          "duration" : 1186
        },
        "status" : "passed",
        "steps" : [ ],
        "attachments" : [ ],
        "parameters" : [ ],
        "stepsCount" : 0,
        "attachmentsCount" : 0,
        "shouldDisplayMessage" : false,
        "hasContent" : false
      }, {
        "name" : "log {\"body\":{\"meta\":null,\"data\":{\"id\":5025,\"name\":\"UJzMzEetsY\",\"email\":\"2jzur28BPi@gmail.com\",\"gender\":\"male\",\"status\":\"active\"}},\"headers\":{\"server\":\"nginx\",\"date\":\"Mon, 21 Feb 2022 11:12:29 GMT\",\"content-type\":\"application/json; charset=utf-8\",\"transfer-encoding\":\"chunked\",\"connection\":\"keep-alive\",\"x-frame-options\":\"SAMEORIGIN\",\"x-xss-protection\":\"0\",\"x-content-type-options\":\"nosniff\",\"x-download-options\":\"noopen\",\"x-permitted-cross-domain-policies\":\"none\",\"referrer-policy\":\"strict-origin-when-cross-origin\",\"x-ratelimit-limit\":\"90\",\"x-ratelimit-remaining\":\"86\",\"x-ratelimit-reset\":\"1\",\"location\":\"https://gorest.co.in/public/v1/users/5025\",\"etag\":\"W/\\\"5367d354b88cc9ff3063a4782c47858e\\\"\",\"cache-control\":\"max-age=0, private, must-revalidate\",\"x-request-id\":\"9224f549-e26c-441a-b358-677a9b1eaf3b\",\"x-runtime\":\"0.027317\",\"strict-transport-security\":\"max-age=63072000; includeSubDomains\",\"vary\":\"Origin\"},\"status\":201,\"statusText\":\"Created\",\"isOkStatusCode\":true,\"requestHeaders\":{\"Connection\":\"keep-alive\",\"authorization\":\"Bearer 4b4c8f088b43abd2c4328d13f40228324cda0ef0b05a86faaacb6fbd31a3124d\",\"user-agent\":\"Mozilla/5.0 (X11; Linux x86_64) AppleWebKit/537.36 (KHTML, like Gecko) HeadlessChrome/98.0.4758.80 Safari/537.36\",\"accept\":\"*/*\",\"accept-encoding\":\"gzip, deflate\",\"content-type\":\"application/json\",\"content-length\":86},\"requestBody\":\"{\\\"name\\\":\\\"UJzMzEetsY\\\",\\\"email\\\":\\\"2jzur28BPi@gmail.com\\\",\\\"gender\\\":\\\"Male\\\",\\\"status\\\":\\\"Active\\\"}\",\"duration\":1158,\"allRequestResponses\":[{\"Request Body\":\"{\\\"name\\\":\\\"UJzMzEetsY\\\",\\\"email\\\":\\\"2jzur28BPi@gmail.com\\\",\\\"gender\\\":\\\"Male\\\",\\\"status\\\":\\\"Active\\\"}\",\"Request Headers\":{\"Connection\":\"keep-alive\",\"authorization\":\"Bearer 4b4c8f088b43abd2c4328d13f40228324cda0ef0b05a86faaacb6fbd31a3124d\",\"user-agent\":\"Mozilla/5.0 (X11; Linux x86_64) AppleWebKit/537.36 (KHTML, like Gecko) HeadlessChrome/98.0.4758.80 Safari/537.36\",\"accept\":\"*/*\",\"accept-encoding\":\"gzip, deflate\",\"content-type\":\"application/json\",\"content-length\":86},\"Request URL\":\"https://gorest.co.in/public/v1/users\",\"Response Body\":{\"meta\":null,\"data\":{\"id\":5025,\"name\":\"UJzMzEetsY\",\"email\":\"2jzur28BPi@gmail.com\",\"gender\":\"male\",\"status\":\"active\"}},\"Response Headers\":{\"server\":\"nginx\",\"date\":\"Mon, 21 Feb 2022 11:12:29 GMT\",\"content-type\":\"application/json; charset=utf-8\",\"transfer-encoding\":\"chunked\",\"connection\":\"keep-alive\",\"x-frame-options\":\"SAMEORIGIN\",\"x-xss-protection\":\"0\",\"x-content-type-options\":\"nosniff\",\"x-download-options\":\"noopen\",\"x-permitted-cross-domain-policies\":\"none\",\"referrer-policy\":\"strict-origin-when-cross-origin\",\"x-ratelimit-limit\":\"90\",\"x-ratelimit-remaining\":\"86\",\"x-ratelimit-reset\":\"1\",\"location\":\"https://gorest.co.in/public/v1/users/5025\",\"etag\":\"W/\\\"5367d354b88cc9ff3063a4782c47858e\\\"\",\"cache-control\":\"max-age=0, private, must-revalidate\",\"x-request-id\":\"9224f549-e26c-441a-b358-677a9b1eaf3b\",\"x-runtime\":\"0.027317\",\"strict-transport-security\":\"max-age=63072000; includeSubDomains\",\"vary\":\"Origin\"},\"Response Status\":201}]}",
        "time" : {
          "start" : 1645441949430,
          "stop" : 1645441949437,
          "duration" : 7
        },
        "status" : "passed",
        "steps" : [ ],
        "attachments" : [ ],
        "parameters" : [ ],
        "stepsCount" : 0,
        "attachmentsCount" : 0,
        "shouldDisplayMessage" : false,
        "hasContent" : false
      } ],
      "attachments" : [ ],
      "parameters" : [ ],
      "stepsCount" : 3,
      "attachmentsCount" : 0,
      "shouldDisplayMessage" : false,
      "hasContent" : true
    }, {
      "name" : "Then User Validates Get Call",
      "time" : {
        "start" : 1645441949445,
        "stop" : 1645441949734,
        "duration" : 289
      },
      "status" : "passed",
      "steps" : [ {
        "name" : "GET 200 https://gorest.co.in/public/v1/users",
        "time" : {
          "start" : 1645441949446,
          "stop" : 1645441949711,
          "duration" : 265
        },
        "status" : "passed",
        "steps" : [ ],
        "attachments" : [ ],
        "parameters" : [ ],
        "stepsCount" : 0,
        "attachmentsCount" : 0,
        "shouldDisplayMessage" : false,
        "hasContent" : false
      }, {
        "name" : "log {\"body\":{\"meta\":{\"pagination\":{\"total\":4082,\"pages\":205,\"page\":1,\"limit\":20,\"links\":{\"previous\":null,\"current\":\"https://gorest.co.in/public/v1/users?page=1\",\"next\":\"https://gorest.co.in/public/v1/users?page=2\"}}},\"data\":[{\"id\":5025,\"name\":\"UJzMzEetsY\",\"email\":\"2jzur28BPi@gmail.com\",\"gender\":\"male\",\"status\":\"active\"},{\"id\":5009,\"name\":\"zeUbmVudIH\",\"email\":\"CcGm4dfzba@gmail.com\",\"gender\":\"male\",\"status\":\"active\"},{\"id\":5008,\"name\":\"LwMdHFzOKI\",\"email\":\"xYKjGgPTdy@gmail.com\",\"gender\":\"male\",\"status\":\"active\"},{\"id\":5007,\"name\":\"sgpRxCdgxS\",\"email\":\"FK4oak1CsM@gmail.com\",\"gender\":\"male\",\"status\":\"active\"},{\"id\":5006,\"name\":\"vanTwHLMyq\",\"email\":\"Yj2RPeaYlz@gmail.com\",\"gender\":\"male\",\"status\":\"active\"},{\"id\":4999,\"name\":\"ZTWiBTRViW\",\"email\":\"gGJ3E8cJvB@gmail.com\",\"gender\":\"male\",\"status\":\"active\"},{\"id\":4998,\"name\":\"eZuhqRgrlN\",\"email\":\"7VlJ1ofaCG@gmail.com\",\"gender\":\"male\",\"status\":\"active\"},{\"id\":4997,\"name\":\"zKZbPdkGCW\",\"email\":\"bSRfONv9tu@gmail.com\",\"gender\":\"male\",\"status\":\"active\"},{\"id\":4996,\"name\":\"SuwYubJpkw\",\"email\":\"kNayEhElp7@gmail.com\",\"gender\":\"male\",\"status\":\"active\"},{\"id\":4944,\"name\":\"HEuNhFDbLa\",\"email\":\"eGGyoykv8O@gmail.com\",\"gender\":\"male\",\"status\":\"active\"},{\"id\":4940,\"name\":\"GCeitcLZhV\",\"email\":\"QHZDK7O2n2@gmail.com\",\"gender\":\"male\",\"status\":\"active\"},{\"id\":4938,\"name\":\"WxJBSHnMqW\",\"email\":\"PXxcFZWCIp@gmail.com\",\"gender\":\"male\",\"status\":\"active\"},{\"id\":4937,\"name\":\"cdRkLtzSGZ\",\"email\":\"cIAKUOI53E@gmail.com\",\"gender\":\"male\",\"status\":\"active\"},{\"id\":4892,\"name\":\"PqcXMllXcK\",\"email\":\"J1udyKpSMD@gmail.com\",\"gender\":\"male\",\"status\":\"active\"},{\"id\":4891,\"name\":\"NvZiIHcZTg\",\"email\":\"oF5sL8vXUy@gmail.com\",\"gender\":\"male\",\"status\":\"active\"},{\"id\":4890,\"name\":\"VpCrNTMjsW\",\"email\":\"ecseVs5JQE@gmail.com\",\"gender\":\"male\",\"status\":\"active\"},{\"id\":4889,\"name\":\"QGpZwUhEEo\",\"email\":\"XdFiz9w6EZ@gmail.com\",\"gender\":\"male\",\"status\":\"active\"},{\"id\":4867,\"name\":\"ywWVFtqLNj\",\"email\":\"ZlHsVoxpSr@gmail.com\",\"gender\":\"male\",\"status\":\"active\"},{\"id\":4866,\"name\":\"TAbYRtkOxP\",\"email\":\"5fp5ZddwHh@gmail.com\",\"gender\":\"male\",\"status\":\"active\"},{\"id\":4865,\"name\":\"FmNGgyePco\",\"email\":\"Dts8ha95Fg@gmail.com\",\"gender\":\"male\",\"status\":\"active\"}]},\"headers\":{\"server\":\"nginx\",\"date\":\"Mon, 21 Feb 2022 11:12:29 GMT\",\"content-type\":\"application/json; charset=utf-8\",\"transfer-encoding\":\"chunked\",\"connection\":\"keep-alive\",\"vary\":\"Accept-Encoding, Origin\",\"x-frame-options\":\"SAMEORIGIN\",\"x-xss-protection\":\"0\",\"x-content-type-options\":\"nosniff\",\"x-download-options\":\"noopen\",\"x-permitted-cross-domain-policies\":\"none\",\"referrer-policy\":\"strict-origin-when-cross-origin\",\"x-ratelimit-limit\":\"90\",\"x-ratelimit-remaining\":\"89\",\"x-ratelimit-reset\":\"2\",\"etag\":\"W/\\\"dce14094550aec4bde662998193c371f\\\"\",\"cache-control\":\"max-age=0, private, must-revalidate\",\"x-request-id\":\"3c7e55fd-26f3-4d19-8fbe-bfe0f89e43dc\",\"x-runtime\":\"0.028645\",\"strict-transport-security\":\"max-age=63072000; includeSubDomains\",\"content-encoding\":\"gzip\"},\"status\":200,\"statusText\":\"OK\",\"isOkStatusCode\":true,\"requestHeaders\":{\"Connection\":\"keep-alive\",\"authorization\":\"Bearer 4b4c8f088b43abd2c4328d13f40228324cda0ef0b05a86faaacb6fbd31a3124d\",\"user-agent\":\"Mozilla/5.0 (X11; Linux x86_64) AppleWebKit/537.36 (KHTML, like Gecko) HeadlessChrome/98.0.4758.80 Safari/537.36\",\"accept\":\"*/*\",\"accept-encoding\":\"gzip, deflate\"},\"duration\":256,\"allRequestResponses\":[{\"Request Body\":null,\"Request Headers\":{\"Connection\":\"keep-alive\",\"authorization\":\"Bearer 4b4c8f088b43abd2c4328d13f40228324cda0ef0b05a86faaacb6fbd31a3124d\",\"user-agent\":\"Mozilla/5.0 (X11; Linux x86_64) AppleWebKit/537.36 (KHTML, like Gecko) HeadlessChrome/98.0.4758.80 Safari/537.36\",\"accept\":\"*/*\",\"accept-encoding\":\"gzip, deflate\"},\"Request URL\":\"https://gorest.co.in/public/v1/users\",\"Response Body\":\"{\\\"meta\\\":{\\\"pagination\\\":{\\\"total\\\":4082,\\\"pages\\\":205,\\\"page\\\":1,\\\"limit\\\":20,\\\"links\\\":{\\\"previous\\\":null,\\\"current\\\":\\\"https://gorest.co.in/public/v1/users?page=1\\\",\\\"next\\\":\\\"https://gorest.co.in/public/v1/users?page=2\\\"}}},\\\"data\\\":[{\\\"id\\\":5025,\\\"name\\\":\\\"UJzMzEetsY\\\",\\\"email\\\":\\\"2jzur28BPi@gmail.com\\\",\\\"gender\\\":\\\"male\\\",\\\"status\\\":\\\"active\\\"},{\\\"id\\\":5009,\\\"name\\\":\\\"zeUbmVudIH\\\",\\\"email\\\":\\\"CcGm4dfzba@gmail.com\\\",\\\"gender\\\":\\\"male\\\",\\\"status\\\":\\\"active\\\"},{\\\"id\\\":5008,\\\"name\\\":\\\"LwMdHFzOKI\\\",\\\"email\\\":\\\"xYKjGgPTdy@gmail.com\\\",\\\"gender\\\":\\\"male\\\",\\\"status\\\":\\\"active\\\"},{\\\"id\\\":5007,\\\"name\\\":\\\"sgpRxCdgxS\\\",\\\"email\\\":\\\"FK4oak1CsM@gmail.com\\\",\\\"gender\\\":\\\"male\\\",\\\"status\\\":\\\"active\\\"},{\\\"id\\\":5006,\\\"name\\\":\\\"vanTwHLMyq\\\",\\\"email\\\":\\\"Yj2RPeaYlz@gmail.com\\\",\\\"gender\\\":\\\"male\\\",\\\"status\\\":\\\"active\\\"},{\\\"id\\\":4999,\\\"name\\\":\\\"ZTWiBTRViW\\\",\\\"email\\\":\\\"gGJ3E8cJvB@gmail.com\\\",\\\"gender\\\":\\\"male\\\",\\\"status\\\":\\\"active\\\"},{\\\"id\\\":4998,\\\"name\\\":\\\"eZuhqRgrlN\\\",\\\"email\\\":\\\"7VlJ1ofaCG@gmail.com\\\",\\\"gender\\\":\\\"male\\\",\\\"status\\\":\\\"active\\\"},{\\\"id\\\":4997,\\\"name\\\":\\\"zKZbPdkGCW\\\",\\\"email\\\":\\\"bSRfONv9tu@gmail.com\\\",\\\"gender\\\":\\\"male\\\",\\\"status\\\":\\\"active\\\"},{\\\"id\\\":4996,\\\"name\\\":\\\"SuwYubJpkw\\\",\\\"email\\\":\\\"kNayEhElp7@gmail.com\\\",\\\"gender\\\":\\\"male\\\",\\\"status\\\":\\\"active\\\"},{\\\"id\\\":4944,\\\"name\\\":\\\"HEuNhFDbLa\\\",\\\"email\\\":\\\"eGGyoykv8O@gmail.com\\\",\\\"gender\\\":\\\"male\\\",\\\"status\\\":\\\"active\\\"},{\\\"id\\\":4940,\\\"name\\\":\\\"GCeitcLZhV\\\",\\\"email\\\":\\\"QHZDK7O2n2@gmail.com\\\",\\\"gender\\\":\\\"male\\\",\\\"status\\\":\\\"active\\\"},{\\\"id\\\":4938,\\\"name\\\":\\\"WxJBSHnMqW\\\",\\\"email\\\":\\\"PXxcFZWCIp@gmail.com\\\",\\\"gender\\\":\\\"male\\\",\\\"status\\\":\\\"active\\\"},{\\\"id\\\":4937,\\\"name\\\":\\\"cdRkLtzSGZ\\\",\\\"email\\\":\\\"cIAKUOI53E@gmail.com\\\",\\\"gender\\\":\\\"male\\\",\\\"status\\\":\\\"active\\\"},{\\\"id\\\":4892,\\\"name\\\":\\\"PqcXMllXcK\\\",\\\"email\\\":\\\"J1udyKpSMD@gmail.com\\\",\\\"gender\\\":\\\"male\\\",\\\"status\\\":\\\"active\\\"},{\\\"id\\\":4891,\\\"name\\\":\\\"NvZiIHcZTg\\\",\\\"email\\\":\\\"oF5sL8vXUy@gmail.com\\\",\\\"gender\\\":\\\"male\\\",\\\"status\\\":\\\"active\\\"},{\\\"id\\\":4890,\\\"name\\\":\\\"VpCrNTMjsW\\\",\\\"email\\\":\\\"ecseVs5JQE@gmail.com\\\",\\\"gender\\\":\\\"male\\\",\\\"status\\\":\\\"active\\\"},{\\\"id\\\":4889,\\\"name\\\":\\\"QGpZwUhEEo\\\",\\\"email\\\":\\\"XdFiz9w6EZ@gmail.com\\\",\\\"gender\\\":\\\"male\\\",\\\"status\\\":\\\"active\\\"},{\\\"id\\\":4867,\\\"name\\\":\\\"ywWVFtqLNj\\\",\\\"email\\\":\\\"ZlHsVoxpSr@gmail.com\\\",\\\"gender\\\":\\\"male\\\",\\\"status\\\":\\\"active\\\"},{\\\"id\\\":4866,\\\"name\\\":\\\"TAbYRtkOxP\\\",\\\"email\\\":\\\"5fp5ZddwHh@gmail.com\\\",\\\"gender\\\":\\\"male\\\",\\\"status\\\":\\\"active\\\"},{\\\"id\\\":4865,\\\"name\\\":\\\"FmNGgyePco\\\",\\\"email\\\":\\\"Dts8ha95Fg@gmail.com\\\",\\\"gender\\\":\\\"male\\\",\\\"status\\\":\\\"active\\\"}]}\",\"Response Headers\":{\"server\":\"nginx\",\"date\":\"Mon, 21 Feb 2022 11:12:29 GMT\",\"content-type\":\"application/json; charset=utf-8\",\"transfer-encoding\":\"chunked\",\"connection\":\"keep-alive\",\"vary\":\"Accept-Encoding, Origin\",\"x-frame-options\":\"SAMEORIGIN\",\"x-xss-protection\":\"0\",\"x-content-type-options\":\"nosniff\",\"x-download-options\":\"noopen\",\"x-permitted-cross-domain-policies\":\"none\",\"referrer-policy\":\"strict-origin-when-cross-origin\",\"x-ratelimit-limit\":\"90\",\"x-ratelimit-remaining\":\"89\",\"x-ratelimit-reset\":\"2\",\"etag\":\"W/\\\"dce14094550aec4bde662998193c371f\\\"\",\"cache-control\":\"max-age=0, private, must-revalidate\",\"x-request-id\":\"3c7e55fd-26f3-4d19-8fbe-bfe0f89e43dc\",\"x-runtime\":\"0.028645\",\"strict-transport-security\":\"max-age=63072000; includeSubDomains\",\"content-encoding\":\"gzip\"},\"Response Status\":200}]}",
        "time" : {
          "start" : 1645441949715,
          "stop" : 1645441949724,
          "duration" : 9
        },
        "status" : "passed",
        "steps" : [ ],
        "attachments" : [ ],
        "parameters" : [ ],
        "stepsCount" : 0,
        "attachmentsCount" : 0,
        "shouldDisplayMessage" : false,
        "hasContent" : false
      } ],
      "attachments" : [ ],
      "parameters" : [ ],
      "stepsCount" : 2,
      "attachmentsCount" : 0,
      "shouldDisplayMessage" : false,
      "hasContent" : true
    }, {
      "name" : "Then User Validates Put Call",
      "time" : {
        "start" : 1645441949734,
        "stop" : 1645441949741,
        "duration" : 7
      },
      "status" : "passed",
      "steps" : [ {
        "name" : "log Put Method",
        "time" : {
          "start" : 1645441949735,
          "stop" : 1645441949738,
          "duration" : 3
        },
        "status" : "passed",
        "steps" : [ ],
        "attachments" : [ ],
        "parameters" : [ ],
        "stepsCount" : 0,
        "attachmentsCount" : 0,
        "shouldDisplayMessage" : false,
        "hasContent" : false
      } ],
      "attachments" : [ ],
      "parameters" : [ ],
      "stepsCount" : 1,
      "attachmentsCount" : 0,
      "shouldDisplayMessage" : false,
      "hasContent" : true
    }, {
      "name" : "Then User Validates Delete Call",
      "time" : {
        "start" : 1645441949741,
        "stop" : 1645441949745,
        "duration" : 4
      },
      "status" : "passed",
      "steps" : [ {
        "name" : "log Delete Method",
        "time" : {
          "start" : 1645441949741,
          "stop" : 1645441949744,
          "duration" : 3
        },
        "status" : "passed",
        "steps" : [ ],
        "attachments" : [ ],
        "parameters" : [ ],
        "stepsCount" : 0,
        "attachmentsCount" : 0,
        "shouldDisplayMessage" : false,
        "hasContent" : false
      } ],
      "attachments" : [ ],
      "parameters" : [ ],
      "stepsCount" : 1,
      "attachmentsCount" : 0,
      "shouldDisplayMessage" : false,
      "hasContent" : true
    }, {
      "name" : "\"after each\" hook",
      "time" : {
        "start" : 1645441949766,
        "stop" : 1645441949768,
        "duration" : 2
      },
      "status" : "passed",
      "steps" : [ ],
      "attachments" : [ ],
      "parameters" : [ ],
      "stepsCount" : 0,
      "attachmentsCount" : 0,
      "shouldDisplayMessage" : false,
      "hasContent" : false
    } ],
    "attachments" : [ {
      "uid" : "c5251c35b832f753",
      "name" : "video recording",
      "source" : "c5251c35b832f753.mp4",
      "type" : "video/mp4",
      "size" : 331276
    } ],
    "parameters" : [ ],
    "stepsCount" : 13,
    "attachmentsCount" : 1,
    "shouldDisplayMessage" : false,
    "hasContent" : true
  },
  "afterStages" : [ ],
  "labels" : [ {
    "name" : "suite",
    "value" : "API"
  }, {
    "name" : "feature",
    "value" : "Test E2E"
  }, {
    "name" : "tag",
    "value" : "Smoke"
  }, {
    "name" : "resultFormat",
    "value" : "allure2"
  } ],
  "parameters" : [ ],
  "links" : [ ],
  "hidden" : true,
  "retry" : true,
  "extra" : {
    "categories" : [ ],
    "tags" : [ "Smoke" ]
  },
  "source" : "4c9619b7ca0d6ee9.json",
  "parameterValues" : [ ]
}