{
  "uid" : "54c1fe539ab1316a",
  "name" : "TC002:Validate API Test",
  "fullName" : "TC002:Validate API Test",
  "historyId" : "f33da67a3de8eeca43913d49b621a687",
  "time" : {
    "start" : 1645412111495,
    "stop" : 1645412113146,
    "duration" : 1651
  },
  "status" : "passed",
  "flaky" : false,
  "newFailed" : false,
  "beforeStages" : [ ],
  "testStage" : {
    "status" : "passed",
    "steps" : [ {
      "name" : "\"before each\" hook",
      "time" : {
        "start" : 1645412111498,
        "stop" : 1645412111499,
        "duration" : 1
      },
      "status" : "passed",
      "steps" : [ ],
      "attachments" : [ ],
      "parameters" : [ ],
      "attachmentsCount" : 0,
      "shouldDisplayMessage" : false,
      "hasContent" : false,
      "stepsCount" : 0
    }, {
      "name" : "Then User Validates Post Call",
      "time" : {
        "start" : 1645412111521,
        "stop" : 1645412112808,
        "duration" : 1287
      },
      "status" : "passed",
      "steps" : [ {
        "name" : "log https://gorest.co.in/public/v1/users",
        "time" : {
          "start" : 1645412111523,
          "stop" : 1645412111531,
          "duration" : 8
        },
        "status" : "passed",
        "steps" : [ ],
        "attachments" : [ ],
        "parameters" : [ ],
        "attachmentsCount" : 0,
        "shouldDisplayMessage" : false,
        "hasContent" : false,
        "stepsCount" : 0
      }, {
        "name" : "POST 201 https://gorest.co.in/public/v1/users",
        "time" : {
          "start" : 1645412111532,
          "stop" : 1645412112767,
          "duration" : 1235
        },
        "status" : "passed",
        "steps" : [ ],
        "attachments" : [ ],
        "parameters" : [ ],
        "attachmentsCount" : 0,
        "shouldDisplayMessage" : false,
        "hasContent" : false,
        "stepsCount" : 0
      }, {
        "name" : "log {\"body\":{\"meta\":null,\"data\":{\"id\":4240,\"name\":\"pCQVJXdjLf\",\"email\":\"XW7Hfy7df3@gmail.com\",\"gender\":\"male\",\"status\":\"active\"}},\"headers\":{\"server\":\"nginx\",\"date\":\"Mon, 21 Feb 2022 02:55:12 GMT\",\"content-type\":\"application/json; charset=utf-8\",\"transfer-encoding\":\"chunked\",\"connection\":\"keep-alive\",\"x-frame-options\":\"SAMEORIGIN\",\"x-xss-protection\":\"0\",\"x-content-type-options\":\"nosniff\",\"x-download-options\":\"noopen\",\"x-permitted-cross-domain-policies\":\"none\",\"referrer-policy\":\"strict-origin-when-cross-origin\",\"x-ratelimit-limit\":\"90\",\"x-ratelimit-remaining\":\"88\",\"x-ratelimit-reset\":\"1\",\"location\":\"https://gorest.co.in/public/v1/users/4240\",\"etag\":\"W/\\\"31f330692c224277586dd9c89838e604\\\"\",\"cache-control\":\"max-age=0, private, must-revalidate\",\"x-request-id\":\"fc02f9e0-4d05-490a-a8b9-10e714b59527\",\"x-runtime\":\"0.039131\",\"strict-transport-security\":\"max-age=63072000; includeSubDomains\",\"vary\":\"Origin\"},\"status\":201,\"statusText\":\"Created\",\"isOkStatusCode\":true,\"requestHeaders\":{\"Connection\":\"keep-alive\",\"authorization\":\"Bearer 4b4c8f088b43abd2c4328d13f40228324cda0ef0b05a86faaacb6fbd31a3124d\",\"user-agent\":\"Mozilla/5.0 (X11; Ubuntu; Linux x86_64; rv:96.0) Gecko/20100101 Firefox/96.0\",\"accept\":\"*/*\",\"accept-encoding\":\"gzip, deflate\",\"content-type\":\"application/json\",\"content-length\":86},\"requestBody\":\"{\\\"name\\\":\\\"pCQVJXdjLf\\\",\\\"email\\\":\\\"XW7Hfy7df3@gmail.com\\\",\\\"gender\\\":\\\"Male\\\",\\\"status\\\":\\\"Active\\\"}\",\"duration\":1197,\"allRequestResponses\":[{\"Request Body\":\"{\\\"name\\\":\\\"pCQVJXdjLf\\\",\\\"email\\\":\\\"XW7Hfy7df3@gmail.com\\\",\\\"gender\\\":\\\"Male\\\",\\\"status\\\":\\\"Active\\\"}\",\"Request Headers\":{\"Connection\":\"keep-alive\",\"authorization\":\"Bearer 4b4c8f088b43abd2c4328d13f40228324cda0ef0b05a86faaacb6fbd31a3124d\",\"user-agent\":\"Mozilla/5.0 (X11; Ubuntu; Linux x86_64; rv:96.0) Gecko/20100101 Firefox/96.0\",\"accept\":\"*/*\",\"accept-encoding\":\"gzip, deflate\",\"content-type\":\"application/json\",\"content-length\":86},\"Request URL\":\"https://gorest.co.in/public/v1/users\",\"Response Body\":{\"meta\":null,\"data\":{\"id\":4240,\"name\":\"pCQVJXdjLf\",\"email\":\"XW7Hfy7df3@gmail.com\",\"gender\":\"male\",\"status\":\"active\"}},\"Response Headers\":{\"server\":\"nginx\",\"date\":\"Mon, 21 Feb 2022 02:55:12 GMT\",\"content-type\":\"application/json; charset=utf-8\",\"transfer-encoding\":\"chunked\",\"connection\":\"keep-alive\",\"x-frame-options\":\"SAMEORIGIN\",\"x-xss-protection\":\"0\",\"x-content-type-options\":\"nosniff\",\"x-download-options\":\"noopen\",\"x-permitted-cross-domain-policies\":\"none\",\"referrer-policy\":\"strict-origin-when-cross-origin\",\"x-ratelimit-limit\":\"90\",\"x-ratelimit-remaining\":\"88\",\"x-ratelimit-reset\":\"1\",\"location\":\"https://gorest.co.in/public/v1/users/4240\",\"etag\":\"W/\\\"31f330692c224277586dd9c89838e604\\\"\",\"cache-control\":\"max-age=0, private, must-revalidate\",\"x-request-id\":\"fc02f9e0-4d05-490a-a8b9-10e714b59527\",\"x-runtime\":\"0.039131\",\"strict-transport-security\":\"max-age=63072000; includeSubDomains\",\"vary\":\"Origin\"},\"Response Status\":201}]}",
        "time" : {
          "start" : 1645412112779,
          "stop" : 1645412112791,
          "duration" : 12
        },
        "status" : "passed",
        "steps" : [ ],
        "attachments" : [ ],
        "parameters" : [ ],
        "attachmentsCount" : 0,
        "shouldDisplayMessage" : false,
        "hasContent" : false,
        "stepsCount" : 0
      } ],
      "attachments" : [ ],
      "parameters" : [ ],
      "attachmentsCount" : 0,
      "shouldDisplayMessage" : false,
      "hasContent" : true,
      "stepsCount" : 3
    }, {
      "name" : "Then User Validates Get Call",
      "time" : {
        "start" : 1645412112808,
        "stop" : 1645412113119,
        "duration" : 311
      },
      "status" : "passed",
      "steps" : [ {
        "name" : "GET 200 https://gorest.co.in/public/v1/users",
        "time" : {
          "start" : 1645412112810,
          "stop" : 1645412113081,
          "duration" : 271
        },
        "status" : "passed",
        "steps" : [ ],
        "attachments" : [ ],
        "parameters" : [ ],
        "attachmentsCount" : 0,
        "shouldDisplayMessage" : false,
        "hasContent" : false,
        "stepsCount" : 0
      }, {
        "name" : "log {\"body\":{\"meta\":{\"pagination\":{\"total\":4117,\"pages\":206,\"page\":1,\"limit\":20,\"links\":{\"previous\":null,\"current\":\"https://gorest.co.in/public/v1/users?page=1\",\"next\":\"https://gorest.co.in/public/v1/users?page=2\"}}},\"data\":[{\"id\":4240,\"name\":\"pCQVJXdjLf\",\"email\":\"XW7Hfy7df3@gmail.com\",\"gender\":\"male\",\"status\":\"active\"},{\"id\":4239,\"name\":\"fnyMJPjusH\",\"email\":\"SuMATV1KFT@gmail.com\",\"gender\":\"male\",\"status\":\"active\"},{\"id\":4232,\"name\":\"tQQDjCFucq\",\"email\":\"HaUPgR7f7D@gmail.com\",\"gender\":\"male\",\"status\":\"active\"},{\"id\":4231,\"name\":\"BBIWzaozIo\",\"email\":\"Wu0lKge2h6@gmail.com\",\"gender\":\"male\",\"status\":\"active\"},{\"id\":4230,\"name\":\"eEnvEHzKlD\",\"email\":\"ZuhBRH8Shb@gmail.com\",\"gender\":\"male\",\"status\":\"active\"},{\"id\":4229,\"name\":\"vyhJuauINg\",\"email\":\"7uqT745AC4@gmail.com\",\"gender\":\"male\",\"status\":\"active\"},{\"id\":4143,\"name\":\"Amb. Ghanaanand Abbott\",\"email\":\"abbott_amb_ghanaanand@kassulke.info\",\"gender\":\"female\",\"status\":\"active\"},{\"id\":4141,\"name\":\"Prof. Baijayanti Khanna\",\"email\":\"khanna_baijayanti_prof@kulas-schuster.biz\",\"gender\":\"female\",\"status\":\"active\"},{\"id\":4138,\"name\":\"Chandini Butt\",\"email\":\"chandini_butt@bergnaum-hartmann.com\",\"gender\":\"male\",\"status\":\"inactive\"},{\"id\":4137,\"name\":\"Daiwik Marar\",\"email\":\"daiwik_marar@torp.co\",\"gender\":\"male\",\"status\":\"inactive\"},{\"id\":4134,\"name\":\"Fr. Kali Iyer\",\"email\":\"fr_kali_iyer@wehner.net\",\"gender\":\"female\",\"status\":\"inactive\"},{\"id\":4133,\"name\":\"Baalagopaal Butt\",\"email\":\"butt_baalagopaal@deckow.net\",\"gender\":\"female\",\"status\":\"inactive\"},{\"id\":4132,\"name\":\"Gautam Chaturvedi\",\"email\":\"chaturvedi_gautam@tromp-kunze.info\",\"gender\":\"female\",\"status\":\"inactive\"},{\"id\":4131,\"name\":\"Bhoopat Iyengar\",\"email\":\"bhoopat_iyengar@davis-langworth.com\",\"gender\":\"female\",\"status\":\"inactive\"},{\"id\":4125,\"name\":\"Aashritha Tagore CPA\",\"email\":\"cpa_tagore_aashritha@barton-daugherty.name\",\"gender\":\"female\",\"status\":\"active\"},{\"id\":4124,\"name\":\"The Hon. Manjusha Varman\",\"email\":\"the_manjusha_varman_hon@heathcote.com\",\"gender\":\"female\",\"status\":\"active\"},{\"id\":4122,\"name\":\"Akshata Pilla\",\"email\":\"akshata_pilla@roberts.com\",\"gender\":\"female\",\"status\":\"active\"},{\"id\":4121,\"name\":\"Daiwik Mishra\",\"email\":\"mishra_daiwik@howe-howell.co\",\"gender\":\"male\",\"status\":\"active\"},{\"id\":4120,\"name\":\"Atmananda Sinha\",\"email\":\"atmananda_sinha@stehr.co\",\"gender\":\"female\",\"status\":\"active\"},{\"id\":4119,\"name\":\"Jay Varrier III\",\"email\":\"jay_varrier_iii@roob.co\",\"gender\":\"female\",\"status\":\"inactive\"}]},\"headers\":{\"server\":\"nginx\",\"date\":\"Mon, 21 Feb 2022 02:55:12 GMT\",\"content-type\":\"application/json; charset=utf-8\",\"transfer-encoding\":\"chunked\",\"connection\":\"keep-alive\",\"vary\":\"Accept-Encoding, Origin\",\"x-frame-options\":\"SAMEORIGIN\",\"x-xss-protection\":\"0\",\"x-content-type-options\":\"nosniff\",\"x-download-options\":\"noopen\",\"x-permitted-cross-domain-policies\":\"none\",\"referrer-policy\":\"strict-origin-when-cross-origin\",\"x-ratelimit-limit\":\"90\",\"x-ratelimit-remaining\":\"89\",\"x-ratelimit-reset\":\"2\",\"etag\":\"W/\\\"395e4693570826859784746c537e7e6f\\\"\",\"cache-control\":\"max-age=0, private, must-revalidate\",\"x-request-id\":\"ae661b14-3a05-4977-98e2-f66af603050a\",\"x-runtime\":\"0.021516\",\"strict-transport-security\":\"max-age=63072000; includeSubDomains\",\"content-encoding\":\"gzip\"},\"status\":200,\"statusText\":\"OK\",\"isOkStatusCode\":true,\"requestHeaders\":{\"Connection\":\"keep-alive\",\"authorization\":\"Bearer 4b4c8f088b43abd2c4328d13f40228324cda0ef0b05a86faaacb6fbd31a3124d\",\"user-agent\":\"Mozilla/5.0 (X11; Ubuntu; Linux x86_64; rv:96.0) Gecko/20100101 Firefox/96.0\",\"accept\":\"*/*\",\"accept-encoding\":\"gzip, deflate\"},\"duration\":254,\"allRequestResponses\":[{\"Request Body\":null,\"Request Headers\":{\"Connection\":\"keep-alive\",\"authorization\":\"Bearer 4b4c8f088b43abd2c4328d13f40228324cda0ef0b05a86faaacb6fbd31a3124d\",\"user-agent\":\"Mozilla/5.0 (X11; Ubuntu; Linux x86_64; rv:96.0) Gecko/20100101 Firefox/96.0\",\"accept\":\"*/*\",\"accept-encoding\":\"gzip, deflate\"},\"Request URL\":\"https://gorest.co.in/public/v1/users\",\"Response Body\":\"{\\\"meta\\\":{\\\"pagination\\\":{\\\"total\\\":4117,\\\"pages\\\":206,\\\"page\\\":1,\\\"limit\\\":20,\\\"links\\\":{\\\"previous\\\":null,\\\"current\\\":\\\"https://gorest.co.in/public/v1/users?page=1\\\",\\\"next\\\":\\\"https://gorest.co.in/public/v1/users?page=2\\\"}}},\\\"data\\\":[{\\\"id\\\":4240,\\\"name\\\":\\\"pCQVJXdjLf\\\",\\\"email\\\":\\\"XW7Hfy7df3@gmail.com\\\",\\\"gender\\\":\\\"male\\\",\\\"status\\\":\\\"active\\\"},{\\\"id\\\":4239,\\\"name\\\":\\\"fnyMJPjusH\\\",\\\"email\\\":\\\"SuMATV1KFT@gmail.com\\\",\\\"gender\\\":\\\"male\\\",\\\"status\\\":\\\"active\\\"},{\\\"id\\\":4232,\\\"name\\\":\\\"tQQDjCFucq\\\",\\\"email\\\":\\\"HaUPgR7f7D@gmail.com\\\",\\\"gender\\\":\\\"male\\\",\\\"status\\\":\\\"active\\\"},{\\\"id\\\":4231,\\\"name\\\":\\\"BBIWzaozIo\\\",\\\"email\\\":\\\"Wu0lKge2h6@gmail.com\\\",\\\"gender\\\":\\\"male\\\",\\\"status\\\":\\\"active\\\"},{\\\"id\\\":4230,\\\"name\\\":\\\"eEnvEHzKlD\\\",\\\"email\\\":\\\"ZuhBRH8Shb@gmail.com\\\",\\\"gender\\\":\\\"male\\\",\\\"status\\\":\\\"active\\\"},{\\\"id\\\":4229,\\\"name\\\":\\\"vyhJuauINg\\\",\\\"email\\\":\\\"7uqT745AC4@gmail.com\\\",\\\"gender\\\":\\\"male\\\",\\\"status\\\":\\\"active\\\"},{\\\"id\\\":4143,\\\"name\\\":\\\"Amb. Ghanaanand Abbott\\\",\\\"email\\\":\\\"abbott_amb_ghanaanand@kassulke.info\\\",\\\"gender\\\":\\\"female\\\",\\\"status\\\":\\\"active\\\"},{\\\"id\\\":4141,\\\"name\\\":\\\"Prof. Baijayanti Khanna\\\",\\\"email\\\":\\\"khanna_baijayanti_prof@kulas-schuster.biz\\\",\\\"gender\\\":\\\"female\\\",\\\"status\\\":\\\"active\\\"},{\\\"id\\\":4138,\\\"name\\\":\\\"Chandini Butt\\\",\\\"email\\\":\\\"chandini_butt@bergnaum-hartmann.com\\\",\\\"gender\\\":\\\"male\\\",\\\"status\\\":\\\"inactive\\\"},{\\\"id\\\":4137,\\\"name\\\":\\\"Daiwik Marar\\\",\\\"email\\\":\\\"daiwik_marar@torp.co\\\",\\\"gender\\\":\\\"male\\\",\\\"status\\\":\\\"inactive\\\"},{\\\"id\\\":4134,\\\"name\\\":\\\"Fr. Kali Iyer\\\",\\\"email\\\":\\\"fr_kali_iyer@wehner.net\\\",\\\"gender\\\":\\\"female\\\",\\\"status\\\":\\\"inactive\\\"},{\\\"id\\\":4133,\\\"name\\\":\\\"Baalagopaal Butt\\\",\\\"email\\\":\\\"butt_baalagopaal@deckow.net\\\",\\\"gender\\\":\\\"female\\\",\\\"status\\\":\\\"inactive\\\"},{\\\"id\\\":4132,\\\"name\\\":\\\"Gautam Chaturvedi\\\",\\\"email\\\":\\\"chaturvedi_gautam@tromp-kunze.info\\\",\\\"gender\\\":\\\"female\\\",\\\"status\\\":\\\"inactive\\\"},{\\\"id\\\":4131,\\\"name\\\":\\\"Bhoopat Iyengar\\\",\\\"email\\\":\\\"bhoopat_iyengar@davis-langworth.com\\\",\\\"gender\\\":\\\"female\\\",\\\"status\\\":\\\"inactive\\\"},{\\\"id\\\":4125,\\\"name\\\":\\\"Aashritha Tagore CPA\\\",\\\"email\\\":\\\"cpa_tagore_aashritha@barton-daugherty.name\\\",\\\"gender\\\":\\\"female\\\",\\\"status\\\":\\\"active\\\"},{\\\"id\\\":4124,\\\"name\\\":\\\"The Hon. Manjusha Varman\\\",\\\"email\\\":\\\"the_manjusha_varman_hon@heathcote.com\\\",\\\"gender\\\":\\\"female\\\",\\\"status\\\":\\\"active\\\"},{\\\"id\\\":4122,\\\"name\\\":\\\"Akshata Pilla\\\",\\\"email\\\":\\\"akshata_pilla@roberts.com\\\",\\\"gender\\\":\\\"female\\\",\\\"status\\\":\\\"active\\\"},{\\\"id\\\":4121,\\\"name\\\":\\\"Daiwik Mishra\\\",\\\"email\\\":\\\"mishra_daiwik@howe-howell.co\\\",\\\"gender\\\":\\\"male\\\",\\\"status\\\":\\\"active\\\"},{\\\"id\\\":4120,\\\"name\\\":\\\"Atmananda Sinha\\\",\\\"email\\\":\\\"atmananda_sinha@stehr.co\\\",\\\"gender\\\":\\\"female\\\",\\\"status\\\":\\\"active\\\"},{\\\"id\\\":4119,\\\"name\\\":\\\"Jay Varrier III\\\",\\\"email\\\":\\\"jay_varrier_iii@roob.co\\\",\\\"gender\\\":\\\"female\\\",\\\"status\\\":\\\"inactive\\\"}]}\",\"Response Headers\":{\"server\":\"nginx\",\"date\":\"Mon, 21 Feb 2022 02:55:12 GMT\",\"content-type\":\"application/json; charset=utf-8\",\"transfer-encoding\":\"chunked\",\"connection\":\"keep-alive\",\"vary\":\"Accept-Encoding, Origin\",\"x-frame-options\":\"SAMEORIGIN\",\"x-xss-protection\":\"0\",\"x-content-type-options\":\"nosniff\",\"x-download-options\":\"noopen\",\"x-permitted-cross-domain-policies\":\"none\",\"referrer-policy\":\"strict-origin-when-cross-origin\",\"x-ratelimit-limit\":\"90\",\"x-ratelimit-remaining\":\"89\",\"x-ratelimit-reset\":\"2\",\"etag\":\"W/\\\"395e4693570826859784746c537e7e6f\\\"\",\"cache-control\":\"max-age=0, private, must-revalidate\",\"x-request-id\":\"ae661b14-3a05-4977-98e2-f66af603050a\",\"x-runtime\":\"0.021516\",\"strict-transport-security\":\"max-age=63072000; includeSubDomains\",\"content-encoding\":\"gzip\"},\"Response Status\":200}]}",
        "time" : {
          "start" : 1645412113091,
          "stop" : 1645412113104,
          "duration" : 13
        },
        "status" : "passed",
        "steps" : [ ],
        "attachments" : [ ],
        "parameters" : [ ],
        "attachmentsCount" : 0,
        "shouldDisplayMessage" : false,
        "hasContent" : false,
        "stepsCount" : 0
      } ],
      "attachments" : [ ],
      "parameters" : [ ],
      "attachmentsCount" : 0,
      "shouldDisplayMessage" : false,
      "hasContent" : true,
      "stepsCount" : 2
    }, {
      "name" : "Then User Validates Put Call",
      "time" : {
        "start" : 1645412113119,
        "stop" : 1645412113134,
        "duration" : 15
      },
      "status" : "passed",
      "steps" : [ {
        "name" : "log Put Method",
        "time" : {
          "start" : 1645412113121,
          "stop" : 1645412113129,
          "duration" : 8
        },
        "status" : "passed",
        "steps" : [ ],
        "attachments" : [ ],
        "parameters" : [ ],
        "attachmentsCount" : 0,
        "shouldDisplayMessage" : false,
        "hasContent" : false,
        "stepsCount" : 0
      } ],
      "attachments" : [ ],
      "parameters" : [ ],
      "attachmentsCount" : 0,
      "shouldDisplayMessage" : false,
      "hasContent" : true,
      "stepsCount" : 1
    }, {
      "name" : "Then User Validates Delete Call",
      "time" : {
        "start" : 1645412113133,
        "stop" : 1645412113145,
        "duration" : 12
      },
      "status" : "passed",
      "steps" : [ {
        "name" : "log Delete Method",
        "time" : {
          "start" : 1645412113135,
          "stop" : 1645412113139,
          "duration" : 4
        },
        "status" : "passed",
        "steps" : [ ],
        "attachments" : [ ],
        "parameters" : [ ],
        "attachmentsCount" : 0,
        "shouldDisplayMessage" : false,
        "hasContent" : false,
        "stepsCount" : 0
      } ],
      "attachments" : [ ],
      "parameters" : [ ],
      "attachmentsCount" : 0,
      "shouldDisplayMessage" : false,
      "hasContent" : true,
      "stepsCount" : 1
    }, {
      "name" : "\"after each\" hook",
      "time" : {
        "start" : 1645412113166,
        "stop" : 1645412113170,
        "duration" : 4
      },
      "status" : "passed",
      "steps" : [ ],
      "attachments" : [ ],
      "parameters" : [ ],
      "attachmentsCount" : 0,
      "shouldDisplayMessage" : false,
      "hasContent" : false,
      "stepsCount" : 0
    } ],
    "attachments" : [ {
      "name" : "video recording",
      "type" : "video/mp4",
      "size" : 0
    } ],
    "parameters" : [ ],
    "attachmentsCount" : 1,
    "shouldDisplayMessage" : false,
    "hasContent" : true,
    "stepsCount" : 13
  },
  "afterStages" : [ ],
  "labels" : [ {
    "name" : "suite",
    "value" : "API"
  }, {
    "name" : "feature",
    "value" : "Test E2E"
  }, {
    "name" : "tag",
    "value" : "Regression"
  }, {
    "name" : "resultFormat",
    "value" : "allure2"
  } ],
  "parameters" : [ ],
  "links" : [ ],
  "hidden" : true,
  "retry" : true,
  "extra" : {
    "categories" : [ ],
    "tags" : [ "Regression" ]
  },
  "source" : "54c1fe539ab1316a.json",
  "parameterValues" : [ ]
}