{
  "uid" : "5bcd266f26f184b7",
  "name" : "TC001:Validate API Test",
  "fullName" : "TC001:Validate API Test",
  "historyId" : "a1430cd4396ea6d56fa0213f6fd58bff",
  "time" : {
    "start" : 1645441589070,
    "stop" : 1645441590713,
    "duration" : 1643
  },
  "status" : "passed",
  "flaky" : false,
  "newFailed" : false,
  "beforeStages" : [ ],
  "testStage" : {
    "status" : "passed",
    "steps" : [ {
      "name" : "\"before each\" hook",
      "time" : {
        "start" : 1645441589074,
        "stop" : 1645441589075,
        "duration" : 1
      },
      "status" : "passed",
      "steps" : [ ],
      "attachments" : [ ],
      "parameters" : [ ],
      "stepsCount" : 0,
      "attachmentsCount" : 0,
      "shouldDisplayMessage" : false,
      "hasContent" : false
    }, {
      "name" : "Then User Validates Post Call",
      "time" : {
        "start" : 1645441589089,
        "stop" : 1645441590410,
        "duration" : 1321
      },
      "status" : "passed",
      "steps" : [ {
        "name" : "log https://gorest.co.in/public/v1/users",
        "time" : {
          "start" : 1645441589091,
          "stop" : 1645441589094,
          "duration" : 3
        },
        "status" : "passed",
        "steps" : [ ],
        "attachments" : [ ],
        "parameters" : [ ],
        "stepsCount" : 0,
        "attachmentsCount" : 0,
        "shouldDisplayMessage" : false,
        "hasContent" : false
      }, {
        "name" : "POST 201 https://gorest.co.in/public/v1/users",
        "time" : {
          "start" : 1645441589095,
          "stop" : 1645441590397,
          "duration" : 1302
        },
        "status" : "passed",
        "steps" : [ ],
        "attachments" : [ ],
        "parameters" : [ ],
        "stepsCount" : 0,
        "attachmentsCount" : 0,
        "shouldDisplayMessage" : false,
        "hasContent" : false
      }, {
        "name" : "log {\"body\":{\"meta\":null,\"data\":{\"id\":5009,\"name\":\"zeUbmVudIH\",\"email\":\"CcGm4dfzba@gmail.com\",\"gender\":\"male\",\"status\":\"active\"}},\"headers\":{\"server\":\"nginx\",\"date\":\"Mon, 21 Feb 2022 11:06:30 GMT\",\"content-type\":\"application/json; charset=utf-8\",\"transfer-encoding\":\"chunked\",\"connection\":\"keep-alive\",\"x-frame-options\":\"SAMEORIGIN\",\"x-xss-protection\":\"0\",\"x-content-type-options\":\"nosniff\",\"x-download-options\":\"noopen\",\"x-permitted-cross-domain-policies\":\"none\",\"referrer-policy\":\"strict-origin-when-cross-origin\",\"x-ratelimit-limit\":\"90\",\"x-ratelimit-remaining\":\"88\",\"x-ratelimit-reset\":\"2\",\"location\":\"https://gorest.co.in/public/v1/users/5009\",\"etag\":\"W/\\\"772565e1387dd53a8f1c0a12012c598d\\\"\",\"cache-control\":\"max-age=0, private, must-revalidate\",\"x-request-id\":\"9a78eaef-6bbf-4ed6-89a8-1d4863eda04c\",\"x-runtime\":\"0.035271\",\"strict-transport-security\":\"max-age=63072000; includeSubDomains\",\"vary\":\"Origin\"},\"status\":201,\"statusText\":\"Created\",\"isOkStatusCode\":true,\"requestHeaders\":{\"Connection\":\"keep-alive\",\"authorization\":\"Bearer 4b4c8f088b43abd2c4328d13f40228324cda0ef0b05a86faaacb6fbd31a3124d\",\"user-agent\":\"Mozilla/5.0 (X11; Linux x86_64) AppleWebKit/537.36 (KHTML, like Gecko) HeadlessChrome/98.0.4758.80 Safari/537.36\",\"accept\":\"*/*\",\"accept-encoding\":\"gzip, deflate\",\"content-type\":\"application/json\",\"content-length\":86},\"requestBody\":\"{\\\"name\\\":\\\"zeUbmVudIH\\\",\\\"email\\\":\\\"CcGm4dfzba@gmail.com\\\",\\\"gender\\\":\\\"Male\\\",\\\"status\\\":\\\"Active\\\"}\",\"duration\":1279,\"allRequestResponses\":[{\"Request Body\":\"{\\\"name\\\":\\\"zeUbmVudIH\\\",\\\"email\\\":\\\"CcGm4dfzba@gmail.com\\\",\\\"gender\\\":\\\"Male\\\",\\\"status\\\":\\\"Active\\\"}\",\"Request Headers\":{\"Connection\":\"keep-alive\",\"authorization\":\"Bearer 4b4c8f088b43abd2c4328d13f40228324cda0ef0b05a86faaacb6fbd31a3124d\",\"user-agent\":\"Mozilla/5.0 (X11; Linux x86_64) AppleWebKit/537.36 (KHTML, like Gecko) HeadlessChrome/98.0.4758.80 Safari/537.36\",\"accept\":\"*/*\",\"accept-encoding\":\"gzip, deflate\",\"content-type\":\"application/json\",\"content-length\":86},\"Request URL\":\"https://gorest.co.in/public/v1/users\",\"Response Body\":{\"meta\":null,\"data\":{\"id\":5009,\"name\":\"zeUbmVudIH\",\"email\":\"CcGm4dfzba@gmail.com\",\"gender\":\"male\",\"status\":\"active\"}},\"Response Headers\":{\"server\":\"nginx\",\"date\":\"Mon, 21 Feb 2022 11:06:30 GMT\",\"content-type\":\"application/json; charset=utf-8\",\"transfer-encoding\":\"chunked\",\"connection\":\"keep-alive\",\"x-frame-options\":\"SAMEORIGIN\",\"x-xss-protection\":\"0\",\"x-content-type-options\":\"nosniff\",\"x-download-options\":\"noopen\",\"x-permitted-cross-domain-policies\":\"none\",\"referrer-policy\":\"strict-origin-when-cross-origin\",\"x-ratelimit-limit\":\"90\",\"x-ratelimit-remaining\":\"88\",\"x-ratelimit-reset\":\"2\",\"location\":\"https://gorest.co.in/public/v1/users/5009\",\"etag\":\"W/\\\"772565e1387dd53a8f1c0a12012c598d\\\"\",\"cache-control\":\"max-age=0, private, must-revalidate\",\"x-request-id\":\"9a78eaef-6bbf-4ed6-89a8-1d4863eda04c\",\"x-runtime\":\"0.035271\",\"strict-transport-security\":\"max-age=63072000; includeSubDomains\",\"vary\":\"Origin\"},\"Response Status\":201}]}",
        "time" : {
          "start" : 1645441590402,
          "stop" : 1645441590407,
          "duration" : 5
        },
        "status" : "passed",
        "steps" : [ ],
        "attachments" : [ ],
        "parameters" : [ ],
        "stepsCount" : 0,
        "attachmentsCount" : 0,
        "shouldDisplayMessage" : false,
        "hasContent" : false
      } ],
      "attachments" : [ ],
      "parameters" : [ ],
      "stepsCount" : 3,
      "attachmentsCount" : 0,
      "shouldDisplayMessage" : false,
      "hasContent" : true
    }, {
      "name" : "Then User Validates Get Call",
      "time" : {
        "start" : 1645441590410,
        "stop" : 1645441590698,
        "duration" : 288
      },
      "status" : "passed",
      "steps" : [ {
        "name" : "GET 200 https://gorest.co.in/public/v1/users",
        "time" : {
          "start" : 1645441590410,
          "stop" : 1645441590685,
          "duration" : 275
        },
        "status" : "passed",
        "steps" : [ ],
        "attachments" : [ ],
        "parameters" : [ ],
        "stepsCount" : 0,
        "attachmentsCount" : 0,
        "shouldDisplayMessage" : false,
        "hasContent" : false
      }, {
        "name" : "log {\"body\":{\"meta\":{\"pagination\":{\"total\":4083,\"pages\":205,\"page\":1,\"limit\":20,\"links\":{\"previous\":null,\"current\":\"https://gorest.co.in/public/v1/users?page=1\",\"next\":\"https://gorest.co.in/public/v1/users?page=2\"}}},\"data\":[{\"id\":5009,\"name\":\"zeUbmVudIH\",\"email\":\"CcGm4dfzba@gmail.com\",\"gender\":\"male\",\"status\":\"active\"},{\"id\":5008,\"name\":\"LwMdHFzOKI\",\"email\":\"xYKjGgPTdy@gmail.com\",\"gender\":\"male\",\"status\":\"active\"},{\"id\":5007,\"name\":\"sgpRxCdgxS\",\"email\":\"FK4oak1CsM@gmail.com\",\"gender\":\"male\",\"status\":\"active\"},{\"id\":5006,\"name\":\"vanTwHLMyq\",\"email\":\"Yj2RPeaYlz@gmail.com\",\"gender\":\"male\",\"status\":\"active\"},{\"id\":4999,\"name\":\"ZTWiBTRViW\",\"email\":\"gGJ3E8cJvB@gmail.com\",\"gender\":\"male\",\"status\":\"active\"},{\"id\":4998,\"name\":\"eZuhqRgrlN\",\"email\":\"7VlJ1ofaCG@gmail.com\",\"gender\":\"male\",\"status\":\"active\"},{\"id\":4997,\"name\":\"zKZbPdkGCW\",\"email\":\"bSRfONv9tu@gmail.com\",\"gender\":\"male\",\"status\":\"active\"},{\"id\":4996,\"name\":\"SuwYubJpkw\",\"email\":\"kNayEhElp7@gmail.com\",\"gender\":\"male\",\"status\":\"active\"},{\"id\":4944,\"name\":\"HEuNhFDbLa\",\"email\":\"eGGyoykv8O@gmail.com\",\"gender\":\"male\",\"status\":\"active\"},{\"id\":4940,\"name\":\"GCeitcLZhV\",\"email\":\"QHZDK7O2n2@gmail.com\",\"gender\":\"male\",\"status\":\"active\"},{\"id\":4938,\"name\":\"WxJBSHnMqW\",\"email\":\"PXxcFZWCIp@gmail.com\",\"gender\":\"male\",\"status\":\"active\"},{\"id\":4937,\"name\":\"cdRkLtzSGZ\",\"email\":\"cIAKUOI53E@gmail.com\",\"gender\":\"male\",\"status\":\"active\"},{\"id\":4892,\"name\":\"PqcXMllXcK\",\"email\":\"J1udyKpSMD@gmail.com\",\"gender\":\"male\",\"status\":\"active\"},{\"id\":4891,\"name\":\"NvZiIHcZTg\",\"email\":\"oF5sL8vXUy@gmail.com\",\"gender\":\"male\",\"status\":\"active\"},{\"id\":4890,\"name\":\"VpCrNTMjsW\",\"email\":\"ecseVs5JQE@gmail.com\",\"gender\":\"male\",\"status\":\"active\"},{\"id\":4889,\"name\":\"QGpZwUhEEo\",\"email\":\"XdFiz9w6EZ@gmail.com\",\"gender\":\"male\",\"status\":\"active\"},{\"id\":4867,\"name\":\"ywWVFtqLNj\",\"email\":\"ZlHsVoxpSr@gmail.com\",\"gender\":\"male\",\"status\":\"active\"},{\"id\":4866,\"name\":\"TAbYRtkOxP\",\"email\":\"5fp5ZddwHh@gmail.com\",\"gender\":\"male\",\"status\":\"active\"},{\"id\":4865,\"name\":\"FmNGgyePco\",\"email\":\"Dts8ha95Fg@gmail.com\",\"gender\":\"male\",\"status\":\"active\"},{\"id\":4864,\"name\":\"CMnmpkcprk\",\"email\":\"5zlPAMp63r@gmail.com\",\"gender\":\"male\",\"status\":\"active\"}]},\"headers\":{\"server\":\"nginx\",\"date\":\"Mon, 21 Feb 2022 11:06:30 GMT\",\"content-type\":\"application/json; charset=utf-8\",\"transfer-encoding\":\"chunked\",\"connection\":\"keep-alive\",\"vary\":\"Accept-Encoding, Origin\",\"x-frame-options\":\"SAMEORIGIN\",\"x-xss-protection\":\"0\",\"x-content-type-options\":\"nosniff\",\"x-download-options\":\"noopen\",\"x-permitted-cross-domain-policies\":\"none\",\"referrer-policy\":\"strict-origin-when-cross-origin\",\"x-ratelimit-limit\":\"90\",\"x-ratelimit-remaining\":\"87\",\"x-ratelimit-reset\":\"3\",\"etag\":\"W/\\\"bd853ed6696404c56aa0f7921c18fb76\\\"\",\"cache-control\":\"max-age=0, private, must-revalidate\",\"x-request-id\":\"bf6cb8a3-e923-4c30-9a5e-59d7fb8d16d2\",\"x-runtime\":\"0.025350\",\"strict-transport-security\":\"max-age=63072000; includeSubDomains\",\"content-encoding\":\"gzip\"},\"status\":200,\"statusText\":\"OK\",\"isOkStatusCode\":true,\"requestHeaders\":{\"Connection\":\"keep-alive\",\"authorization\":\"Bearer 4b4c8f088b43abd2c4328d13f40228324cda0ef0b05a86faaacb6fbd31a3124d\",\"user-agent\":\"Mozilla/5.0 (X11; Linux x86_64) AppleWebKit/537.36 (KHTML, like Gecko) HeadlessChrome/98.0.4758.80 Safari/537.36\",\"accept\":\"*/*\",\"accept-encoding\":\"gzip, deflate\"},\"duration\":268,\"allRequestResponses\":[{\"Request Body\":null,\"Request Headers\":{\"Connection\":\"keep-alive\",\"authorization\":\"Bearer 4b4c8f088b43abd2c4328d13f40228324cda0ef0b05a86faaacb6fbd31a3124d\",\"user-agent\":\"Mozilla/5.0 (X11; Linux x86_64) AppleWebKit/537.36 (KHTML, like Gecko) HeadlessChrome/98.0.4758.80 Safari/537.36\",\"accept\":\"*/*\",\"accept-encoding\":\"gzip, deflate\"},\"Request URL\":\"https://gorest.co.in/public/v1/users\",\"Response Body\":\"{\\\"meta\\\":{\\\"pagination\\\":{\\\"total\\\":4083,\\\"pages\\\":205,\\\"page\\\":1,\\\"limit\\\":20,\\\"links\\\":{\\\"previous\\\":null,\\\"current\\\":\\\"https://gorest.co.in/public/v1/users?page=1\\\",\\\"next\\\":\\\"https://gorest.co.in/public/v1/users?page=2\\\"}}},\\\"data\\\":[{\\\"id\\\":5009,\\\"name\\\":\\\"zeUbmVudIH\\\",\\\"email\\\":\\\"CcGm4dfzba@gmail.com\\\",\\\"gender\\\":\\\"male\\\",\\\"status\\\":\\\"active\\\"},{\\\"id\\\":5008,\\\"name\\\":\\\"LwMdHFzOKI\\\",\\\"email\\\":\\\"xYKjGgPTdy@gmail.com\\\",\\\"gender\\\":\\\"male\\\",\\\"status\\\":\\\"active\\\"},{\\\"id\\\":5007,\\\"name\\\":\\\"sgpRxCdgxS\\\",\\\"email\\\":\\\"FK4oak1CsM@gmail.com\\\",\\\"gender\\\":\\\"male\\\",\\\"status\\\":\\\"active\\\"},{\\\"id\\\":5006,\\\"name\\\":\\\"vanTwHLMyq\\\",\\\"email\\\":\\\"Yj2RPeaYlz@gmail.com\\\",\\\"gender\\\":\\\"male\\\",\\\"status\\\":\\\"active\\\"},{\\\"id\\\":4999,\\\"name\\\":\\\"ZTWiBTRViW\\\",\\\"email\\\":\\\"gGJ3E8cJvB@gmail.com\\\",\\\"gender\\\":\\\"male\\\",\\\"status\\\":\\\"active\\\"},{\\\"id\\\":4998,\\\"name\\\":\\\"eZuhqRgrlN\\\",\\\"email\\\":\\\"7VlJ1ofaCG@gmail.com\\\",\\\"gender\\\":\\\"male\\\",\\\"status\\\":\\\"active\\\"},{\\\"id\\\":4997,\\\"name\\\":\\\"zKZbPdkGCW\\\",\\\"email\\\":\\\"bSRfONv9tu@gmail.com\\\",\\\"gender\\\":\\\"male\\\",\\\"status\\\":\\\"active\\\"},{\\\"id\\\":4996,\\\"name\\\":\\\"SuwYubJpkw\\\",\\\"email\\\":\\\"kNayEhElp7@gmail.com\\\",\\\"gender\\\":\\\"male\\\",\\\"status\\\":\\\"active\\\"},{\\\"id\\\":4944,\\\"name\\\":\\\"HEuNhFDbLa\\\",\\\"email\\\":\\\"eGGyoykv8O@gmail.com\\\",\\\"gender\\\":\\\"male\\\",\\\"status\\\":\\\"active\\\"},{\\\"id\\\":4940,\\\"name\\\":\\\"GCeitcLZhV\\\",\\\"email\\\":\\\"QHZDK7O2n2@gmail.com\\\",\\\"gender\\\":\\\"male\\\",\\\"status\\\":\\\"active\\\"},{\\\"id\\\":4938,\\\"name\\\":\\\"WxJBSHnMqW\\\",\\\"email\\\":\\\"PXxcFZWCIp@gmail.com\\\",\\\"gender\\\":\\\"male\\\",\\\"status\\\":\\\"active\\\"},{\\\"id\\\":4937,\\\"name\\\":\\\"cdRkLtzSGZ\\\",\\\"email\\\":\\\"cIAKUOI53E@gmail.com\\\",\\\"gender\\\":\\\"male\\\",\\\"status\\\":\\\"active\\\"},{\\\"id\\\":4892,\\\"name\\\":\\\"PqcXMllXcK\\\",\\\"email\\\":\\\"J1udyKpSMD@gmail.com\\\",\\\"gender\\\":\\\"male\\\",\\\"status\\\":\\\"active\\\"},{\\\"id\\\":4891,\\\"name\\\":\\\"NvZiIHcZTg\\\",\\\"email\\\":\\\"oF5sL8vXUy@gmail.com\\\",\\\"gender\\\":\\\"male\\\",\\\"status\\\":\\\"active\\\"},{\\\"id\\\":4890,\\\"name\\\":\\\"VpCrNTMjsW\\\",\\\"email\\\":\\\"ecseVs5JQE@gmail.com\\\",\\\"gender\\\":\\\"male\\\",\\\"status\\\":\\\"active\\\"},{\\\"id\\\":4889,\\\"name\\\":\\\"QGpZwUhEEo\\\",\\\"email\\\":\\\"XdFiz9w6EZ@gmail.com\\\",\\\"gender\\\":\\\"male\\\",\\\"status\\\":\\\"active\\\"},{\\\"id\\\":4867,\\\"name\\\":\\\"ywWVFtqLNj\\\",\\\"email\\\":\\\"ZlHsVoxpSr@gmail.com\\\",\\\"gender\\\":\\\"male\\\",\\\"status\\\":\\\"active\\\"},{\\\"id\\\":4866,\\\"name\\\":\\\"TAbYRtkOxP\\\",\\\"email\\\":\\\"5fp5ZddwHh@gmail.com\\\",\\\"gender\\\":\\\"male\\\",\\\"status\\\":\\\"active\\\"},{\\\"id\\\":4865,\\\"name\\\":\\\"FmNGgyePco\\\",\\\"email\\\":\\\"Dts8ha95Fg@gmail.com\\\",\\\"gender\\\":\\\"male\\\",\\\"status\\\":\\\"active\\\"},{\\\"id\\\":4864,\\\"name\\\":\\\"CMnmpkcprk\\\",\\\"email\\\":\\\"5zlPAMp63r@gmail.com\\\",\\\"gender\\\":\\\"male\\\",\\\"status\\\":\\\"active\\\"}]}\",\"Response Headers\":{\"server\":\"nginx\",\"date\":\"Mon, 21 Feb 2022 11:06:30 GMT\",\"content-type\":\"application/json; charset=utf-8\",\"transfer-encoding\":\"chunked\",\"connection\":\"keep-alive\",\"vary\":\"Accept-Encoding, Origin\",\"x-frame-options\":\"SAMEORIGIN\",\"x-xss-protection\":\"0\",\"x-content-type-options\":\"nosniff\",\"x-download-options\":\"noopen\",\"x-permitted-cross-domain-policies\":\"none\",\"referrer-policy\":\"strict-origin-when-cross-origin\",\"x-ratelimit-limit\":\"90\",\"x-ratelimit-remaining\":\"87\",\"x-ratelimit-reset\":\"3\",\"etag\":\"W/\\\"bd853ed6696404c56aa0f7921c18fb76\\\"\",\"cache-control\":\"max-age=0, private, must-revalidate\",\"x-request-id\":\"bf6cb8a3-e923-4c30-9a5e-59d7fb8d16d2\",\"x-runtime\":\"0.025350\",\"strict-transport-security\":\"max-age=63072000; includeSubDomains\",\"content-encoding\":\"gzip\"},\"Response Status\":200}]}",
        "time" : {
          "start" : 1645441590689,
          "stop" : 1645441590696,
          "duration" : 7
        },
        "status" : "passed",
        "steps" : [ ],
        "attachments" : [ ],
        "parameters" : [ ],
        "stepsCount" : 0,
        "attachmentsCount" : 0,
        "shouldDisplayMessage" : false,
        "hasContent" : false
      } ],
      "attachments" : [ ],
      "parameters" : [ ],
      "stepsCount" : 2,
      "attachmentsCount" : 0,
      "shouldDisplayMessage" : false,
      "hasContent" : true
    }, {
      "name" : "Then User Validates Put Call",
      "time" : {
        "start" : 1645441590698,
        "stop" : 1645441590708,
        "duration" : 10
      },
      "status" : "passed",
      "steps" : [ {
        "name" : "log Put Method",
        "time" : {
          "start" : 1645441590699,
          "stop" : 1645441590705,
          "duration" : 6
        },
        "status" : "passed",
        "steps" : [ ],
        "attachments" : [ ],
        "parameters" : [ ],
        "stepsCount" : 0,
        "attachmentsCount" : 0,
        "shouldDisplayMessage" : false,
        "hasContent" : false
      } ],
      "attachments" : [ ],
      "parameters" : [ ],
      "stepsCount" : 1,
      "attachmentsCount" : 0,
      "shouldDisplayMessage" : false,
      "hasContent" : true
    }, {
      "name" : "Then User Validates Delete Call",
      "time" : {
        "start" : 1645441590708,
        "stop" : 1645441590712,
        "duration" : 4
      },
      "status" : "passed",
      "steps" : [ {
        "name" : "log Delete Method",
        "time" : {
          "start" : 1645441590708,
          "stop" : 1645441590711,
          "duration" : 3
        },
        "status" : "passed",
        "steps" : [ ],
        "attachments" : [ ],
        "parameters" : [ ],
        "stepsCount" : 0,
        "attachmentsCount" : 0,
        "shouldDisplayMessage" : false,
        "hasContent" : false
      } ],
      "attachments" : [ ],
      "parameters" : [ ],
      "stepsCount" : 1,
      "attachmentsCount" : 0,
      "shouldDisplayMessage" : false,
      "hasContent" : true
    }, {
      "name" : "\"after each\" hook",
      "time" : {
        "start" : 1645441590749,
        "stop" : 1645441590751,
        "duration" : 2
      },
      "status" : "passed",
      "steps" : [ ],
      "attachments" : [ ],
      "parameters" : [ ],
      "stepsCount" : 0,
      "attachmentsCount" : 0,
      "shouldDisplayMessage" : false,
      "hasContent" : false
    } ],
    "attachments" : [ {
      "uid" : "2009ea6532099418",
      "name" : "video recording",
      "source" : "2009ea6532099418.mp4",
      "type" : "video/mp4",
      "size" : 329049
    } ],
    "parameters" : [ ],
    "stepsCount" : 13,
    "attachmentsCount" : 1,
    "shouldDisplayMessage" : false,
    "hasContent" : true
  },
  "afterStages" : [ ],
  "labels" : [ {
    "name" : "suite",
    "value" : "API"
  }, {
    "name" : "feature",
    "value" : "Test E2E"
  }, {
    "name" : "tag",
    "value" : "Regression"
  }, {
    "name" : "resultFormat",
    "value" : "allure2"
  } ],
  "parameters" : [ ],
  "links" : [ ],
  "hidden" : false,
  "retry" : false,
  "extra" : {
    "severity" : "normal",
    "retries" : [ {
      "uid" : "17ddfe730e10ecf3",
      "status" : "passed",
      "time" : {
        "start" : 1645441302048,
        "stop" : 1645441302730,
        "duration" : 682
      }
    }, {
      "uid" : "36f40ae77d01dcb",
      "status" : "passed",
      "time" : {
        "start" : 1645439586474,
        "stop" : 1645439588090,
        "duration" : 1616
      }
    }, {
      "uid" : "9f08971d6cceb78d",
      "status" : "passed",
      "time" : {
        "start" : 1645437398314,
        "stop" : 1645437399808,
        "duration" : 1494
      }
    } ],
    "categories" : [ ],
    "tags" : [ "Regression" ]
  },
  "source" : "5bcd266f26f184b7.json",
  "parameterValues" : [ ]
}