{
  "uid" : "aed454acb56fc1ab",
  "name" : "TC001:Validate API Test",
  "fullName" : "TC001:Validate API Test",
  "historyId" : "a1430cd4396ea6d56fa0213f6fd58bff",
  "time" : {
    "start" : 1645437398314,
    "stop" : 1645437399808,
    "duration" : 1494
  },
  "status" : "passed",
  "flaky" : false,
  "newFailed" : false,
  "beforeStages" : [ ],
  "testStage" : {
    "status" : "passed",
    "steps" : [ {
      "name" : "\"before each\" hook",
      "time" : {
        "start" : 1645437398317,
        "stop" : 1645437398318,
        "duration" : 1
      },
      "status" : "passed",
      "steps" : [ ],
      "attachments" : [ ],
      "parameters" : [ ],
      "attachmentsCount" : 0,
      "shouldDisplayMessage" : false,
      "hasContent" : false,
      "stepsCount" : 0
    }, {
      "name" : "Then User Validates Post Call",
      "time" : {
        "start" : 1645437398331,
        "stop" : 1645437399519,
        "duration" : 1188
      },
      "status" : "passed",
      "steps" : [ {
        "name" : "log https://gorest.co.in/public/v1/users",
        "time" : {
          "start" : 1645437398332,
          "stop" : 1645437398336,
          "duration" : 4
        },
        "status" : "passed",
        "steps" : [ ],
        "attachments" : [ ],
        "parameters" : [ ],
        "attachmentsCount" : 0,
        "shouldDisplayMessage" : false,
        "hasContent" : false,
        "stepsCount" : 0
      }, {
        "name" : "POST 201 https://gorest.co.in/public/v1/users",
        "time" : {
          "start" : 1645437398337,
          "stop" : 1645437399505,
          "duration" : 1168
        },
        "status" : "passed",
        "steps" : [ ],
        "attachments" : [ ],
        "parameters" : [ ],
        "attachmentsCount" : 0,
        "shouldDisplayMessage" : false,
        "hasContent" : false,
        "stepsCount" : 0
      }, {
        "name" : "log {\"body\":{\"meta\":null,\"data\":{\"id\":4801,\"name\":\"ycsOLAWfve\",\"email\":\"ugS1Cr4V8o@gmail.com\",\"gender\":\"male\",\"status\":\"active\"}},\"headers\":{\"server\":\"nginx\",\"date\":\"Mon, 21 Feb 2022 09:56:39 GMT\",\"content-type\":\"application/json; charset=utf-8\",\"transfer-encoding\":\"chunked\",\"connection\":\"keep-alive\",\"x-frame-options\":\"SAMEORIGIN\",\"x-xss-protection\":\"0\",\"x-content-type-options\":\"nosniff\",\"x-download-options\":\"noopen\",\"x-permitted-cross-domain-policies\":\"none\",\"referrer-policy\":\"strict-origin-when-cross-origin\",\"x-ratelimit-limit\":\"90\",\"x-ratelimit-remaining\":\"88\",\"x-ratelimit-reset\":\"2\",\"location\":\"https://gorest.co.in/public/v1/users/4801\",\"etag\":\"W/\\\"b2c441ee5a4e1a8e887dbb2028c577d0\\\"\",\"cache-control\":\"max-age=0, private, must-revalidate\",\"x-request-id\":\"a5b4c292-d34b-43a1-a476-b59893c31b60\",\"x-runtime\":\"0.022247\",\"strict-transport-security\":\"max-age=63072000; includeSubDomains\",\"vary\":\"Origin\"},\"status\":201,\"statusText\":\"Created\",\"isOkStatusCode\":true,\"requestHeaders\":{\"Connection\":\"keep-alive\",\"authorization\":\"Bearer 4b4c8f088b43abd2c4328d13f40228324cda0ef0b05a86faaacb6fbd31a3124d\",\"user-agent\":\"Mozilla/5.0 (X11; Linux x86_64) AppleWebKit/537.36 (KHTML, like Gecko) HeadlessChrome/98.0.4758.80 Safari/537.36\",\"accept\":\"*/*\",\"accept-encoding\":\"gzip, deflate\",\"content-type\":\"application/json\",\"content-length\":86},\"requestBody\":\"{\\\"name\\\":\\\"ycsOLAWfve\\\",\\\"email\\\":\\\"ugS1Cr4V8o@gmail.com\\\",\\\"gender\\\":\\\"Male\\\",\\\"status\\\":\\\"Active\\\"}\",\"duration\":1148,\"allRequestResponses\":[{\"Request Body\":\"{\\\"name\\\":\\\"ycsOLAWfve\\\",\\\"email\\\":\\\"ugS1Cr4V8o@gmail.com\\\",\\\"gender\\\":\\\"Male\\\",\\\"status\\\":\\\"Active\\\"}\",\"Request Headers\":{\"Connection\":\"keep-alive\",\"authorization\":\"Bearer 4b4c8f088b43abd2c4328d13f40228324cda0ef0b05a86faaacb6fbd31a3124d\",\"user-agent\":\"Mozilla/5.0 (X11; Linux x86_64) AppleWebKit/537.36 (KHTML, like Gecko) HeadlessChrome/98.0.4758.80 Safari/537.36\",\"accept\":\"*/*\",\"accept-encoding\":\"gzip, deflate\",\"content-type\":\"application/json\",\"content-length\":86},\"Request URL\":\"https://gorest.co.in/public/v1/users\",\"Response Body\":{\"meta\":null,\"data\":{\"id\":4801,\"name\":\"ycsOLAWfve\",\"email\":\"ugS1Cr4V8o@gmail.com\",\"gender\":\"male\",\"status\":\"active\"}},\"Response Headers\":{\"server\":\"nginx\",\"date\":\"Mon, 21 Feb 2022 09:56:39 GMT\",\"content-type\":\"application/json; charset=utf-8\",\"transfer-encoding\":\"chunked\",\"connection\":\"keep-alive\",\"x-frame-options\":\"SAMEORIGIN\",\"x-xss-protection\":\"0\",\"x-content-type-options\":\"nosniff\",\"x-download-options\":\"noopen\",\"x-permitted-cross-domain-policies\":\"none\",\"referrer-policy\":\"strict-origin-when-cross-origin\",\"x-ratelimit-limit\":\"90\",\"x-ratelimit-remaining\":\"88\",\"x-ratelimit-reset\":\"2\",\"location\":\"https://gorest.co.in/public/v1/users/4801\",\"etag\":\"W/\\\"b2c441ee5a4e1a8e887dbb2028c577d0\\\"\",\"cache-control\":\"max-age=0, private, must-revalidate\",\"x-request-id\":\"a5b4c292-d34b-43a1-a476-b59893c31b60\",\"x-runtime\":\"0.022247\",\"strict-transport-security\":\"max-age=63072000; includeSubDomains\",\"vary\":\"Origin\"},\"Response Status\":201}]}",
        "time" : {
          "start" : 1645437399511,
          "stop" : 1645437399516,
          "duration" : 5
        },
        "status" : "passed",
        "steps" : [ ],
        "attachments" : [ ],
        "parameters" : [ ],
        "attachmentsCount" : 0,
        "shouldDisplayMessage" : false,
        "hasContent" : false,
        "stepsCount" : 0
      } ],
      "attachments" : [ ],
      "parameters" : [ ],
      "attachmentsCount" : 0,
      "shouldDisplayMessage" : false,
      "hasContent" : true,
      "stepsCount" : 3
    }, {
      "name" : "Then User Validates Get Call",
      "time" : {
        "start" : 1645437399519,
        "stop" : 1645437399798,
        "duration" : 279
      },
      "status" : "passed",
      "steps" : [ {
        "name" : "GET 200 https://gorest.co.in/public/v1/users",
        "time" : {
          "start" : 1645437399520,
          "stop" : 1645437399782,
          "duration" : 262
        },
        "status" : "passed",
        "steps" : [ ],
        "attachments" : [ ],
        "parameters" : [ ],
        "attachmentsCount" : 0,
        "shouldDisplayMessage" : false,
        "hasContent" : false,
        "stepsCount" : 0
      }, {
        "name" : "log {\"body\":{\"meta\":{\"pagination\":{\"total\":4074,\"pages\":204,\"page\":1,\"limit\":20,\"links\":{\"previous\":null,\"current\":\"https://gorest.co.in/public/v1/users?page=1\",\"next\":\"https://gorest.co.in/public/v1/users?page=2\"}}},\"data\":[{\"id\":4801,\"name\":\"ycsOLAWfve\",\"email\":\"ugS1Cr4V8o@gmail.com\",\"gender\":\"male\",\"status\":\"active\"},{\"id\":4800,\"name\":\"donCQUSNxn\",\"email\":\"Tk1sH4n5e2@gmail.com\",\"gender\":\"male\",\"status\":\"active\"},{\"id\":4799,\"name\":\"RThjBFkMVL\",\"email\":\"Uayrml2aZr@gmail.com\",\"gender\":\"male\",\"status\":\"active\"},{\"id\":4797,\"name\":\"dXoRGmJtCs\",\"email\":\"AnS0iB95k0@gmail.com\",\"gender\":\"male\",\"status\":\"active\"},{\"id\":4779,\"name\":\"kAOTGOjvmr\",\"email\":\"vidkzQmp6O@gmail.com\",\"gender\":\"male\",\"status\":\"active\"},{\"id\":4778,\"name\":\"yVYYLWmIcP\",\"email\":\"pe1misfmVB@gmail.com\",\"gender\":\"male\",\"status\":\"active\"},{\"id\":4776,\"name\":\"bcQIDqxZeX\",\"email\":\"oQpQ8hiVJ1@gmail.com\",\"gender\":\"male\",\"status\":\"active\"},{\"id\":4775,\"name\":\"EDyojClXeY\",\"email\":\"fAuUR2UwwJ@gmail.com\",\"gender\":\"male\",\"status\":\"active\"},{\"id\":4242,\"name\":\"dhyvOVUnqu\",\"email\":\"tqxWjMcSNW@gmail.com\",\"gender\":\"male\",\"status\":\"active\"},{\"id\":4241,\"name\":\"PTAYdskuGM\",\"email\":\"xO27KLqB9B@gmail.com\",\"gender\":\"male\",\"status\":\"active\"},{\"id\":4240,\"name\":\"pCQVJXdjLf\",\"email\":\"XW7Hfy7df3@gmail.com\",\"gender\":\"male\",\"status\":\"active\"},{\"id\":4239,\"name\":\"fnyMJPjusH\",\"email\":\"SuMATV1KFT@gmail.com\",\"gender\":\"male\",\"status\":\"active\"},{\"id\":4232,\"name\":\"tQQDjCFucq\",\"email\":\"HaUPgR7f7D@gmail.com\",\"gender\":\"male\",\"status\":\"active\"},{\"id\":4231,\"name\":\"BBIWzaozIo\",\"email\":\"Wu0lKge2h6@gmail.com\",\"gender\":\"male\",\"status\":\"active\"},{\"id\":4230,\"name\":\"eEnvEHzKlD\",\"email\":\"ZuhBRH8Shb@gmail.com\",\"gender\":\"male\",\"status\":\"active\"},{\"id\":4229,\"name\":\"vyhJuauINg\",\"email\":\"7uqT745AC4@gmail.com\",\"gender\":\"male\",\"status\":\"active\"},{\"id\":4111,\"name\":\"Mrs. Bhagwanti Tagore\",\"email\":\"bhagwanti_mrs_tagore@boehm-rempel.org\",\"gender\":\"male\",\"status\":\"inactive\"},{\"id\":4110,\"name\":\"Anuja Achari\",\"email\":\"anuja_achari@heidenreich-runte.com\",\"gender\":\"female\",\"status\":\"active\"},{\"id\":4109,\"name\":\"Anurag Jain\",\"email\":\"jain_anurag@christiansen.biz\",\"gender\":\"female\",\"status\":\"inactive\"},{\"id\":4108,\"name\":\"Opalina Pillai\",\"email\":\"pillai_opalina@ferry-fritsch.biz\",\"gender\":\"male\",\"status\":\"active\"}]},\"headers\":{\"server\":\"nginx\",\"date\":\"Mon, 21 Feb 2022 09:56:39 GMT\",\"content-type\":\"application/json; charset=utf-8\",\"transfer-encoding\":\"chunked\",\"connection\":\"keep-alive\",\"vary\":\"Accept-Encoding, Origin\",\"x-frame-options\":\"SAMEORIGIN\",\"x-xss-protection\":\"0\",\"x-content-type-options\":\"nosniff\",\"x-download-options\":\"noopen\",\"x-permitted-cross-domain-policies\":\"none\",\"referrer-policy\":\"strict-origin-when-cross-origin\",\"x-ratelimit-limit\":\"90\",\"x-ratelimit-remaining\":\"87\",\"x-ratelimit-reset\":\"3\",\"etag\":\"W/\\\"4228b76a8eef45862cdaefff1c790252\\\"\",\"cache-control\":\"max-age=0, private, must-revalidate\",\"x-request-id\":\"75b0b899-5c64-4802-942f-ed02a981d965\",\"x-runtime\":\"0.031405\",\"strict-transport-security\":\"max-age=63072000; includeSubDomains\",\"content-encoding\":\"gzip\"},\"status\":200,\"statusText\":\"OK\",\"isOkStatusCode\":true,\"requestHeaders\":{\"Connection\":\"keep-alive\",\"authorization\":\"Bearer 4b4c8f088b43abd2c4328d13f40228324cda0ef0b05a86faaacb6fbd31a3124d\",\"user-agent\":\"Mozilla/5.0 (X11; Linux x86_64) AppleWebKit/537.36 (KHTML, like Gecko) HeadlessChrome/98.0.4758.80 Safari/537.36\",\"accept\":\"*/*\",\"accept-encoding\":\"gzip, deflate\"},\"duration\":256,\"allRequestResponses\":[{\"Request Body\":null,\"Request Headers\":{\"Connection\":\"keep-alive\",\"authorization\":\"Bearer 4b4c8f088b43abd2c4328d13f40228324cda0ef0b05a86faaacb6fbd31a3124d\",\"user-agent\":\"Mozilla/5.0 (X11; Linux x86_64) AppleWebKit/537.36 (KHTML, like Gecko) HeadlessChrome/98.0.4758.80 Safari/537.36\",\"accept\":\"*/*\",\"accept-encoding\":\"gzip, deflate\"},\"Request URL\":\"https://gorest.co.in/public/v1/users\",\"Response Body\":\"{\\\"meta\\\":{\\\"pagination\\\":{\\\"total\\\":4074,\\\"pages\\\":204,\\\"page\\\":1,\\\"limit\\\":20,\\\"links\\\":{\\\"previous\\\":null,\\\"current\\\":\\\"https://gorest.co.in/public/v1/users?page=1\\\",\\\"next\\\":\\\"https://gorest.co.in/public/v1/users?page=2\\\"}}},\\\"data\\\":[{\\\"id\\\":4801,\\\"name\\\":\\\"ycsOLAWfve\\\",\\\"email\\\":\\\"ugS1Cr4V8o@gmail.com\\\",\\\"gender\\\":\\\"male\\\",\\\"status\\\":\\\"active\\\"},{\\\"id\\\":4800,\\\"name\\\":\\\"donCQUSNxn\\\",\\\"email\\\":\\\"Tk1sH4n5e2@gmail.com\\\",\\\"gender\\\":\\\"male\\\",\\\"status\\\":\\\"active\\\"},{\\\"id\\\":4799,\\\"name\\\":\\\"RThjBFkMVL\\\",\\\"email\\\":\\\"Uayrml2aZr@gmail.com\\\",\\\"gender\\\":\\\"male\\\",\\\"status\\\":\\\"active\\\"},{\\\"id\\\":4797,\\\"name\\\":\\\"dXoRGmJtCs\\\",\\\"email\\\":\\\"AnS0iB95k0@gmail.com\\\",\\\"gender\\\":\\\"male\\\",\\\"status\\\":\\\"active\\\"},{\\\"id\\\":4779,\\\"name\\\":\\\"kAOTGOjvmr\\\",\\\"email\\\":\\\"vidkzQmp6O@gmail.com\\\",\\\"gender\\\":\\\"male\\\",\\\"status\\\":\\\"active\\\"},{\\\"id\\\":4778,\\\"name\\\":\\\"yVYYLWmIcP\\\",\\\"email\\\":\\\"pe1misfmVB@gmail.com\\\",\\\"gender\\\":\\\"male\\\",\\\"status\\\":\\\"active\\\"},{\\\"id\\\":4776,\\\"name\\\":\\\"bcQIDqxZeX\\\",\\\"email\\\":\\\"oQpQ8hiVJ1@gmail.com\\\",\\\"gender\\\":\\\"male\\\",\\\"status\\\":\\\"active\\\"},{\\\"id\\\":4775,\\\"name\\\":\\\"EDyojClXeY\\\",\\\"email\\\":\\\"fAuUR2UwwJ@gmail.com\\\",\\\"gender\\\":\\\"male\\\",\\\"status\\\":\\\"active\\\"},{\\\"id\\\":4242,\\\"name\\\":\\\"dhyvOVUnqu\\\",\\\"email\\\":\\\"tqxWjMcSNW@gmail.com\\\",\\\"gender\\\":\\\"male\\\",\\\"status\\\":\\\"active\\\"},{\\\"id\\\":4241,\\\"name\\\":\\\"PTAYdskuGM\\\",\\\"email\\\":\\\"xO27KLqB9B@gmail.com\\\",\\\"gender\\\":\\\"male\\\",\\\"status\\\":\\\"active\\\"},{\\\"id\\\":4240,\\\"name\\\":\\\"pCQVJXdjLf\\\",\\\"email\\\":\\\"XW7Hfy7df3@gmail.com\\\",\\\"gender\\\":\\\"male\\\",\\\"status\\\":\\\"active\\\"},{\\\"id\\\":4239,\\\"name\\\":\\\"fnyMJPjusH\\\",\\\"email\\\":\\\"SuMATV1KFT@gmail.com\\\",\\\"gender\\\":\\\"male\\\",\\\"status\\\":\\\"active\\\"},{\\\"id\\\":4232,\\\"name\\\":\\\"tQQDjCFucq\\\",\\\"email\\\":\\\"HaUPgR7f7D@gmail.com\\\",\\\"gender\\\":\\\"male\\\",\\\"status\\\":\\\"active\\\"},{\\\"id\\\":4231,\\\"name\\\":\\\"BBIWzaozIo\\\",\\\"email\\\":\\\"Wu0lKge2h6@gmail.com\\\",\\\"gender\\\":\\\"male\\\",\\\"status\\\":\\\"active\\\"},{\\\"id\\\":4230,\\\"name\\\":\\\"eEnvEHzKlD\\\",\\\"email\\\":\\\"ZuhBRH8Shb@gmail.com\\\",\\\"gender\\\":\\\"male\\\",\\\"status\\\":\\\"active\\\"},{\\\"id\\\":4229,\\\"name\\\":\\\"vyhJuauINg\\\",\\\"email\\\":\\\"7uqT745AC4@gmail.com\\\",\\\"gender\\\":\\\"male\\\",\\\"status\\\":\\\"active\\\"},{\\\"id\\\":4111,\\\"name\\\":\\\"Mrs. Bhagwanti Tagore\\\",\\\"email\\\":\\\"bhagwanti_mrs_tagore@boehm-rempel.org\\\",\\\"gender\\\":\\\"male\\\",\\\"status\\\":\\\"inactive\\\"},{\\\"id\\\":4110,\\\"name\\\":\\\"Anuja Achari\\\",\\\"email\\\":\\\"anuja_achari@heidenreich-runte.com\\\",\\\"gender\\\":\\\"female\\\",\\\"status\\\":\\\"active\\\"},{\\\"id\\\":4109,\\\"name\\\":\\\"Anurag Jain\\\",\\\"email\\\":\\\"jain_anurag@christiansen.biz\\\",\\\"gender\\\":\\\"female\\\",\\\"status\\\":\\\"inactive\\\"},{\\\"id\\\":4108,\\\"name\\\":\\\"Opalina Pillai\\\",\\\"email\\\":\\\"pillai_opalina@ferry-fritsch.biz\\\",\\\"gender\\\":\\\"male\\\",\\\"status\\\":\\\"active\\\"}]}\",\"Response Headers\":{\"server\":\"nginx\",\"date\":\"Mon, 21 Feb 2022 09:56:39 GMT\",\"content-type\":\"application/json; charset=utf-8\",\"transfer-encoding\":\"chunked\",\"connection\":\"keep-alive\",\"vary\":\"Accept-Encoding, Origin\",\"x-frame-options\":\"SAMEORIGIN\",\"x-xss-protection\":\"0\",\"x-content-type-options\":\"nosniff\",\"x-download-options\":\"noopen\",\"x-permitted-cross-domain-policies\":\"none\",\"referrer-policy\":\"strict-origin-when-cross-origin\",\"x-ratelimit-limit\":\"90\",\"x-ratelimit-remaining\":\"87\",\"x-ratelimit-reset\":\"3\",\"etag\":\"W/\\\"4228b76a8eef45862cdaefff1c790252\\\"\",\"cache-control\":\"max-age=0, private, must-revalidate\",\"x-request-id\":\"75b0b899-5c64-4802-942f-ed02a981d965\",\"x-runtime\":\"0.031405\",\"strict-transport-security\":\"max-age=63072000; includeSubDomains\",\"content-encoding\":\"gzip\"},\"Response Status\":200}]}",
        "time" : {
          "start" : 1645437399786,
          "stop" : 1645437399795,
          "duration" : 9
        },
        "status" : "passed",
        "steps" : [ ],
        "attachments" : [ ],
        "parameters" : [ ],
        "attachmentsCount" : 0,
        "shouldDisplayMessage" : false,
        "hasContent" : false,
        "stepsCount" : 0
      } ],
      "attachments" : [ ],
      "parameters" : [ ],
      "attachmentsCount" : 0,
      "shouldDisplayMessage" : false,
      "hasContent" : true,
      "stepsCount" : 2
    }, {
      "name" : "Then User Validates Put Call",
      "time" : {
        "start" : 1645437399798,
        "stop" : 1645437399803,
        "duration" : 5
      },
      "status" : "passed",
      "steps" : [ {
        "name" : "log Put Method",
        "time" : {
          "start" : 1645437399799,
          "stop" : 1645437399801,
          "duration" : 2
        },
        "status" : "passed",
        "steps" : [ ],
        "attachments" : [ ],
        "parameters" : [ ],
        "attachmentsCount" : 0,
        "shouldDisplayMessage" : false,
        "hasContent" : false,
        "stepsCount" : 0
      } ],
      "attachments" : [ ],
      "parameters" : [ ],
      "attachmentsCount" : 0,
      "shouldDisplayMessage" : false,
      "hasContent" : true,
      "stepsCount" : 1
    }, {
      "name" : "Then User Validates Delete Call",
      "time" : {
        "start" : 1645437399803,
        "stop" : 1645437399807,
        "duration" : 4
      },
      "status" : "passed",
      "steps" : [ {
        "name" : "log Delete Method",
        "time" : {
          "start" : 1645437399804,
          "stop" : 1645437399806,
          "duration" : 2
        },
        "status" : "passed",
        "steps" : [ ],
        "attachments" : [ ],
        "parameters" : [ ],
        "attachmentsCount" : 0,
        "shouldDisplayMessage" : false,
        "hasContent" : false,
        "stepsCount" : 0
      } ],
      "attachments" : [ ],
      "parameters" : [ ],
      "attachmentsCount" : 0,
      "shouldDisplayMessage" : false,
      "hasContent" : true,
      "stepsCount" : 1
    }, {
      "name" : "\"after each\" hook",
      "time" : {
        "start" : 1645437399827,
        "stop" : 1645437399828,
        "duration" : 1
      },
      "status" : "passed",
      "steps" : [ ],
      "attachments" : [ ],
      "parameters" : [ ],
      "attachmentsCount" : 0,
      "shouldDisplayMessage" : false,
      "hasContent" : false,
      "stepsCount" : 0
    } ],
    "attachments" : [ {
      "uid" : "ad8cd1bfb355c794",
      "name" : "video recording",
      "source" : "ad8cd1bfb355c794.mp4",
      "type" : "video/mp4",
      "size" : 268375
    } ],
    "parameters" : [ ],
    "attachmentsCount" : 1,
    "shouldDisplayMessage" : false,
    "hasContent" : true,
    "stepsCount" : 13
  },
  "afterStages" : [ ],
  "labels" : [ {
    "name" : "suite",
    "value" : "API"
  }, {
    "name" : "feature",
    "value" : "Test E2E"
  }, {
    "name" : "tag",
    "value" : "Regression"
  }, {
    "name" : "resultFormat",
    "value" : "allure2"
  } ],
  "parameters" : [ ],
  "links" : [ ],
  "hidden" : false,
  "retry" : false,
  "extra" : {
    "severity" : "normal",
    "retries" : [ ],
    "categories" : [ ],
    "tags" : [ "Regression" ]
  },
  "source" : "aed454acb56fc1ab.json",
  "parameterValues" : [ ]
}