{
  "uid" : "cc2fb03d48dd2c57",
  "name" : "TC002:Validate API Test",
  "fullName" : "TC002:Validate API Test",
  "historyId" : "f33da67a3de8eeca43913d49b621a687",
  "time" : {
    "start" : 1645461444061,
    "stop" : 1645461445752,
    "duration" : 1691
  },
  "status" : "passed",
  "flaky" : false,
  "newFailed" : false,
  "beforeStages" : [ ],
  "testStage" : {
    "status" : "passed",
    "steps" : [ {
      "name" : "\"before each\" hook",
      "time" : {
        "start" : 1645461444065,
        "stop" : 1645461444066,
        "duration" : 1
      },
      "status" : "passed",
      "steps" : [ ],
      "attachments" : [ ],
      "parameters" : [ ],
      "stepsCount" : 0,
      "attachmentsCount" : 0,
      "shouldDisplayMessage" : false,
      "hasContent" : false
    }, {
      "name" : "Then User Validates Post Call",
      "time" : {
        "start" : 1645461444079,
        "stop" : 1645461445445,
        "duration" : 1366
      },
      "status" : "passed",
      "steps" : [ {
        "name" : "log https://gorest.co.in/public/v1/users",
        "time" : {
          "start" : 1645461444080,
          "stop" : 1645461444084,
          "duration" : 4
        },
        "status" : "passed",
        "steps" : [ ],
        "attachments" : [ ],
        "parameters" : [ ],
        "stepsCount" : 0,
        "attachmentsCount" : 0,
        "shouldDisplayMessage" : false,
        "hasContent" : false
      }, {
        "name" : "POST 201 https://gorest.co.in/public/v1/users",
        "time" : {
          "start" : 1645461444085,
          "stop" : 1645461445431,
          "duration" : 1346
        },
        "status" : "passed",
        "steps" : [ ],
        "attachments" : [ ],
        "parameters" : [ ],
        "stepsCount" : 0,
        "attachmentsCount" : 0,
        "shouldDisplayMessage" : false,
        "hasContent" : false
      }, {
        "name" : "log {\"body\":{\"meta\":null,\"data\":{\"id\":5550,\"name\":\"rZVyCnrmtU\",\"email\":\"Ju7ulDso6n@gmail.com\",\"gender\":\"male\",\"status\":\"active\"}},\"headers\":{\"server\":\"nginx\",\"date\":\"Mon, 21 Feb 2022 16:37:25 GMT\",\"content-type\":\"application/json; charset=utf-8\",\"transfer-encoding\":\"chunked\",\"connection\":\"keep-alive\",\"x-frame-options\":\"SAMEORIGIN\",\"x-xss-protection\":\"0\",\"x-content-type-options\":\"nosniff\",\"x-download-options\":\"noopen\",\"x-permitted-cross-domain-policies\":\"none\",\"referrer-policy\":\"strict-origin-when-cross-origin\",\"x-ratelimit-limit\":\"90\",\"x-ratelimit-remaining\":\"88\",\"x-ratelimit-reset\":\"1\",\"location\":\"https://gorest.co.in/public/v1/users/5550\",\"etag\":\"W/\\\"45db95d9e907989415689abafa19368c\\\"\",\"cache-control\":\"max-age=0, private, must-revalidate\",\"x-request-id\":\"5dec1289-c212-4ca8-bb46-22fe1aaca772\",\"x-runtime\":\"0.031122\",\"strict-transport-security\":\"max-age=63072000; includeSubDomains\",\"vary\":\"Origin\"},\"status\":201,\"statusText\":\"Created\",\"isOkStatusCode\":true,\"requestHeaders\":{\"Connection\":\"keep-alive\",\"authorization\":\"Bearer 4b4c8f088b43abd2c4328d13f40228324cda0ef0b05a86faaacb6fbd31a3124d\",\"user-agent\":\"Mozilla/5.0 (X11; Linux x86_64) AppleWebKit/537.36 (KHTML, like Gecko) HeadlessChrome/98.0.4758.80 Safari/537.36\",\"accept\":\"*/*\",\"accept-encoding\":\"gzip, deflate\",\"content-type\":\"application/json\",\"content-length\":86},\"requestBody\":\"{\\\"name\\\":\\\"rZVyCnrmtU\\\",\\\"email\\\":\\\"Ju7ulDso6n@gmail.com\\\",\\\"gender\\\":\\\"Male\\\",\\\"status\\\":\\\"Active\\\"}\",\"duration\":1325,\"allRequestResponses\":[{\"Request Body\":\"{\\\"name\\\":\\\"rZVyCnrmtU\\\",\\\"email\\\":\\\"Ju7ulDso6n@gmail.com\\\",\\\"gender\\\":\\\"Male\\\",\\\"status\\\":\\\"Active\\\"}\",\"Request Headers\":{\"Connection\":\"keep-alive\",\"authorization\":\"Bearer 4b4c8f088b43abd2c4328d13f40228324cda0ef0b05a86faaacb6fbd31a3124d\",\"user-agent\":\"Mozilla/5.0 (X11; Linux x86_64) AppleWebKit/537.36 (KHTML, like Gecko) HeadlessChrome/98.0.4758.80 Safari/537.36\",\"accept\":\"*/*\",\"accept-encoding\":\"gzip, deflate\",\"content-type\":\"application/json\",\"content-length\":86},\"Request URL\":\"https://gorest.co.in/public/v1/users\",\"Response Body\":{\"meta\":null,\"data\":{\"id\":5550,\"name\":\"rZVyCnrmtU\",\"email\":\"Ju7ulDso6n@gmail.com\",\"gender\":\"male\",\"status\":\"active\"}},\"Response Headers\":{\"server\":\"nginx\",\"date\":\"Mon, 21 Feb 2022 16:37:25 GMT\",\"content-type\":\"application/json; charset=utf-8\",\"transfer-encoding\":\"chunked\",\"connection\":\"keep-alive\",\"x-frame-options\":\"SAMEORIGIN\",\"x-xss-protection\":\"0\",\"x-content-type-options\":\"nosniff\",\"x-download-options\":\"noopen\",\"x-permitted-cross-domain-policies\":\"none\",\"referrer-policy\":\"strict-origin-when-cross-origin\",\"x-ratelimit-limit\":\"90\",\"x-ratelimit-remaining\":\"88\",\"x-ratelimit-reset\":\"1\",\"location\":\"https://gorest.co.in/public/v1/users/5550\",\"etag\":\"W/\\\"45db95d9e907989415689abafa19368c\\\"\",\"cache-control\":\"max-age=0, private, must-revalidate\",\"x-request-id\":\"5dec1289-c212-4ca8-bb46-22fe1aaca772\",\"x-runtime\":\"0.031122\",\"strict-transport-security\":\"max-age=63072000; includeSubDomains\",\"vary\":\"Origin\"},\"Response Status\":201}]}",
        "time" : {
          "start" : 1645461445437,
          "stop" : 1645461445442,
          "duration" : 5
        },
        "status" : "passed",
        "steps" : [ ],
        "attachments" : [ ],
        "parameters" : [ ],
        "stepsCount" : 0,
        "attachmentsCount" : 0,
        "shouldDisplayMessage" : false,
        "hasContent" : false
      } ],
      "attachments" : [ ],
      "parameters" : [ ],
      "stepsCount" : 3,
      "attachmentsCount" : 0,
      "shouldDisplayMessage" : false,
      "hasContent" : true
    }, {
      "name" : "Then User Validates Get Call",
      "time" : {
        "start" : 1645461445445,
        "stop" : 1645461445741,
        "duration" : 296
      },
      "status" : "passed",
      "steps" : [ {
        "name" : "GET 200 https://gorest.co.in/public/v1/users",
        "time" : {
          "start" : 1645461445445,
          "stop" : 1645461445728,
          "duration" : 283
        },
        "status" : "passed",
        "steps" : [ ],
        "attachments" : [ ],
        "parameters" : [ ],
        "stepsCount" : 0,
        "attachmentsCount" : 0,
        "shouldDisplayMessage" : false,
        "hasContent" : false
      }, {
        "name" : "log {\"body\":{\"meta\":{\"pagination\":{\"total\":4056,\"pages\":203,\"page\":1,\"limit\":20,\"links\":{\"previous\":null,\"current\":\"https://gorest.co.in/public/v1/users?page=1\",\"next\":\"https://gorest.co.in/public/v1/users?page=2\"}}},\"data\":[{\"id\":5550,\"name\":\"rZVyCnrmtU\",\"email\":\"Ju7ulDso6n@gmail.com\",\"gender\":\"male\",\"status\":\"active\"},{\"id\":5549,\"name\":\"lHGtvwJEpp\",\"email\":\"vviBSonryu@gmail.com\",\"gender\":\"male\",\"status\":\"active\"},{\"id\":5545,\"name\":\"jZsNKtpOfP\",\"email\":\"99G5Lm3GW4@gmail.com\",\"gender\":\"male\",\"status\":\"active\"},{\"id\":5529,\"name\":\"tqLzWFIHZN\",\"email\":\"0eAfVj5GlD@gmail.com\",\"gender\":\"male\",\"status\":\"active\"},{\"id\":5528,\"name\":\"MLSejewxJY\",\"email\":\"7Inf71gcAp@gmail.com\",\"gender\":\"male\",\"status\":\"active\"},{\"id\":5527,\"name\":\"wdkzwxACQo\",\"email\":\"qubbaa56Jr@gmail.com\",\"gender\":\"male\",\"status\":\"active\"},{\"id\":5513,\"name\":\"mCTVlRKnrR\",\"email\":\"drCY3k12qT@gmail.com\",\"gender\":\"male\",\"status\":\"active\"},{\"id\":5512,\"name\":\"jqMHonUrKQ\",\"email\":\"PGZbt6qb6F@gmail.com\",\"gender\":\"male\",\"status\":\"active\"},{\"id\":5510,\"name\":\"VTSeyKeNtm\",\"email\":\"oXm9wh5Gwd@gmail.com\",\"gender\":\"male\",\"status\":\"active\"},{\"id\":5509,\"name\":\"ZHaNptcoHk\",\"email\":\"RpmJhSJyyN@gmail.com\",\"gender\":\"male\",\"status\":\"active\"},{\"id\":5508,\"name\":\"OgeqpsCukp\",\"email\":\"2pHDy6Scu7@gmail.com\",\"gender\":\"male\",\"status\":\"active\"},{\"id\":5507,\"name\":\"GuqnYWqYrZ\",\"email\":\"inZo8ludXX@gmail.com\",\"gender\":\"male\",\"status\":\"active\"},{\"id\":5506,\"name\":\"eTaEjrtYmk\",\"email\":\"qoU1nYeYMj@gmail.com\",\"gender\":\"male\",\"status\":\"active\"},{\"id\":5505,\"name\":\"QmZHlJuKOb\",\"email\":\"6D9flk8qzt@gmail.com\",\"gender\":\"male\",\"status\":\"active\"},{\"id\":5504,\"name\":\"HMrJocQEOt\",\"email\":\"ggC1Nha6uI@gmail.com\",\"gender\":\"male\",\"status\":\"active\"},{\"id\":5502,\"name\":\"WlmhkHbYAn\",\"email\":\"kZB26x4hAn@gmail.com\",\"gender\":\"male\",\"status\":\"active\"},{\"id\":5500,\"name\":\"ANAHdyvDIC\",\"email\":\"ASZTMASrfH@gmail.com\",\"gender\":\"male\",\"status\":\"active\"},{\"id\":5499,\"name\":\"pdUTxPLLhq\",\"email\":\"J5DlXeH5ue@gmail.com\",\"gender\":\"male\",\"status\":\"active\"},{\"id\":5498,\"name\":\"JMJgkknRPC\",\"email\":\"Z5KM96CO4w@gmail.com\",\"gender\":\"male\",\"status\":\"active\"},{\"id\":5497,\"name\":\"QyxWLGjPEa\",\"email\":\"51RqiqASjE@gmail.com\",\"gender\":\"male\",\"status\":\"active\"}]},\"headers\":{\"server\":\"nginx\",\"date\":\"Mon, 21 Feb 2022 16:37:25 GMT\",\"content-type\":\"application/json; charset=utf-8\",\"transfer-encoding\":\"chunked\",\"connection\":\"keep-alive\",\"vary\":\"Accept-Encoding, Origin\",\"x-frame-options\":\"SAMEORIGIN\",\"x-xss-protection\":\"0\",\"x-content-type-options\":\"nosniff\",\"x-download-options\":\"noopen\",\"x-permitted-cross-domain-policies\":\"none\",\"referrer-policy\":\"strict-origin-when-cross-origin\",\"x-ratelimit-limit\":\"90\",\"x-ratelimit-remaining\":\"89\",\"x-ratelimit-reset\":\"2\",\"etag\":\"W/\\\"be2d36eee4773a6780fb419c2ed356a5\\\"\",\"cache-control\":\"max-age=0, private, must-revalidate\",\"x-request-id\":\"862de518-3db8-4dd5-80eb-7a837b750d8a\",\"x-runtime\":\"0.028579\",\"strict-transport-security\":\"max-age=63072000; includeSubDomains\",\"content-encoding\":\"gzip\"},\"status\":200,\"statusText\":\"OK\",\"isOkStatusCode\":true,\"requestHeaders\":{\"Connection\":\"keep-alive\",\"authorization\":\"Bearer 4b4c8f088b43abd2c4328d13f40228324cda0ef0b05a86faaacb6fbd31a3124d\",\"user-agent\":\"Mozilla/5.0 (X11; Linux x86_64) AppleWebKit/537.36 (KHTML, like Gecko) HeadlessChrome/98.0.4758.80 Safari/537.36\",\"accept\":\"*/*\",\"accept-encoding\":\"gzip, deflate\"},\"duration\":276,\"allRequestResponses\":[{\"Request Body\":null,\"Request Headers\":{\"Connection\":\"keep-alive\",\"authorization\":\"Bearer 4b4c8f088b43abd2c4328d13f40228324cda0ef0b05a86faaacb6fbd31a3124d\",\"user-agent\":\"Mozilla/5.0 (X11; Linux x86_64) AppleWebKit/537.36 (KHTML, like Gecko) HeadlessChrome/98.0.4758.80 Safari/537.36\",\"accept\":\"*/*\",\"accept-encoding\":\"gzip, deflate\"},\"Request URL\":\"https://gorest.co.in/public/v1/users\",\"Response Body\":\"{\\\"meta\\\":{\\\"pagination\\\":{\\\"total\\\":4056,\\\"pages\\\":203,\\\"page\\\":1,\\\"limit\\\":20,\\\"links\\\":{\\\"previous\\\":null,\\\"current\\\":\\\"https://gorest.co.in/public/v1/users?page=1\\\",\\\"next\\\":\\\"https://gorest.co.in/public/v1/users?page=2\\\"}}},\\\"data\\\":[{\\\"id\\\":5550,\\\"name\\\":\\\"rZVyCnrmtU\\\",\\\"email\\\":\\\"Ju7ulDso6n@gmail.com\\\",\\\"gender\\\":\\\"male\\\",\\\"status\\\":\\\"active\\\"},{\\\"id\\\":5549,\\\"name\\\":\\\"lHGtvwJEpp\\\",\\\"email\\\":\\\"vviBSonryu@gmail.com\\\",\\\"gender\\\":\\\"male\\\",\\\"status\\\":\\\"active\\\"},{\\\"id\\\":5545,\\\"name\\\":\\\"jZsNKtpOfP\\\",\\\"email\\\":\\\"99G5Lm3GW4@gmail.com\\\",\\\"gender\\\":\\\"male\\\",\\\"status\\\":\\\"active\\\"},{\\\"id\\\":5529,\\\"name\\\":\\\"tqLzWFIHZN\\\",\\\"email\\\":\\\"0eAfVj5GlD@gmail.com\\\",\\\"gender\\\":\\\"male\\\",\\\"status\\\":\\\"active\\\"},{\\\"id\\\":5528,\\\"name\\\":\\\"MLSejewxJY\\\",\\\"email\\\":\\\"7Inf71gcAp@gmail.com\\\",\\\"gender\\\":\\\"male\\\",\\\"status\\\":\\\"active\\\"},{\\\"id\\\":5527,\\\"name\\\":\\\"wdkzwxACQo\\\",\\\"email\\\":\\\"qubbaa56Jr@gmail.com\\\",\\\"gender\\\":\\\"male\\\",\\\"status\\\":\\\"active\\\"},{\\\"id\\\":5513,\\\"name\\\":\\\"mCTVlRKnrR\\\",\\\"email\\\":\\\"drCY3k12qT@gmail.com\\\",\\\"gender\\\":\\\"male\\\",\\\"status\\\":\\\"active\\\"},{\\\"id\\\":5512,\\\"name\\\":\\\"jqMHonUrKQ\\\",\\\"email\\\":\\\"PGZbt6qb6F@gmail.com\\\",\\\"gender\\\":\\\"male\\\",\\\"status\\\":\\\"active\\\"},{\\\"id\\\":5510,\\\"name\\\":\\\"VTSeyKeNtm\\\",\\\"email\\\":\\\"oXm9wh5Gwd@gmail.com\\\",\\\"gender\\\":\\\"male\\\",\\\"status\\\":\\\"active\\\"},{\\\"id\\\":5509,\\\"name\\\":\\\"ZHaNptcoHk\\\",\\\"email\\\":\\\"RpmJhSJyyN@gmail.com\\\",\\\"gender\\\":\\\"male\\\",\\\"status\\\":\\\"active\\\"},{\\\"id\\\":5508,\\\"name\\\":\\\"OgeqpsCukp\\\",\\\"email\\\":\\\"2pHDy6Scu7@gmail.com\\\",\\\"gender\\\":\\\"male\\\",\\\"status\\\":\\\"active\\\"},{\\\"id\\\":5507,\\\"name\\\":\\\"GuqnYWqYrZ\\\",\\\"email\\\":\\\"inZo8ludXX@gmail.com\\\",\\\"gender\\\":\\\"male\\\",\\\"status\\\":\\\"active\\\"},{\\\"id\\\":5506,\\\"name\\\":\\\"eTaEjrtYmk\\\",\\\"email\\\":\\\"qoU1nYeYMj@gmail.com\\\",\\\"gender\\\":\\\"male\\\",\\\"status\\\":\\\"active\\\"},{\\\"id\\\":5505,\\\"name\\\":\\\"QmZHlJuKOb\\\",\\\"email\\\":\\\"6D9flk8qzt@gmail.com\\\",\\\"gender\\\":\\\"male\\\",\\\"status\\\":\\\"active\\\"},{\\\"id\\\":5504,\\\"name\\\":\\\"HMrJocQEOt\\\",\\\"email\\\":\\\"ggC1Nha6uI@gmail.com\\\",\\\"gender\\\":\\\"male\\\",\\\"status\\\":\\\"active\\\"},{\\\"id\\\":5502,\\\"name\\\":\\\"WlmhkHbYAn\\\",\\\"email\\\":\\\"kZB26x4hAn@gmail.com\\\",\\\"gender\\\":\\\"male\\\",\\\"status\\\":\\\"active\\\"},{\\\"id\\\":5500,\\\"name\\\":\\\"ANAHdyvDIC\\\",\\\"email\\\":\\\"ASZTMASrfH@gmail.com\\\",\\\"gender\\\":\\\"male\\\",\\\"status\\\":\\\"active\\\"},{\\\"id\\\":5499,\\\"name\\\":\\\"pdUTxPLLhq\\\",\\\"email\\\":\\\"J5DlXeH5ue@gmail.com\\\",\\\"gender\\\":\\\"male\\\",\\\"status\\\":\\\"active\\\"},{\\\"id\\\":5498,\\\"name\\\":\\\"JMJgkknRPC\\\",\\\"email\\\":\\\"Z5KM96CO4w@gmail.com\\\",\\\"gender\\\":\\\"male\\\",\\\"status\\\":\\\"active\\\"},{\\\"id\\\":5497,\\\"name\\\":\\\"QyxWLGjPEa\\\",\\\"email\\\":\\\"51RqiqASjE@gmail.com\\\",\\\"gender\\\":\\\"male\\\",\\\"status\\\":\\\"active\\\"}]}\",\"Response Headers\":{\"server\":\"nginx\",\"date\":\"Mon, 21 Feb 2022 16:37:25 GMT\",\"content-type\":\"application/json; charset=utf-8\",\"transfer-encoding\":\"chunked\",\"connection\":\"keep-alive\",\"vary\":\"Accept-Encoding, Origin\",\"x-frame-options\":\"SAMEORIGIN\",\"x-xss-protection\":\"0\",\"x-content-type-options\":\"nosniff\",\"x-download-options\":\"noopen\",\"x-permitted-cross-domain-policies\":\"none\",\"referrer-policy\":\"strict-origin-when-cross-origin\",\"x-ratelimit-limit\":\"90\",\"x-ratelimit-remaining\":\"89\",\"x-ratelimit-reset\":\"2\",\"etag\":\"W/\\\"be2d36eee4773a6780fb419c2ed356a5\\\"\",\"cache-control\":\"max-age=0, private, must-revalidate\",\"x-request-id\":\"862de518-3db8-4dd5-80eb-7a837b750d8a\",\"x-runtime\":\"0.028579\",\"strict-transport-security\":\"max-age=63072000; includeSubDomains\",\"content-encoding\":\"gzip\"},\"Response Status\":200}]}",
        "time" : {
          "start" : 1645461445731,
          "stop" : 1645461445739,
          "duration" : 8
        },
        "status" : "passed",
        "steps" : [ ],
        "attachments" : [ ],
        "parameters" : [ ],
        "stepsCount" : 0,
        "attachmentsCount" : 0,
        "shouldDisplayMessage" : false,
        "hasContent" : false
      } ],
      "attachments" : [ ],
      "parameters" : [ ],
      "stepsCount" : 2,
      "attachmentsCount" : 0,
      "shouldDisplayMessage" : false,
      "hasContent" : true
    }, {
      "name" : "Then User Validates Put Call",
      "time" : {
        "start" : 1645461445741,
        "stop" : 1645461445748,
        "duration" : 7
      },
      "status" : "passed",
      "steps" : [ {
        "name" : "log Put Method",
        "time" : {
          "start" : 1645461445742,
          "stop" : 1645461445745,
          "duration" : 3
        },
        "status" : "passed",
        "steps" : [ ],
        "attachments" : [ ],
        "parameters" : [ ],
        "stepsCount" : 0,
        "attachmentsCount" : 0,
        "shouldDisplayMessage" : false,
        "hasContent" : false
      } ],
      "attachments" : [ ],
      "parameters" : [ ],
      "stepsCount" : 1,
      "attachmentsCount" : 0,
      "shouldDisplayMessage" : false,
      "hasContent" : true
    }, {
      "name" : "Then User Validates Delete Call",
      "time" : {
        "start" : 1645461445748,
        "stop" : 1645461445751,
        "duration" : 3
      },
      "status" : "passed",
      "steps" : [ {
        "name" : "log Delete Method",
        "time" : {
          "start" : 1645461445748,
          "stop" : 1645461445750,
          "duration" : 2
        },
        "status" : "passed",
        "steps" : [ ],
        "attachments" : [ ],
        "parameters" : [ ],
        "stepsCount" : 0,
        "attachmentsCount" : 0,
        "shouldDisplayMessage" : false,
        "hasContent" : false
      } ],
      "attachments" : [ ],
      "parameters" : [ ],
      "stepsCount" : 1,
      "attachmentsCount" : 0,
      "shouldDisplayMessage" : false,
      "hasContent" : true
    }, {
      "name" : "\"after each\" hook",
      "time" : {
        "start" : 1645461445764,
        "stop" : 1645461445765,
        "duration" : 1
      },
      "status" : "passed",
      "steps" : [ ],
      "attachments" : [ ],
      "parameters" : [ ],
      "stepsCount" : 0,
      "attachmentsCount" : 0,
      "shouldDisplayMessage" : false,
      "hasContent" : false
    } ],
    "attachments" : [ {
      "uid" : "7a1526fe23ebc6c7",
      "name" : "video recording",
      "source" : "7a1526fe23ebc6c7.mp4",
      "type" : "video/mp4",
      "size" : 317264
    } ],
    "parameters" : [ ],
    "stepsCount" : 13,
    "attachmentsCount" : 1,
    "shouldDisplayMessage" : false,
    "hasContent" : true
  },
  "afterStages" : [ ],
  "labels" : [ {
    "name" : "suite",
    "value" : "Test E2E"
  }, {
    "name" : "feature",
    "value" : "Test E2E"
  }, {
    "name" : "tag",
    "value" : "Smoke"
  }, {
    "name" : "resultFormat",
    "value" : "allure2"
  } ],
  "parameters" : [ ],
  "links" : [ ],
  "hidden" : false,
  "retry" : false,
  "extra" : {
    "severity" : "normal",
    "retries" : [ ],
    "categories" : [ ],
    "tags" : [ "Smoke" ]
  },
  "source" : "cc2fb03d48dd2c57.json",
  "parameterValues" : [ ]
}