{
  "uid" : "fd943215a5adbf96",
  "name" : "TC004:Validate API Test",
  "fullName" : "TC004:Validate API Test",
  "historyId" : "c794df0de679a908cebc0733ea684a45",
  "time" : {
    "start" : 1645460777925,
    "stop" : 1645460779500,
    "duration" : 1575
  },
  "status" : "passed",
  "flaky" : false,
  "newFailed" : false,
  "beforeStages" : [ ],
  "testStage" : {
    "status" : "passed",
    "steps" : [ {
      "name" : "\"before each\" hook",
      "time" : {
        "start" : 1645460777930,
        "stop" : 1645460777931,
        "duration" : 1
      },
      "status" : "passed",
      "steps" : [ ],
      "attachments" : [ ],
      "parameters" : [ ],
      "stepsCount" : 0,
      "attachmentsCount" : 0,
      "shouldDisplayMessage" : false,
      "hasContent" : false
    }, {
      "name" : "Then User Validates Post Call",
      "time" : {
        "start" : 1645460777945,
        "stop" : 1645460779180,
        "duration" : 1235
      },
      "status" : "passed",
      "steps" : [ {
        "name" : "log https://gorest.co.in/public/v1/users",
        "time" : {
          "start" : 1645460777946,
          "stop" : 1645460777950,
          "duration" : 4
        },
        "status" : "passed",
        "steps" : [ ],
        "attachments" : [ ],
        "parameters" : [ ],
        "stepsCount" : 0,
        "attachmentsCount" : 0,
        "shouldDisplayMessage" : false,
        "hasContent" : false
      }, {
        "name" : "POST 201 https://gorest.co.in/public/v1/users",
        "time" : {
          "start" : 1645460777951,
          "stop" : 1645460779165,
          "duration" : 1214
        },
        "status" : "passed",
        "steps" : [ ],
        "attachments" : [ ],
        "parameters" : [ ],
        "stepsCount" : 0,
        "attachmentsCount" : 0,
        "shouldDisplayMessage" : false,
        "hasContent" : false
      }, {
        "name" : "log {\"body\":{\"meta\":null,\"data\":{\"id\":5529,\"name\":\"tqLzWFIHZN\",\"email\":\"0eAfVj5GlD@gmail.com\",\"gender\":\"male\",\"status\":\"active\"}},\"headers\":{\"server\":\"nginx\",\"date\":\"Mon, 21 Feb 2022 16:26:19 GMT\",\"content-type\":\"application/json; charset=utf-8\",\"transfer-encoding\":\"chunked\",\"connection\":\"keep-alive\",\"x-frame-options\":\"SAMEORIGIN\",\"x-xss-protection\":\"0\",\"x-content-type-options\":\"nosniff\",\"x-download-options\":\"noopen\",\"x-permitted-cross-domain-policies\":\"none\",\"referrer-policy\":\"strict-origin-when-cross-origin\",\"x-ratelimit-limit\":\"90\",\"x-ratelimit-remaining\":\"88\",\"x-ratelimit-reset\":\"1\",\"location\":\"https://gorest.co.in/public/v1/users/5529\",\"etag\":\"W/\\\"8f9437e1b7f8276dc602ffb5a6daece6\\\"\",\"cache-control\":\"max-age=0, private, must-revalidate\",\"x-request-id\":\"ac2b32a4-3906-4518-a92a-d143d7561b3b\",\"x-runtime\":\"0.021563\",\"strict-transport-security\":\"max-age=63072000; includeSubDomains\",\"vary\":\"Origin\"},\"status\":201,\"statusText\":\"Created\",\"isOkStatusCode\":true,\"requestHeaders\":{\"Connection\":\"keep-alive\",\"authorization\":\"Bearer 4b4c8f088b43abd2c4328d13f40228324cda0ef0b05a86faaacb6fbd31a3124d\",\"user-agent\":\"Mozilla/5.0 (X11; Linux x86_64) AppleWebKit/537.36 (KHTML, like Gecko) HeadlessChrome/98.0.4758.80 Safari/537.36\",\"accept\":\"*/*\",\"accept-encoding\":\"gzip, deflate\",\"content-type\":\"application/json\",\"content-length\":86},\"requestBody\":\"{\\\"name\\\":\\\"tqLzWFIHZN\\\",\\\"email\\\":\\\"0eAfVj5GlD@gmail.com\\\",\\\"gender\\\":\\\"Male\\\",\\\"status\\\":\\\"Active\\\"}\",\"duration\":1192,\"allRequestResponses\":[{\"Request Body\":\"{\\\"name\\\":\\\"tqLzWFIHZN\\\",\\\"email\\\":\\\"0eAfVj5GlD@gmail.com\\\",\\\"gender\\\":\\\"Male\\\",\\\"status\\\":\\\"Active\\\"}\",\"Request Headers\":{\"Connection\":\"keep-alive\",\"authorization\":\"Bearer 4b4c8f088b43abd2c4328d13f40228324cda0ef0b05a86faaacb6fbd31a3124d\",\"user-agent\":\"Mozilla/5.0 (X11; Linux x86_64) AppleWebKit/537.36 (KHTML, like Gecko) HeadlessChrome/98.0.4758.80 Safari/537.36\",\"accept\":\"*/*\",\"accept-encoding\":\"gzip, deflate\",\"content-type\":\"application/json\",\"content-length\":86},\"Request URL\":\"https://gorest.co.in/public/v1/users\",\"Response Body\":{\"meta\":null,\"data\":{\"id\":5529,\"name\":\"tqLzWFIHZN\",\"email\":\"0eAfVj5GlD@gmail.com\",\"gender\":\"male\",\"status\":\"active\"}},\"Response Headers\":{\"server\":\"nginx\",\"date\":\"Mon, 21 Feb 2022 16:26:19 GMT\",\"content-type\":\"application/json; charset=utf-8\",\"transfer-encoding\":\"chunked\",\"connection\":\"keep-alive\",\"x-frame-options\":\"SAMEORIGIN\",\"x-xss-protection\":\"0\",\"x-content-type-options\":\"nosniff\",\"x-download-options\":\"noopen\",\"x-permitted-cross-domain-policies\":\"none\",\"referrer-policy\":\"strict-origin-when-cross-origin\",\"x-ratelimit-limit\":\"90\",\"x-ratelimit-remaining\":\"88\",\"x-ratelimit-reset\":\"1\",\"location\":\"https://gorest.co.in/public/v1/users/5529\",\"etag\":\"W/\\\"8f9437e1b7f8276dc602ffb5a6daece6\\\"\",\"cache-control\":\"max-age=0, private, must-revalidate\",\"x-request-id\":\"ac2b32a4-3906-4518-a92a-d143d7561b3b\",\"x-runtime\":\"0.021563\",\"strict-transport-security\":\"max-age=63072000; includeSubDomains\",\"vary\":\"Origin\"},\"Response Status\":201}]}",
        "time" : {
          "start" : 1645460779172,
          "stop" : 1645460779177,
          "duration" : 5
        },
        "status" : "passed",
        "steps" : [ ],
        "attachments" : [ ],
        "parameters" : [ ],
        "stepsCount" : 0,
        "attachmentsCount" : 0,
        "shouldDisplayMessage" : false,
        "hasContent" : false
      } ],
      "attachments" : [ ],
      "parameters" : [ ],
      "stepsCount" : 3,
      "attachmentsCount" : 0,
      "shouldDisplayMessage" : false,
      "hasContent" : true
    }, {
      "name" : "Then User Validates Get Call",
      "time" : {
        "start" : 1645460779180,
        "stop" : 1645460779483,
        "duration" : 303
      },
      "status" : "passed",
      "steps" : [ {
        "name" : "GET 200 https://gorest.co.in/public/v1/users",
        "time" : {
          "start" : 1645460779181,
          "stop" : 1645460779461,
          "duration" : 280
        },
        "status" : "passed",
        "steps" : [ ],
        "attachments" : [ ],
        "parameters" : [ ],
        "stepsCount" : 0,
        "attachmentsCount" : 0,
        "shouldDisplayMessage" : false,
        "hasContent" : false
      }, {
        "name" : "log {\"body\":{\"meta\":{\"pagination\":{\"total\":4053,\"pages\":203,\"page\":1,\"limit\":20,\"links\":{\"previous\":null,\"current\":\"https://gorest.co.in/public/v1/users?page=1\",\"next\":\"https://gorest.co.in/public/v1/users?page=2\"}}},\"data\":[{\"id\":5529,\"name\":\"tqLzWFIHZN\",\"email\":\"0eAfVj5GlD@gmail.com\",\"gender\":\"male\",\"status\":\"active\"},{\"id\":5528,\"name\":\"MLSejewxJY\",\"email\":\"7Inf71gcAp@gmail.com\",\"gender\":\"male\",\"status\":\"active\"},{\"id\":5527,\"name\":\"wdkzwxACQo\",\"email\":\"qubbaa56Jr@gmail.com\",\"gender\":\"male\",\"status\":\"active\"},{\"id\":5513,\"name\":\"mCTVlRKnrR\",\"email\":\"drCY3k12qT@gmail.com\",\"gender\":\"male\",\"status\":\"active\"},{\"id\":5512,\"name\":\"jqMHonUrKQ\",\"email\":\"PGZbt6qb6F@gmail.com\",\"gender\":\"male\",\"status\":\"active\"},{\"id\":5510,\"name\":\"VTSeyKeNtm\",\"email\":\"oXm9wh5Gwd@gmail.com\",\"gender\":\"male\",\"status\":\"active\"},{\"id\":5509,\"name\":\"ZHaNptcoHk\",\"email\":\"RpmJhSJyyN@gmail.com\",\"gender\":\"male\",\"status\":\"active\"},{\"id\":5508,\"name\":\"OgeqpsCukp\",\"email\":\"2pHDy6Scu7@gmail.com\",\"gender\":\"male\",\"status\":\"active\"},{\"id\":5507,\"name\":\"GuqnYWqYrZ\",\"email\":\"inZo8ludXX@gmail.com\",\"gender\":\"male\",\"status\":\"active\"},{\"id\":5506,\"name\":\"eTaEjrtYmk\",\"email\":\"qoU1nYeYMj@gmail.com\",\"gender\":\"male\",\"status\":\"active\"},{\"id\":5505,\"name\":\"QmZHlJuKOb\",\"email\":\"6D9flk8qzt@gmail.com\",\"gender\":\"male\",\"status\":\"active\"},{\"id\":5504,\"name\":\"HMrJocQEOt\",\"email\":\"ggC1Nha6uI@gmail.com\",\"gender\":\"male\",\"status\":\"active\"},{\"id\":5502,\"name\":\"WlmhkHbYAn\",\"email\":\"kZB26x4hAn@gmail.com\",\"gender\":\"male\",\"status\":\"active\"},{\"id\":5500,\"name\":\"ANAHdyvDIC\",\"email\":\"ASZTMASrfH@gmail.com\",\"gender\":\"male\",\"status\":\"active\"},{\"id\":5499,\"name\":\"pdUTxPLLhq\",\"email\":\"J5DlXeH5ue@gmail.com\",\"gender\":\"male\",\"status\":\"active\"},{\"id\":5498,\"name\":\"JMJgkknRPC\",\"email\":\"Z5KM96CO4w@gmail.com\",\"gender\":\"male\",\"status\":\"active\"},{\"id\":5497,\"name\":\"QyxWLGjPEa\",\"email\":\"51RqiqASjE@gmail.com\",\"gender\":\"male\",\"status\":\"active\"},{\"id\":5496,\"name\":\"NKRgSfKjvG\",\"email\":\"0GGZIxFAOW@gmail.com\",\"gender\":\"male\",\"status\":\"active\"},{\"id\":5488,\"name\":\"vdMofGItCN\",\"email\":\"Mgz0arFVaN@gmail.com\",\"gender\":\"male\",\"status\":\"active\"},{\"id\":5486,\"name\":\"VTRkPPyuSw\",\"email\":\"tTxe8MAPmq@gmail.com\",\"gender\":\"male\",\"status\":\"active\"}]},\"headers\":{\"server\":\"nginx\",\"date\":\"Mon, 21 Feb 2022 16:26:19 GMT\",\"content-type\":\"application/json; charset=utf-8\",\"transfer-encoding\":\"chunked\",\"connection\":\"keep-alive\",\"vary\":\"Accept-Encoding, Origin\",\"x-frame-options\":\"SAMEORIGIN\",\"x-xss-protection\":\"0\",\"x-content-type-options\":\"nosniff\",\"x-download-options\":\"noopen\",\"x-permitted-cross-domain-policies\":\"none\",\"referrer-policy\":\"strict-origin-when-cross-origin\",\"x-ratelimit-limit\":\"90\",\"x-ratelimit-remaining\":\"89\",\"x-ratelimit-reset\":\"2\",\"etag\":\"W/\\\"0941fe96e9df6462241df3af6b573ee8\\\"\",\"cache-control\":\"max-age=0, private, must-revalidate\",\"x-request-id\":\"9f55e185-a804-4ef9-a8a1-1dff73218cf6\",\"x-runtime\":\"0.037435\",\"strict-transport-security\":\"max-age=63072000; includeSubDomains\",\"content-encoding\":\"gzip\"},\"status\":200,\"statusText\":\"OK\",\"isOkStatusCode\":true,\"requestHeaders\":{\"Connection\":\"keep-alive\",\"authorization\":\"Bearer 4b4c8f088b43abd2c4328d13f40228324cda0ef0b05a86faaacb6fbd31a3124d\",\"user-agent\":\"Mozilla/5.0 (X11; Linux x86_64) AppleWebKit/537.36 (KHTML, like Gecko) HeadlessChrome/98.0.4758.80 Safari/537.36\",\"accept\":\"*/*\",\"accept-encoding\":\"gzip, deflate\"},\"duration\":273,\"allRequestResponses\":[{\"Request Body\":null,\"Request Headers\":{\"Connection\":\"keep-alive\",\"authorization\":\"Bearer 4b4c8f088b43abd2c4328d13f40228324cda0ef0b05a86faaacb6fbd31a3124d\",\"user-agent\":\"Mozilla/5.0 (X11; Linux x86_64) AppleWebKit/537.36 (KHTML, like Gecko) HeadlessChrome/98.0.4758.80 Safari/537.36\",\"accept\":\"*/*\",\"accept-encoding\":\"gzip, deflate\"},\"Request URL\":\"https://gorest.co.in/public/v1/users\",\"Response Body\":\"{\\\"meta\\\":{\\\"pagination\\\":{\\\"total\\\":4053,\\\"pages\\\":203,\\\"page\\\":1,\\\"limit\\\":20,\\\"links\\\":{\\\"previous\\\":null,\\\"current\\\":\\\"https://gorest.co.in/public/v1/users?page=1\\\",\\\"next\\\":\\\"https://gorest.co.in/public/v1/users?page=2\\\"}}},\\\"data\\\":[{\\\"id\\\":5529,\\\"name\\\":\\\"tqLzWFIHZN\\\",\\\"email\\\":\\\"0eAfVj5GlD@gmail.com\\\",\\\"gender\\\":\\\"male\\\",\\\"status\\\":\\\"active\\\"},{\\\"id\\\":5528,\\\"name\\\":\\\"MLSejewxJY\\\",\\\"email\\\":\\\"7Inf71gcAp@gmail.com\\\",\\\"gender\\\":\\\"male\\\",\\\"status\\\":\\\"active\\\"},{\\\"id\\\":5527,\\\"name\\\":\\\"wdkzwxACQo\\\",\\\"email\\\":\\\"qubbaa56Jr@gmail.com\\\",\\\"gender\\\":\\\"male\\\",\\\"status\\\":\\\"active\\\"},{\\\"id\\\":5513,\\\"name\\\":\\\"mCTVlRKnrR\\\",\\\"email\\\":\\\"drCY3k12qT@gmail.com\\\",\\\"gender\\\":\\\"male\\\",\\\"status\\\":\\\"active\\\"},{\\\"id\\\":5512,\\\"name\\\":\\\"jqMHonUrKQ\\\",\\\"email\\\":\\\"PGZbt6qb6F@gmail.com\\\",\\\"gender\\\":\\\"male\\\",\\\"status\\\":\\\"active\\\"},{\\\"id\\\":5510,\\\"name\\\":\\\"VTSeyKeNtm\\\",\\\"email\\\":\\\"oXm9wh5Gwd@gmail.com\\\",\\\"gender\\\":\\\"male\\\",\\\"status\\\":\\\"active\\\"},{\\\"id\\\":5509,\\\"name\\\":\\\"ZHaNptcoHk\\\",\\\"email\\\":\\\"RpmJhSJyyN@gmail.com\\\",\\\"gender\\\":\\\"male\\\",\\\"status\\\":\\\"active\\\"},{\\\"id\\\":5508,\\\"name\\\":\\\"OgeqpsCukp\\\",\\\"email\\\":\\\"2pHDy6Scu7@gmail.com\\\",\\\"gender\\\":\\\"male\\\",\\\"status\\\":\\\"active\\\"},{\\\"id\\\":5507,\\\"name\\\":\\\"GuqnYWqYrZ\\\",\\\"email\\\":\\\"inZo8ludXX@gmail.com\\\",\\\"gender\\\":\\\"male\\\",\\\"status\\\":\\\"active\\\"},{\\\"id\\\":5506,\\\"name\\\":\\\"eTaEjrtYmk\\\",\\\"email\\\":\\\"qoU1nYeYMj@gmail.com\\\",\\\"gender\\\":\\\"male\\\",\\\"status\\\":\\\"active\\\"},{\\\"id\\\":5505,\\\"name\\\":\\\"QmZHlJuKOb\\\",\\\"email\\\":\\\"6D9flk8qzt@gmail.com\\\",\\\"gender\\\":\\\"male\\\",\\\"status\\\":\\\"active\\\"},{\\\"id\\\":5504,\\\"name\\\":\\\"HMrJocQEOt\\\",\\\"email\\\":\\\"ggC1Nha6uI@gmail.com\\\",\\\"gender\\\":\\\"male\\\",\\\"status\\\":\\\"active\\\"},{\\\"id\\\":5502,\\\"name\\\":\\\"WlmhkHbYAn\\\",\\\"email\\\":\\\"kZB26x4hAn@gmail.com\\\",\\\"gender\\\":\\\"male\\\",\\\"status\\\":\\\"active\\\"},{\\\"id\\\":5500,\\\"name\\\":\\\"ANAHdyvDIC\\\",\\\"email\\\":\\\"ASZTMASrfH@gmail.com\\\",\\\"gender\\\":\\\"male\\\",\\\"status\\\":\\\"active\\\"},{\\\"id\\\":5499,\\\"name\\\":\\\"pdUTxPLLhq\\\",\\\"email\\\":\\\"J5DlXeH5ue@gmail.com\\\",\\\"gender\\\":\\\"male\\\",\\\"status\\\":\\\"active\\\"},{\\\"id\\\":5498,\\\"name\\\":\\\"JMJgkknRPC\\\",\\\"email\\\":\\\"Z5KM96CO4w@gmail.com\\\",\\\"gender\\\":\\\"male\\\",\\\"status\\\":\\\"active\\\"},{\\\"id\\\":5497,\\\"name\\\":\\\"QyxWLGjPEa\\\",\\\"email\\\":\\\"51RqiqASjE@gmail.com\\\",\\\"gender\\\":\\\"male\\\",\\\"status\\\":\\\"active\\\"},{\\\"id\\\":5496,\\\"name\\\":\\\"NKRgSfKjvG\\\",\\\"email\\\":\\\"0GGZIxFAOW@gmail.com\\\",\\\"gender\\\":\\\"male\\\",\\\"status\\\":\\\"active\\\"},{\\\"id\\\":5488,\\\"name\\\":\\\"vdMofGItCN\\\",\\\"email\\\":\\\"Mgz0arFVaN@gmail.com\\\",\\\"gender\\\":\\\"male\\\",\\\"status\\\":\\\"active\\\"},{\\\"id\\\":5486,\\\"name\\\":\\\"VTRkPPyuSw\\\",\\\"email\\\":\\\"tTxe8MAPmq@gmail.com\\\",\\\"gender\\\":\\\"male\\\",\\\"status\\\":\\\"active\\\"}]}\",\"Response Headers\":{\"server\":\"nginx\",\"date\":\"Mon, 21 Feb 2022 16:26:19 GMT\",\"content-type\":\"application/json; charset=utf-8\",\"transfer-encoding\":\"chunked\",\"connection\":\"keep-alive\",\"vary\":\"Accept-Encoding, Origin\",\"x-frame-options\":\"SAMEORIGIN\",\"x-xss-protection\":\"0\",\"x-content-type-options\":\"nosniff\",\"x-download-options\":\"noopen\",\"x-permitted-cross-domain-policies\":\"none\",\"referrer-policy\":\"strict-origin-when-cross-origin\",\"x-ratelimit-limit\":\"90\",\"x-ratelimit-remaining\":\"89\",\"x-ratelimit-reset\":\"2\",\"etag\":\"W/\\\"0941fe96e9df6462241df3af6b573ee8\\\"\",\"cache-control\":\"max-age=0, private, must-revalidate\",\"x-request-id\":\"9f55e185-a804-4ef9-a8a1-1dff73218cf6\",\"x-runtime\":\"0.037435\",\"strict-transport-security\":\"max-age=63072000; includeSubDomains\",\"content-encoding\":\"gzip\"},\"Response Status\":200}]}",
        "time" : {
          "start" : 1645460779465,
          "stop" : 1645460779477,
          "duration" : 12
        },
        "status" : "passed",
        "steps" : [ ],
        "attachments" : [ ],
        "parameters" : [ ],
        "stepsCount" : 0,
        "attachmentsCount" : 0,
        "shouldDisplayMessage" : false,
        "hasContent" : false
      } ],
      "attachments" : [ ],
      "parameters" : [ ],
      "stepsCount" : 2,
      "attachmentsCount" : 0,
      "shouldDisplayMessage" : false,
      "hasContent" : true
    }, {
      "name" : "Then User Validates Put Call",
      "time" : {
        "start" : 1645460779483,
        "stop" : 1645460779495,
        "duration" : 12
      },
      "status" : "passed",
      "steps" : [ {
        "name" : "log Put Method",
        "time" : {
          "start" : 1645460779483,
          "stop" : 1645460779486,
          "duration" : 3
        },
        "status" : "passed",
        "steps" : [ ],
        "attachments" : [ ],
        "parameters" : [ ],
        "stepsCount" : 0,
        "attachmentsCount" : 0,
        "shouldDisplayMessage" : false,
        "hasContent" : false
      } ],
      "attachments" : [ ],
      "parameters" : [ ],
      "stepsCount" : 1,
      "attachmentsCount" : 0,
      "shouldDisplayMessage" : false,
      "hasContent" : true
    }, {
      "name" : "Then User Validates Delete Call",
      "time" : {
        "start" : 1645460779495,
        "stop" : 1645460779499,
        "duration" : 4
      },
      "status" : "passed",
      "steps" : [ {
        "name" : "log Delete Method",
        "time" : {
          "start" : 1645460779495,
          "stop" : 1645460779497,
          "duration" : 2
        },
        "status" : "passed",
        "steps" : [ ],
        "attachments" : [ ],
        "parameters" : [ ],
        "stepsCount" : 0,
        "attachmentsCount" : 0,
        "shouldDisplayMessage" : false,
        "hasContent" : false
      } ],
      "attachments" : [ ],
      "parameters" : [ ],
      "stepsCount" : 1,
      "attachmentsCount" : 0,
      "shouldDisplayMessage" : false,
      "hasContent" : true
    }, {
      "name" : "\"after each\" hook",
      "time" : {
        "start" : 1645460779526,
        "stop" : 1645460779527,
        "duration" : 1
      },
      "status" : "passed",
      "steps" : [ ],
      "attachments" : [ ],
      "parameters" : [ ],
      "stepsCount" : 0,
      "attachmentsCount" : 0,
      "shouldDisplayMessage" : false,
      "hasContent" : false
    } ],
    "attachments" : [ {
      "uid" : "4e66ef1c79498fac",
      "name" : "video recording",
      "source" : "4e66ef1c79498fac.mp4",
      "type" : "video/mp4",
      "size" : 338116
    } ],
    "parameters" : [ ],
    "stepsCount" : 13,
    "attachmentsCount" : 1,
    "shouldDisplayMessage" : false,
    "hasContent" : true
  },
  "afterStages" : [ ],
  "labels" : [ {
    "name" : "suite",
    "value" : "Test E2E"
  }, {
    "name" : "feature",
    "value" : "Test E2E"
  }, {
    "name" : "tag",
    "value" : "Smoke"
  }, {
    "name" : "resultFormat",
    "value" : "allure2"
  } ],
  "parameters" : [ ],
  "links" : [ ],
  "hidden" : false,
  "retry" : false,
  "extra" : {
    "severity" : "normal",
    "retries" : [ {
      "uid" : "4c9619b7ca0d6ee9",
      "status" : "passed",
      "time" : {
        "start" : 1645441948207,
        "stop" : 1645441949746,
        "duration" : 1539
      }
    }, {
      "uid" : "996c6a2e6160f6eb",
      "status" : "passed",
      "time" : {
        "start" : 1645441292477,
        "stop" : 1645441294030,
        "duration" : 1553
      }
    } ],
    "categories" : [ ],
    "tags" : [ "Smoke" ]
  },
  "source" : "fd943215a5adbf96.json",
  "parameterValues" : [ ]
}