{
  "uid" : "a984b086e2620edf",
  "name" : "TC004:Validate API Test",
  "fullName" : "TC004:Validate API Test",
  "historyId" : "c794df0de679a908cebc0733ea684a45",
  "time" : {
    "start" : 1645361263532,
    "stop" : 1645361264224,
    "duration" : 692
  },
  "status" : "passed",
  "flaky" : false,
  "newFailed" : false,
  "newBroken" : false,
  "newPassed" : false,
  "retriesCount" : 0,
  "retriesStatusChange" : false,
  "beforeStages" : [ ],
  "testStage" : {
    "status" : "passed",
    "steps" : [ {
      "name" : "\"before each\" hook",
      "time" : {
        "start" : 1645361263535,
        "stop" : 1645361263536,
        "duration" : 1
      },
      "status" : "passed",
      "steps" : [ ],
      "attachments" : [ ],
      "parameters" : [ ],
      "stepsCount" : 0,
      "attachmentsCount" : 0,
      "shouldDisplayMessage" : false,
      "hasContent" : false
    }, {
      "name" : "Then User Validates Post Call",
      "time" : {
        "start" : 1645361263554,
        "stop" : 1645361263894,
        "duration" : 340
      },
      "status" : "passed",
      "steps" : [ {
        "name" : "log https://gorest.co.in/public/v1/users",
        "time" : {
          "start" : 1645361263556,
          "stop" : 1645361263562,
          "duration" : 6
        },
        "status" : "passed",
        "steps" : [ ],
        "attachments" : [ ],
        "parameters" : [ ],
        "stepsCount" : 0,
        "attachmentsCount" : 0,
        "shouldDisplayMessage" : false,
        "hasContent" : false
      }, {
        "name" : "POST 201 https://gorest.co.in/public/v1/users",
        "time" : {
          "start" : 1645361263563,
          "stop" : 1645361263874,
          "duration" : 311
        },
        "status" : "passed",
        "steps" : [ ],
        "attachments" : [ ],
        "parameters" : [ ],
        "stepsCount" : 0,
        "attachmentsCount" : 0,
        "shouldDisplayMessage" : false,
        "hasContent" : false
      }, {
        "name" : "log {\"body\":{\"meta\":null,\"data\":{\"id\":4024,\"name\":\"aiMZxNuxvI\",\"email\":\"aV64BoKbfj@gmail.com\",\"gender\":\"male\",\"status\":\"active\"}},\"headers\":{\"server\":\"nginx\",\"date\":\"Sun, 20 Feb 2022 12:47:43 GMT\",\"content-type\":\"application/json; charset=utf-8\",\"transfer-encoding\":\"chunked\",\"connection\":\"keep-alive\",\"x-frame-options\":\"SAMEORIGIN\",\"x-xss-protection\":\"0\",\"x-content-type-options\":\"nosniff\",\"x-download-options\":\"noopen\",\"x-permitted-cross-domain-policies\":\"none\",\"referrer-policy\":\"strict-origin-when-cross-origin\",\"x-ratelimit-limit\":\"90\",\"x-ratelimit-remaining\":\"88\",\"x-ratelimit-reset\":\"1\",\"location\":\"https://gorest.co.in/public/v1/users/4024\",\"etag\":\"W/\\\"002cc59059191312adabbecc1efda979\\\"\",\"cache-control\":\"max-age=0, private, must-revalidate\",\"x-request-id\":\"8f3e825c-8fbd-4c1c-a2c7-6c428af1bd0d\",\"x-runtime\":\"0.048562\",\"strict-transport-security\":\"max-age=63072000; includeSubDomains\",\"vary\":\"Origin\"},\"status\":201,\"statusText\":\"Created\",\"isOkStatusCode\":true,\"requestHeaders\":{\"Connection\":\"keep-alive\",\"authorization\":\"Bearer 4b4c8f088b43abd2c4328d13f40228324cda0ef0b05a86faaacb6fbd31a3124d\",\"user-agent\":\"Mozilla/5.0 (X11; Linux x86_64) AppleWebKit/537.36 (KHTML, like Gecko) Chrome/86.0.4240.193 Safari/537.36\",\"accept\":\"*/*\",\"accept-encoding\":\"gzip, deflate\",\"content-type\":\"application/json\",\"content-length\":86},\"requestBody\":\"{\\\"name\\\":\\\"aiMZxNuxvI\\\",\\\"email\\\":\\\"aV64BoKbfj@gmail.com\\\",\\\"gender\\\":\\\"Male\\\",\\\"status\\\":\\\"Active\\\"}\",\"duration\":280,\"allRequestResponses\":[{\"Request Body\":\"{\\\"name\\\":\\\"aiMZxNuxvI\\\",\\\"email\\\":\\\"aV64BoKbfj@gmail.com\\\",\\\"gender\\\":\\\"Male\\\",\\\"status\\\":\\\"Active\\\"}\",\"Request Headers\":{\"Connection\":\"keep-alive\",\"authorization\":\"Bearer 4b4c8f088b43abd2c4328d13f40228324cda0ef0b05a86faaacb6fbd31a3124d\",\"user-agent\":\"Mozilla/5.0 (X11; Linux x86_64) AppleWebKit/537.36 (KHTML, like Gecko) Chrome/86.0.4240.193 Safari/537.36\",\"accept\":\"*/*\",\"accept-encoding\":\"gzip, deflate\",\"content-type\":\"application/json\",\"content-length\":86},\"Request URL\":\"https://gorest.co.in/public/v1/users\",\"Response Body\":{\"meta\":null,\"data\":{\"id\":4024,\"name\":\"aiMZxNuxvI\",\"email\":\"aV64BoKbfj@gmail.com\",\"gender\":\"male\",\"status\":\"active\"}},\"Response Headers\":{\"server\":\"nginx\",\"date\":\"Sun, 20 Feb 2022 12:47:43 GMT\",\"content-type\":\"application/json; charset=utf-8\",\"transfer-encoding\":\"chunked\",\"connection\":\"keep-alive\",\"x-frame-options\":\"SAMEORIGIN\",\"x-xss-protection\":\"0\",\"x-content-type-options\":\"nosniff\",\"x-download-options\":\"noopen\",\"x-permitted-cross-domain-policies\":\"none\",\"referrer-policy\":\"strict-origin-when-cross-origin\",\"x-ratelimit-limit\":\"90\",\"x-ratelimit-remaining\":\"88\",\"x-ratelimit-reset\":\"1\",\"location\":\"https://gorest.co.in/public/v1/users/4024\",\"etag\":\"W/\\\"002cc59059191312adabbecc1efda979\\\"\",\"cache-control\":\"max-age=0, private, must-revalidate\",\"x-request-id\":\"8f3e825c-8fbd-4c1c-a2c7-6c428af1bd0d\",\"x-runtime\":\"0.048562\",\"strict-transport-security\":\"max-age=63072000; includeSubDomains\",\"vary\":\"Origin\"},\"Response Status\":201}]}",
        "time" : {
          "start" : 1645361263883,
          "stop" : 1645361263890,
          "duration" : 7
        },
        "status" : "passed",
        "steps" : [ ],
        "attachments" : [ ],
        "parameters" : [ ],
        "stepsCount" : 0,
        "attachmentsCount" : 0,
        "shouldDisplayMessage" : false,
        "hasContent" : false
      } ],
      "attachments" : [ ],
      "parameters" : [ ],
      "stepsCount" : 3,
      "attachmentsCount" : 0,
      "shouldDisplayMessage" : false,
      "hasContent" : true
    }, {
      "name" : "Then User Validates Get Call",
      "time" : {
        "start" : 1645361263894,
        "stop" : 1645361264208,
        "duration" : 314
      },
      "status" : "passed",
      "steps" : [ {
        "name" : "GET 200 https://gorest.co.in/public/v1/users",
        "time" : {
          "start" : 1645361263895,
          "stop" : 1645361264180,
          "duration" : 285
        },
        "status" : "passed",
        "steps" : [ ],
        "attachments" : [ ],
        "parameters" : [ ],
        "stepsCount" : 0,
        "attachmentsCount" : 0,
        "shouldDisplayMessage" : false,
        "hasContent" : false
      }, {
        "name" : "log {\"body\":{\"meta\":{\"pagination\":{\"total\":3456,\"pages\":173,\"page\":1,\"limit\":20,\"links\":{\"previous\":null,\"current\":\"https://gorest.co.in/public/v1/users?page=1\",\"next\":\"https://gorest.co.in/public/v1/users?page=2\"}}},\"data\":[{\"id\":4024,\"name\":\"aiMZxNuxvI\",\"email\":\"aV64BoKbfj@gmail.com\",\"gender\":\"male\",\"status\":\"active\"},{\"id\":4023,\"name\":\"hYwyOZRpYL\",\"email\":\"bzKKQPVbPa@gmail.com\",\"gender\":\"male\",\"status\":\"active\"},{\"id\":4022,\"name\":\"wOEgRtYTSF\",\"email\":\"t6tBZm1k2j@gmail.com\",\"gender\":\"male\",\"status\":\"active\"},{\"id\":4021,\"name\":\"ihXbsHMSUX\",\"email\":\"WMX8QWI1lE@gmail.com\",\"gender\":\"male\",\"status\":\"active\"},{\"id\":4018,\"name\":\"SPULXJgrAs\",\"email\":\"smlBoqfKtF@gmail.com\",\"gender\":\"male\",\"status\":\"active\"},{\"id\":4017,\"name\":\"tJABWUUxus\",\"email\":\"v8XmuMvV4V@gmail.com\",\"gender\":\"male\",\"status\":\"active\"},{\"id\":4016,\"name\":\"OCsXetXmJc\",\"email\":\"m6S39z5oNl@gmail.com\",\"gender\":\"male\",\"status\":\"active\"},{\"id\":4015,\"name\":\"PtmmogrmHE\",\"email\":\"l2NqiIMOkp@gmail.com\",\"gender\":\"male\",\"status\":\"active\"},{\"id\":4003,\"name\":\"KYbGyLIJkf\",\"email\":\"EVmcwgUmWh@gmail.com\",\"gender\":\"male\",\"status\":\"active\"},{\"id\":4002,\"name\":\"NXfHFtzQzL\",\"email\":\"rvLENDPyip@gmail.com\",\"gender\":\"male\",\"status\":\"active\"},{\"id\":4001,\"name\":\"pkJPyNRvBO\",\"email\":\"d2FRSKBqmF@gmail.com\",\"gender\":\"male\",\"status\":\"active\"},{\"id\":4000,\"name\":\"SEhiJztqKE\",\"email\":\"7v8y6gK763@gmail.com\",\"gender\":\"male\",\"status\":\"active\"},{\"id\":3994,\"name\":\"wNycvticPm\",\"email\":\"lqpQm44HRe@gmail.com\",\"gender\":\"male\",\"status\":\"active\"},{\"id\":3993,\"name\":\"xdLznNinnC\",\"email\":\"MMAtRoRVTy@gmail.com\",\"gender\":\"male\",\"status\":\"active\"},{\"id\":3992,\"name\":\"reQXqrUAzP\",\"email\":\"JKXpvJLjSD@gmail.com\",\"gender\":\"male\",\"status\":\"active\"},{\"id\":3991,\"name\":\"lictyxjACH\",\"email\":\"QNUKBeqTte@gmail.com\",\"gender\":\"male\",\"status\":\"active\"},{\"id\":3979,\"name\":\"SYQmnRconl\",\"email\":\"mXD662MQlm@gmail.com\",\"gender\":\"male\",\"status\":\"active\"},{\"id\":3978,\"name\":\"moxqrsypCG\",\"email\":\"3cSH0FrGrI@gmail.com\",\"gender\":\"male\",\"status\":\"active\"},{\"id\":3977,\"name\":\"EkfTBkaBGQ\",\"email\":\"EaOPQTssjU@gmail.com\",\"gender\":\"male\",\"status\":\"active\"},{\"id\":3976,\"name\":\"iMxGQkCkgh\",\"email\":\"VJw3fixYuJ@gmail.com\",\"gender\":\"male\",\"status\":\"active\"}]},\"headers\":{\"server\":\"nginx\",\"date\":\"Sun, 20 Feb 2022 12:47:44 GMT\",\"content-type\":\"application/json; charset=utf-8\",\"transfer-encoding\":\"chunked\",\"connection\":\"keep-alive\",\"vary\":\"Accept-Encoding, Origin\",\"x-frame-options\":\"SAMEORIGIN\",\"x-xss-protection\":\"0\",\"x-content-type-options\":\"nosniff\",\"x-download-options\":\"noopen\",\"x-permitted-cross-domain-policies\":\"none\",\"referrer-policy\":\"strict-origin-when-cross-origin\",\"x-ratelimit-limit\":\"90\",\"x-ratelimit-remaining\":\"89\",\"x-ratelimit-reset\":\"2\",\"etag\":\"W/\\\"8859e292ef84999b3f45ac46fb9305d1\\\"\",\"cache-control\":\"max-age=0, private, must-revalidate\",\"x-request-id\":\"1dae9789-9b54-45e5-b217-958f83737a64\",\"x-runtime\":\"0.040325\",\"strict-transport-security\":\"max-age=63072000; includeSubDomains\",\"content-encoding\":\"gzip\"},\"status\":200,\"statusText\":\"OK\",\"isOkStatusCode\":true,\"requestHeaders\":{\"Connection\":\"keep-alive\",\"authorization\":\"Bearer 4b4c8f088b43abd2c4328d13f40228324cda0ef0b05a86faaacb6fbd31a3124d\",\"user-agent\":\"Mozilla/5.0 (X11; Linux x86_64) AppleWebKit/537.36 (KHTML, like Gecko) Chrome/86.0.4240.193 Safari/537.36\",\"accept\":\"*/*\",\"accept-encoding\":\"gzip, deflate\"},\"duration\":275,\"allRequestResponses\":[{\"Request Body\":null,\"Request Headers\":{\"Connection\":\"keep-alive\",\"authorization\":\"Bearer 4b4c8f088b43abd2c4328d13f40228324cda0ef0b05a86faaacb6fbd31a3124d\",\"user-agent\":\"Mozilla/5.0 (X11; Linux x86_64) AppleWebKit/537.36 (KHTML, like Gecko) Chrome/86.0.4240.193 Safari/537.36\",\"accept\":\"*/*\",\"accept-encoding\":\"gzip, deflate\"},\"Request URL\":\"https://gorest.co.in/public/v1/users\",\"Response Body\":\"{\\\"meta\\\":{\\\"pagination\\\":{\\\"total\\\":3456,\\\"pages\\\":173,\\\"page\\\":1,\\\"limit\\\":20,\\\"links\\\":{\\\"previous\\\":null,\\\"current\\\":\\\"https://gorest.co.in/public/v1/users?page=1\\\",\\\"next\\\":\\\"https://gorest.co.in/public/v1/users?page=2\\\"}}},\\\"data\\\":[{\\\"id\\\":4024,\\\"name\\\":\\\"aiMZxNuxvI\\\",\\\"email\\\":\\\"aV64BoKbfj@gmail.com\\\",\\\"gender\\\":\\\"male\\\",\\\"status\\\":\\\"active\\\"},{\\\"id\\\":4023,\\\"name\\\":\\\"hYwyOZRpYL\\\",\\\"email\\\":\\\"bzKKQPVbPa@gmail.com\\\",\\\"gender\\\":\\\"male\\\",\\\"status\\\":\\\"active\\\"},{\\\"id\\\":4022,\\\"name\\\":\\\"wOEgRtYTSF\\\",\\\"email\\\":\\\"t6tBZm1k2j@gmail.com\\\",\\\"gender\\\":\\\"male\\\",\\\"status\\\":\\\"active\\\"},{\\\"id\\\":4021,\\\"name\\\":\\\"ihXbsHMSUX\\\",\\\"email\\\":\\\"WMX8QWI1lE@gmail.com\\\",\\\"gender\\\":\\\"male\\\",\\\"status\\\":\\\"active\\\"},{\\\"id\\\":4018,\\\"name\\\":\\\"SPULXJgrAs\\\",\\\"email\\\":\\\"smlBoqfKtF@gmail.com\\\",\\\"gender\\\":\\\"male\\\",\\\"status\\\":\\\"active\\\"},{\\\"id\\\":4017,\\\"name\\\":\\\"tJABWUUxus\\\",\\\"email\\\":\\\"v8XmuMvV4V@gmail.com\\\",\\\"gender\\\":\\\"male\\\",\\\"status\\\":\\\"active\\\"},{\\\"id\\\":4016,\\\"name\\\":\\\"OCsXetXmJc\\\",\\\"email\\\":\\\"m6S39z5oNl@gmail.com\\\",\\\"gender\\\":\\\"male\\\",\\\"status\\\":\\\"active\\\"},{\\\"id\\\":4015,\\\"name\\\":\\\"PtmmogrmHE\\\",\\\"email\\\":\\\"l2NqiIMOkp@gmail.com\\\",\\\"gender\\\":\\\"male\\\",\\\"status\\\":\\\"active\\\"},{\\\"id\\\":4003,\\\"name\\\":\\\"KYbGyLIJkf\\\",\\\"email\\\":\\\"EVmcwgUmWh@gmail.com\\\",\\\"gender\\\":\\\"male\\\",\\\"status\\\":\\\"active\\\"},{\\\"id\\\":4002,\\\"name\\\":\\\"NXfHFtzQzL\\\",\\\"email\\\":\\\"rvLENDPyip@gmail.com\\\",\\\"gender\\\":\\\"male\\\",\\\"status\\\":\\\"active\\\"},{\\\"id\\\":4001,\\\"name\\\":\\\"pkJPyNRvBO\\\",\\\"email\\\":\\\"d2FRSKBqmF@gmail.com\\\",\\\"gender\\\":\\\"male\\\",\\\"status\\\":\\\"active\\\"},{\\\"id\\\":4000,\\\"name\\\":\\\"SEhiJztqKE\\\",\\\"email\\\":\\\"7v8y6gK763@gmail.com\\\",\\\"gender\\\":\\\"male\\\",\\\"status\\\":\\\"active\\\"},{\\\"id\\\":3994,\\\"name\\\":\\\"wNycvticPm\\\",\\\"email\\\":\\\"lqpQm44HRe@gmail.com\\\",\\\"gender\\\":\\\"male\\\",\\\"status\\\":\\\"active\\\"},{\\\"id\\\":3993,\\\"name\\\":\\\"xdLznNinnC\\\",\\\"email\\\":\\\"MMAtRoRVTy@gmail.com\\\",\\\"gender\\\":\\\"male\\\",\\\"status\\\":\\\"active\\\"},{\\\"id\\\":3992,\\\"name\\\":\\\"reQXqrUAzP\\\",\\\"email\\\":\\\"JKXpvJLjSD@gmail.com\\\",\\\"gender\\\":\\\"male\\\",\\\"status\\\":\\\"active\\\"},{\\\"id\\\":3991,\\\"name\\\":\\\"lictyxjACH\\\",\\\"email\\\":\\\"QNUKBeqTte@gmail.com\\\",\\\"gender\\\":\\\"male\\\",\\\"status\\\":\\\"active\\\"},{\\\"id\\\":3979,\\\"name\\\":\\\"SYQmnRconl\\\",\\\"email\\\":\\\"mXD662MQlm@gmail.com\\\",\\\"gender\\\":\\\"male\\\",\\\"status\\\":\\\"active\\\"},{\\\"id\\\":3978,\\\"name\\\":\\\"moxqrsypCG\\\",\\\"email\\\":\\\"3cSH0FrGrI@gmail.com\\\",\\\"gender\\\":\\\"male\\\",\\\"status\\\":\\\"active\\\"},{\\\"id\\\":3977,\\\"name\\\":\\\"EkfTBkaBGQ\\\",\\\"email\\\":\\\"EaOPQTssjU@gmail.com\\\",\\\"gender\\\":\\\"male\\\",\\\"status\\\":\\\"active\\\"},{\\\"id\\\":3976,\\\"name\\\":\\\"iMxGQkCkgh\\\",\\\"email\\\":\\\"VJw3fixYuJ@gmail.com\\\",\\\"gender\\\":\\\"male\\\",\\\"status\\\":\\\"active\\\"}]}\",\"Response Headers\":{\"server\":\"nginx\",\"date\":\"Sun, 20 Feb 2022 12:47:44 GMT\",\"content-type\":\"application/json; charset=utf-8\",\"transfer-encoding\":\"chunked\",\"connection\":\"keep-alive\",\"vary\":\"Accept-Encoding, Origin\",\"x-frame-options\":\"SAMEORIGIN\",\"x-xss-protection\":\"0\",\"x-content-type-options\":\"nosniff\",\"x-download-options\":\"noopen\",\"x-permitted-cross-domain-policies\":\"none\",\"referrer-policy\":\"strict-origin-when-cross-origin\",\"x-ratelimit-limit\":\"90\",\"x-ratelimit-remaining\":\"89\",\"x-ratelimit-reset\":\"2\",\"etag\":\"W/\\\"8859e292ef84999b3f45ac46fb9305d1\\\"\",\"cache-control\":\"max-age=0, private, must-revalidate\",\"x-request-id\":\"1dae9789-9b54-45e5-b217-958f83737a64\",\"x-runtime\":\"0.040325\",\"strict-transport-security\":\"max-age=63072000; includeSubDomains\",\"content-encoding\":\"gzip\"},\"Response Status\":200}]}",
        "time" : {
          "start" : 1645361264188,
          "stop" : 1645361264203,
          "duration" : 15
        },
        "status" : "passed",
        "steps" : [ ],
        "attachments" : [ ],
        "parameters" : [ ],
        "stepsCount" : 0,
        "attachmentsCount" : 0,
        "shouldDisplayMessage" : false,
        "hasContent" : false
      } ],
      "attachments" : [ ],
      "parameters" : [ ],
      "stepsCount" : 2,
      "attachmentsCount" : 0,
      "shouldDisplayMessage" : false,
      "hasContent" : true
    }, {
      "name" : "Then User Validates Put Call",
      "time" : {
        "start" : 1645361264208,
        "stop" : 1645361264217,
        "duration" : 9
      },
      "status" : "passed",
      "steps" : [ {
        "name" : "log Put Method",
        "time" : {
          "start" : 1645361264209,
          "stop" : 1645361264213,
          "duration" : 4
        },
        "status" : "passed",
        "steps" : [ ],
        "attachments" : [ ],
        "parameters" : [ ],
        "stepsCount" : 0,
        "attachmentsCount" : 0,
        "shouldDisplayMessage" : false,
        "hasContent" : false
      } ],
      "attachments" : [ ],
      "parameters" : [ ],
      "stepsCount" : 1,
      "attachmentsCount" : 0,
      "shouldDisplayMessage" : false,
      "hasContent" : true
    }, {
      "name" : "Then User Validates Delete Call",
      "time" : {
        "start" : 1645361264217,
        "stop" : 1645361264223,
        "duration" : 6
      },
      "status" : "passed",
      "steps" : [ {
        "name" : "log Delete Method",
        "time" : {
          "start" : 1645361264217,
          "stop" : 1645361264221,
          "duration" : 4
        },
        "status" : "passed",
        "steps" : [ ],
        "attachments" : [ ],
        "parameters" : [ ],
        "stepsCount" : 0,
        "attachmentsCount" : 0,
        "shouldDisplayMessage" : false,
        "hasContent" : false
      } ],
      "attachments" : [ ],
      "parameters" : [ ],
      "stepsCount" : 1,
      "attachmentsCount" : 0,
      "shouldDisplayMessage" : false,
      "hasContent" : true
    }, {
      "name" : "\"after each\" hook",
      "time" : {
        "start" : 1645361264251,
        "stop" : 1645361264253,
        "duration" : 2
      },
      "status" : "passed",
      "steps" : [ ],
      "attachments" : [ ],
      "parameters" : [ ],
      "stepsCount" : 0,
      "attachmentsCount" : 0,
      "shouldDisplayMessage" : false,
      "hasContent" : false
    } ],
    "attachments" : [ {
      "uid" : "b13aea1bdae5f82f",
      "name" : "video recording",
      "source" : "b13aea1bdae5f82f.mp4",
      "type" : "video/mp4",
      "size" : 511525
    } ],
    "parameters" : [ ],
    "stepsCount" : 13,
    "attachmentsCount" : 1,
    "shouldDisplayMessage" : false,
    "hasContent" : true
  },
  "afterStages" : [ ],
  "labels" : [ {
    "name" : "suite",
    "value" : "API"
  }, {
    "name" : "feature",
    "value" : "Test E2E"
  }, {
    "name" : "tag",
    "value" : "Regression"
  }, {
    "name" : "resultFormat",
    "value" : "allure2"
  } ],
  "parameters" : [ ],
  "links" : [ ],
  "hidden" : false,
  "retry" : false,
  "extra" : {
    "severity" : "normal",
    "retries" : [ ],
    "categories" : [ ],
    "tags" : [ "Regression" ]
  },
  "source" : "a984b086e2620edf.json",
  "parameterValues" : [ ]
}